<?xml version="1.0" encoding="utf-8"?>
<!-- Generator: Adobe Illustrator 21.0.0, SVG Export Plug-In . SVG Version: 6.00 Build 0)  -->
<svg version="1.1" id="Capa_1" xmlns="http://www.w3.org/2000/svg" xmlns:xlink="http://www.w3.org/1999/xlink" x="0px" y="0px"
	 viewBox="0 0 200 200" style="enable-background:new 0 0 200 200;" xml:space="preserve">
<style type="text/css">
	.st0{fill:#64353D;}
	.st1{fill:#7A424B;}
	.st2{fill:#E6B99C;}
	.st3{fill:#319A7A;}
	.st4{fill:#178764;}
	.st5{fill:none;stroke:#4C252C;stroke-width:2;stroke-miterlimit:10;}
	.st6{fill:#4C252C;}
	.st7{fill:#4C252C;stroke:#4C252C;stroke-miterlimit:10;}
	.st8{fill:#E2AF8F;}
	.st9{fill:#CA9A7C;}
	.st10{fill:#36160D;}
	.st11{fill:#FFFFFF;}
	.st12{opacity:0.2;fill:#FFFFFF;enable-background:new    ;}
	.st13{fill:#C39577;}
	.st14{fill:none;stroke:#4C252C;stroke-width:2;stroke-linecap:round;stroke-linejoin:round;stroke-miterlimit:10;}
</style>
<path id="XMLID_67_" class="st0" d="M153.6,57.2c0,33.9-24,132.7-53.6,132.7S46.4,91.1,46.4,57.2S70.5,0,100.1,0
	S153.6,23.3,153.6,57.2z"/>
<polygon id="XMLID_66_" class="st1" points="137.7,169.6 153.6,169.6 153.6,57.2 149,33 137.7,15.7 "/>
<path id="XMLID_41_" class="st2" d="M79.9,200H69.6c-14.5,0-26.3-11.8-26.3-26.3v-13.8c0-28.1,22.7-36.4,34.1-36.4l2.5,8.8
	c11.4,0,20.6,9.3,20.6,20.6v26.4C100.6,190.7,91.3,200,79.9,200z"/>
<path id="XMLID_40_" class="st2" d="M120.1,200h10.3c14.5,0,26.3-11.8,26.3-26.3v-13.8c0-28.1-22.7-36.4-34.1-36.4l-2.5,8.8
	c-11.4,0-20.6,9.3-20.6,20.6v26.4C99.4,190.7,108.7,200,120.1,200z"/>
<path id="XMLID_3_" class="st3" d="M136.5,200H62.4c-5,0-9.1-4.1-9.1-9.1v-53c0-8.1,6.6-14.7,14.7-14.7h65c8.1,0,14.7,6.6,14.7,14.7
	v50.7C147.8,194.9,142.7,200,136.5,200z"/>
<path id="XMLID_38_" class="st4" d="M67.3,124.5l32.7,36.2l33-36.5c-2-0.6-4.1-1-6.3-1H74.4C71.9,123.2,69.5,123.7,67.3,124.5z"/>
<polygon id="XMLID_37_" class="st2" points="75.7,123.2 100,153 124.4,123.2 "/>
<g id="XMLID_31_">
	<path id="XMLID_36_" class="st5" d="M70.9,165.8v-23.6c0-11.8,9.7-21.5,21.5-21.5h14.3c11.8,0,21.5,9.7,21.5,21.5v8.4"/>
	<path id="XMLID_35_" class="st6" d="M121.7,157.3h4.2c2.5,0,4.6-2.1,4.6-4.6l0,0c0-2.5-2.1-4.6-4.6-4.6h-4.2
		c-2.5,0-4.6,2.1-4.6,4.6l0,0C117.1,155.2,119.2,157.3,121.7,157.3z"/>
	<path id="XMLID_34_" class="st5" d="M60.8,183.2v-7.9c0-5.6,4.6-10.2,10.2-10.2s10.2,4.6,10.2,10.2v7.9"/>
	<path id="XMLID_33_" class="st7" d="M75.2,185.2h4.5c1.2,0,2.2-1,2.2-2.2l0,0c0-1.2-1-2.2-2.2-2.2h-4.5c-1.2,0-2.2,1-2.2,2.2l0,0
		C73,184.2,74,185.2,75.2,185.2z"/>
	<path id="XMLID_32_" class="st7" d="M62.1,185.2h4.5c1.2,0,2.2-1,2.2-2.2l0,0c0-1.2-1-2.2-2.2-2.2h-4.5c-1.2,0-2.2,1-2.2,2.2l0,0
		C59.9,184.2,60.9,185.2,62.1,185.2z"/>
</g>
<path id="XMLID_30_" class="st8" d="M100,131.8L100,131.8c-7.9,0-14.5-3.7-14.5-3.7V93.8c0-7.9,6.5-14.5,14.5-14.5l0,0
	c7.9,0,14.5,6.5,14.5,14.5v34.3C114.5,128.2,108,131.8,100,131.8z"/>
<path id="XMLID_29_" class="st9" d="M100,80.1c-7.9,0-14.5,6.5-14.5,14.5v22.8c3.3,0.8,6.7,1.2,10.2,1.2c6.6,0,12.9-1.5,18.7-4.1
	V94.6C114.5,86.6,108,80.1,100,80.1z"/>
<path id="XMLID_28_" class="st2" d="M149.7,57.4c0,31.1-22.2,56.3-49.7,56.3c-27.4,0-49.7-25.2-49.7-56.3S72.5,4.9,100,4.9
	C127.5,4.9,149.7,26.3,149.7,57.4z"/>
<g id="XMLID_25_">
	<ellipse id="XMLID_27_" class="st10" cx="126.7" cy="56.8" rx="4.1" ry="6.8"/>
	<circle id="XMLID_26_" class="st11" cx="125.6" cy="54.1" r="1.3"/>
</g>
<g id="XMLID_22_">
	<ellipse id="XMLID_24_" class="st10" cx="73.4" cy="56.8" rx="4.1" ry="6.8"/>
	<circle id="XMLID_23_" class="st11" cx="72.3" cy="54.1" r="1.3"/>
</g>
<circle id="XMLID_21_" class="st8" cx="66.5" cy="73.8" r="7.6"/>
<path id="XMLID_20_" class="st5" d="M83.1,71.3H64.2c-2.9,0-5.2-2.3-5.2-5.2V42.4h24.1c2.9,0,5.2,2.3,5.2,5.2v18.5
	C88.3,68.9,86,71.3,83.1,71.3z"/>
<circle id="XMLID_19_" class="st8" cx="133.6" cy="73.8" r="7.6"/>
<path id="XMLID_18_" class="st12" d="M62.4,70c8.2-8.2,16.3-16.4,24.5-24.6c-1.4-1.9-3.5-3.1-6-3.1H59v21.5
	C59,66.4,60.4,68.7,62.4,70z"/>
<path id="XMLID_17_" class="st12" d="M88.3,53.9v-3.8c-7,7.1-14.1,14.1-21.1,21.2h3.7L88.3,53.9z"/>
<path id="XMLID_16_" class="st12" d="M77,71.3h3.9c4.1,0,7.4-3.3,7.4-7.4V60C84.5,63.7,80.7,67.5,77,71.3z"/>
<path id="XMLID_15_" class="st12" d="M141.3,49.3v-6.9h-21.8c-4.1,0-7.4,3.3-7.4,7.4v14c0,4.1,3.3,7.4,7.4,7.4
	C126.7,63.9,134,56.6,141.3,49.3z"/>
<path id="XMLID_14_" class="st12" d="M141.3,61.3v-5.9c-5.3,5.3-10.6,10.6-15.8,15.9h5.8L141.3,61.3z"/>
<path id="XMLID_13_" class="st5" d="M117.2,71.3h18.9c2.9,0,5.2-2.3,5.2-5.2V42.4h-24.1c-2.9,0-5.2,2.3-5.2,5.2v18.5
	C112.1,68.9,114.4,71.3,117.2,71.3z"/>
<path id="XMLID_10_" class="st6" d="M119.7,87.2c-2.2,3.2-5.1,5.9-8.6,7.9s-7.5,3.1-11.5,3.1c-4.1,0-8.1-1.1-11.5-3.1
	c-3.5-2-6.4-4.7-8.6-7.9c3.1,2.4,6.2,4.4,9.6,5.9c3.4,1.4,6.9,2.3,10.5,2.2c3.6,0,7.2-0.8,10.5-2.2
	C113.5,91.6,116.6,89.5,119.7,87.2z"/>
<path id="XMLID_9_" class="st13" d="M100.1,71.1c-2.5,0-4.6-1.1-5.4-2.7c-0.2,0.4-0.3,0.9-0.3,1.3c0,2.2,2.6,4,5.7,4
	c3.2,0,5.7-1.8,5.7-4c0-0.5-0.1-0.9-0.3-1.3C104.6,70,102.5,71.1,100.1,71.1z"/>
<polygon id="XMLID_8_" class="st1" points="62.4,169.6 46.5,169.6 46.5,57.2 51.1,33 62.4,15.7 "/>
<path id="XMLID_7_" class="st1" d="M100.1,0C70.5,0,46.5,23.3,46.5,57.2c0,1.1,0,2.3,0.1,3.5l15.8-1.4c0,0,0-16.2,13-21.7
	c11.2-4.7,41.6,4.2,50.8-13.9c0,0,11.3,29.1,23.6,33.7l3.8,4.4c0.1-1.6,0.1-3.1,0.1-4.5C153.6,23.3,129.7,0,100.1,0z"/>
<path id="XMLID_6_" class="st14" d="M113.8,68.6c-2.7-4.9-7.8-8.2-13.6-8.2l0,0c-5.8,0-10.9,3.3-13.6,8.2"/>
</svg>
