<?xml version="1.0" encoding="utf-8"?>
<!-- Generator: Adobe Illustrator 19.0.0, SVG Export Plug-In . SVG Version: 6.00 Build 0)  -->
<svg version="1.1" id="Capa_1" xmlns="http://www.w3.org/2000/svg" xmlns:xlink="http://www.w3.org/1999/xlink" x="0px" y="0px"
	 viewBox="0 0 200 200" style="enable-background:new 0 0 200 200;" xml:space="preserve">
<style type="text/css">
	.st0{fill:#4C252C;}
	.st1{fill:#A33A4D;}
	.st2{fill:#E6B99C;}
	.st3{fill:#D4A282;}
	.st4{fill:none;stroke:#393449;stroke-width:3;stroke-miterlimit:10;}
	.st5{fill:none;stroke:#2B2737;stroke-width:6;stroke-linecap:round;stroke-linejoin:round;stroke-miterlimit:10;}
	.st6{fill:#2B2737;}
	.st7{fill:#393449;}
	.st8{fill:#BD4459;}
	.st9{fill:#E2AF8F;}
	.st10{fill:#CA9A7C;}
	.st11{fill:#FFFFFF;}
	.st12{fill:#C39577;}
	.st13{fill:#36160D;}
</style>
<g id="XMLID_3_">
	<path id="XMLID_41_" class="st0" d="M142.8,74.3c0,28-19.2,50.8-43,50.8s-43-22.7-43-50.8c0-28,19.2-47.3,43-47.3
		S142.8,46.3,142.8,74.3z"/>
	<circle id="XMLID_40_" class="st0" cx="99.9" cy="26.7" r="24.7"/>
	<path id="XMLID_39_" class="st1" d="M75.6,31.2c1,5.7,4,10.8,8.3,14.4c2-1.9,3.9-4,5.6-6.4c3.3,0.9,6.8,1.5,10.5,1.5
		c3.9,0,7.6-0.6,11.2-1.7c1.6,2.2,3.4,4.3,5.3,6.2c4.1-3.7,7-8.8,7.9-14.5c-6.8-4.6-15.1-7.2-23.9-7.2
		C91.2,23.4,82.6,26.2,75.6,31.2z"/>
	<g id="XMLID_35_">
		<path id="XMLID_38_" class="st2" d="M62.7,71.2c1.2,5.3-0.9,10.3-4.6,11.3c-3.7,1-7.7-2.5-8.9-7.8c-1.2-5.3,0.9-10.3,4.6-11.3
			C57.6,62.5,61.5,66,62.7,71.2z"/>
		<path id="XMLID_37_" class="st3" d="M60.9,71.7c0.8,3.7-0.2,5.1-2.9,5.8c-2.7,0.7-6.2,0.4-7-3.2c-0.8-3.7,0.7-7.2,3.5-7.9
			C57.2,65.6,60.1,68,60.9,71.7z"/>
		<ellipse id="XMLID_36_" class="st2" cx="57.5" cy="72.4" rx="2.9" ry="2.3"/>
	</g>
	<g id="XMLID_31_">
		<path id="XMLID_34_" class="st2" d="M137.2,71.2c-1.2,5.3,0.9,10.3,4.6,11.3c3.7,1,7.7-2.5,8.9-7.8c1.2-5.3-0.9-10.3-4.6-11.3
			S138.3,66,137.2,71.2z"/>
		<path id="XMLID_33_" class="st3" d="M139,71.7c-0.8,3.7,0.2,5.1,2.9,5.8c2.7,0.7,6.2,0.4,7-3.2c0.8-3.7-0.7-7.2-3.5-7.9
			C142.6,65.6,139.8,68,139,71.7z"/>
		<ellipse id="XMLID_32_" class="st2" cx="142.3" cy="72.4" rx="2.9" ry="2.3"/>
	</g>
	<path id="XMLID_30_" class="st4" d="M145.2,61.6c-3.5-20.7-16.3-44-45.9-44c-28.5,0-42.4,23.3-45.9,44"/>
	<path id="XMLID_29_" class="st5" d="M134.7,35.3C121.9,17.4,96,12.2,77,23.5c-4.9,3-9.2,7-12.6,11.6"/>
	<path id="XMLID_28_" class="st6" d="M46.9,88.3L46.9,88.3c3.6,0,6.6-3,6.6-6.6V69.9c0-3.6-3-6.6-6.6-6.6l0,0c-3.6,0-6.6,3-6.6,6.6
		v11.8C40.3,85.3,43.3,88.3,46.9,88.3z"/>
	<path id="XMLID_27_" class="st7" d="M53.5,95.4L53.5,95.4c3.6,0,6.6-3,6.6-6.6V62.7c0-3.6-3-6.6-6.6-6.6l0,0c-3.6,0-6.6,3-6.6,6.6
		v26.2C46.9,92.5,49.9,95.4,53.5,95.4z"/>
	<path id="XMLID_26_" class="st6" d="M154.9,63.3h-3.5c-2.6,0-4.8,2.2-4.8,4.8v15.3c0,2.6,2.2,4.8,4.8,4.8h3.5
		c2.6,0,4.8-2.2,4.8-4.8V68.1C159.7,65.5,157.5,63.3,154.9,63.3z"/>
	<path id="XMLID_25_" class="st7" d="M146.5,56.2L146.5,56.2c-3.6,0-6.6,3-6.6,6.6v26.2c0,3.6,3,6.6,6.6,6.6l0,0
		c3.6,0,6.6-3,6.6-6.6V62.7C153.1,59.1,150.1,56.2,146.5,56.2z"/>
	<path id="XMLID_24_" class="st2" d="M82.4,195.7h-8.9c-12.5,0-22.7-10.2-22.7-22.7v-11.9c0-24.3,19.7-31.5,29.5-31.5l2.2,7.6
		c9.8,0,17.9,8,17.9,17.9v22.8C100.3,187.7,92.3,195.7,82.4,195.7z"/>
	<path id="XMLID_23_" class="st2" d="M117.2,195.7h8.9c12.5,0,22.7-10.2,22.7-22.7v-11.9c0-24.3-19.7-31.5-29.5-31.5l-2.2,7.6
		c-9.8,0-17.9,8-17.9,17.9v22.8C99.3,187.7,107.4,195.7,117.2,195.7z"/>
	<path id="XMLID_22_" class="st8" d="M129.4,195.7H68.1c-5,0-9.1-4.1-9.1-9.1v-39.2c0-10,8.2-18.2,18.2-18.2h45.4
		c10,0,18.2,8.2,18.2,18.2v36.9C140.7,190.6,135.6,195.7,129.4,195.7z"/>
	<path id="XMLID_21_" class="st2" d="M118.2,129.3H81.5c-2,0-3.9,0.3-5.7,0.8c1.4,15.6,11.6,27.7,24.1,27.7s22.7-12.1,24.1-27.7
		C122.1,129.6,120.2,129.3,118.2,129.3z"/>
	<path id="XMLID_20_" class="st9" d="M99.9,136.8L99.9,136.8c-6.9,0-12.5-3.2-12.5-3.2v-29.7c0-6.9,5.6-12.5,12.5-12.5l0,0
		c6.9,0,12.5,5.6,12.5,12.5v29.7C112.4,133.6,106.7,136.8,99.9,136.8z"/>
	<path id="XMLID_19_" class="st10" d="M99.9,92c-6.9,0-12.5,5.6-12.5,12.5v19.7c2.9,0.7,5.8,1,8.8,1c5.7,0,11.2-1.3,16.2-3.6v-17.2
		C112.4,97.6,106.7,92,99.9,92z"/>
	<path id="XMLID_18_" class="st2" d="M142.8,72.4c0,26.9-19.2,48.7-43,48.7s-43-21.8-43-48.7c0-26.9,19.2-45.4,43-45.4
		S142.8,45.5,142.8,72.4z"/>
	<circle id="XMLID_17_" class="st9" cx="70.8" cy="86.5" r="6.6"/>
	<circle id="XMLID_16_" class="st9" cx="128.9" cy="86.5" r="6.6"/>
	<path id="XMLID_15_" class="st9" d="M142.8,72.4c0-0.8,0-1.5-0.1-2.3c0-0.2,0-0.5,0-0.7c0-0.6-0.1-1.1-0.1-1.7c0-0.2,0-0.4-0.1-0.6
		c-0.1-0.7-0.1-1.4-0.2-2.1c0,0,0,0,0,0c-1-7.2-3.4-13.6-7-19.1c2.6,6.3,4.1,13.3,4.1,20.8c0,26.9-19.2,48.7-43,48.7
		c-13.7,0-26-7.3-33.8-18.7l0,0c1.4,2.7,3,5.3,4.8,7.6c0,0,0,0,0,0.1c1.2,1.6,2.5,3,3.9,4.4c0,0,0,0,0,0c0.6,0.7,1.3,1.3,2,1.9
		c0.1,0.1,0.1,0.1,0.2,0.2c1.4,1.2,2.9,2.4,4.4,3.4c0.1,0.1,0.2,0.1,0.3,0.2c0.7,0.4,1.3,0.8,2,1.2c0.1,0.1,0.3,0.2,0.4,0.2
		c1.5,0.9,3.1,1.6,4.8,2.3c0.2,0.1,0.4,0.1,0.6,0.2c0.6,0.2,1.3,0.5,2,0.7c0.2,0.1,0.4,0.1,0.6,0.2c0.8,0.3,1.7,0.5,2.5,0.7
		c0,0,0,0,0,0c0.8,0.2,1.7,0.4,2.6,0.5c0.2,0,0.5,0.1,0.7,0.1c0.6,0.1,1.3,0.2,2,0.2c0.3,0,0.5,0,0.8,0.1c0.9,0.1,1.8,0.1,2.7,0.1
		c8.2,0,15.8-2.6,22.3-7c6.5-4.5,11.9-10.8,15.5-18.4c0.7-1.4,1.3-2.8,1.8-4.3C141.6,85.5,142.8,79.1,142.8,72.4
		C142.8,72.4,142.8,72.4,142.8,72.4z"/>
	<path id="XMLID_14_" class="st11" d="M99.9,92.6c-6.5,0-12.5-1-17.4-2.8c-1.5-0.5-3.2,0.2-3.2,1.4c0,0,0,0,0,0
		c0,8.1,9.2,17.9,20.6,17.9c11.4,0,20.6-9.8,20.6-17.9c0,0,0,0,0,0c0-1.2-1.8-1.9-3.2-1.4C112.4,91.6,106.4,92.6,99.9,92.6z"/>
	<path id="XMLID_13_" class="st12" d="M99.9,82.3c-2.2,0-4-1-4.6-2.3c-0.2,0.4-0.3,0.8-0.3,1.2c0,1.9,2.2,3.5,4.9,3.5
		c2.7,0,4.9-1.6,4.9-3.5c0-0.4-0.1-0.8-0.3-1.2C103.8,81.3,102,82.3,99.9,82.3z"/>
	<g id="XMLID_10_">
		<ellipse id="XMLID_12_" class="st13" cx="76.8" cy="69.7" rx="3.6" ry="5.9"/>
		<circle id="XMLID_11_" class="st11" cx="75.9" cy="67.3" r="1.1"/>
	</g>
	<g id="XMLID_7_">
		<ellipse id="XMLID_9_" class="st13" cx="122.9" cy="69.7" rx="3.6" ry="5.9"/>
		<circle id="XMLID_8_" class="st11" cx="122" cy="67.3" r="1.1"/>
	</g>
	<path id="XMLID_6_" class="st0" d="M99.9,27c-21.1,0-38.7,14.7-42.3,36.8c12.6-0.6,23.8-7.4,31.3-17.8c3.3,0.9,6.8,1.5,10.5,1.5
		c3.9,0,7.6-0.6,11.2-1.7c7.5,10.5,18.8,17.4,31.5,18C138.5,41.6,121,27,99.9,27z"/>
	<path id="XMLID_5_" class="st4" d="M146.5,89.2c0,0,5.2,22.3-26.1,18.5"/>
	<circle id="XMLID_4_" class="st6" cx="120.5" cy="107.6" r="5.1"/>
</g>
</svg>
