<?xml version="1.0" encoding="utf-8"?>
<!-- Generated by IcoMoon.io -->
<!DOCTYPE svg PUBLIC "-//W3C//DTD SVG 1.1//EN" "http://www.w3.org/Graphics/SVG/1.1/DTD/svg11.dtd">
<svg width="30" height="30" viewBox="0 0 32 32" class="tools" xml:space="preserve" version="1.1" xmlns="http://www.w3.org/2000/svg" xmlns:xlink="http://www.w3.org/1999/xlink">
    <g id="icon-1" fill="none" fill-rule="evenodd">
        <g fill="#637282">
            <circle cx="10.5" cy="16.5" r="1.5"></circle>
            <circle cx="15.5" cy="16.5" r="1.5"></circle>
            <circle cx="20.5" cy="16.5" r="1.5"></circle>
        </g>
    </g>
</svg>