<?xml version="1.0" encoding="utf-8"?>
<svg version="1.1" id="Capa_1" xmlns="http://www.w3.org/2000/svg" xmlns:xlink="http://www.w3.org/1999/xlink" x="0px" y="0px"
	 viewBox="0 0 200 200" style="enable-background:new 0 0 200 200;" xml:space="preserve" width="70px">
<g id="mouths">
	<style type="text/css">
		#mouths .st0{fill:#FAD6BE;}
		#mouths .st1{fill:#9E4C0B;}
		#mouths .st2{fill:#8C0C00;}
		#mouths .st3{fill:#FFFFFF;}
		#mouths .st4{opacity:0.6;fill:#B8A997;}
		#mouths .st5{fill:#FF7858;}
		#mouths .st6{fill:#FAEDE6;}
	</style>
	<g>
		<path class="st0" d="M139.9,16.7c-32.6-16.4-72.5-5.6-96.6,16.6c-7.4,8-13.4,16.9-17.8,26.1c-8.8,18.3-8.9,38.3,4.9,55.2
			c22.8,28,102.1,28.4,130.4,6.4c13.4-10.5,18.8-25.6,18.3-40.4C175.6,55.6,166.1,29.9,139.9,16.7z"/>
		<path class="st0" d="M105,159.1c-11.1-0.8-21.4-3-31.5-6.8c-7.7-2.9-17-10.3-25-13.1c0,0.1,0,0.1,0,0.2
			c13.6,19.1,36.9,30,64.7,27.3c15.3-1.5,32.7-6.8,38.7-18.7C137.8,155.3,121.7,160.3,105,159.1z"/>
		<g>
			<path class="st1" d="M151.3,31.6c-9.2-14.5-34.3-21.8-56.7-19.5C64.3,15.2,49.8,33.7,40,51.4C24.2,80.2,17,114.9,76.3,127
				c52.5,10.7,93-5.1,96.4-35.8C174.9,71.5,162.8,49.9,151.3,31.6z"/>
			<path class="st2" d="M144.9,120.6c-18.6,8.5-48.6,5-68.8,0.9C28,111.7,32.6,83.8,41.4,60.3c3.1-8.3,6.9-17.1,13-24.7
				c6-7.3,15.2-16.5,27.3-19.6c21.9-5.7,49.2,1,61.7,14.3c10.9,11.7,15.4,27.4,19.4,40.2C168,86.8,169.8,109.2,144.9,120.6z"/>
			<path class="st3" d="M139,99.9c-2.2,2.3-6,4.7-9.4,6.1c-12.4,5.3-25.6,7.4-40.2,7c-10.2-0.3-22.8-3.6-28.4-9.7
				c-5-5.4-6.8-11.3-11.2-16.9C48.5,85,42,84,35.9,84c-0.6,16.1,7.9,30.9,40.2,37.5c20.3,4.1,50.2,7.7,68.8-0.9
				c17.6-8.1,21.9-21.6,21-34.5C154.4,87.6,145.9,92.4,139,99.9z"/>
			<path class="st3" d="M72.5,38.7c7.9,2.5,16.6,4.1,25.4,4.4c17.1,0.6,36.2-1.2,47.6-10.3c-0.7-0.8-1.3-1.7-2-2.4
				C130.9,17,103.6,10.4,81.7,16c-7.3,1.9-13.6,6-18.7,10.6C63,31.6,64.6,36.2,72.5,38.7z"/>
			<path class="st4" d="M124.5,28c0.7,0.5,1.1,1.2,1.2,2.3c1.2,2.8,1.8,6.3,1.9,10.4c6.8-1.6,13-4,17.8-7.8c-0.7-0.8-1.3-1.7-2-2.4
				C130.9,17,103.6,10.4,81.7,16c-5.9,1.5-11,4.5-15.5,8c13.2-5.2,29.4-4.9,42.7-3.6C117.2,21.3,121.9,23.8,124.5,28z"/>
			<path class="st5" d="M152.8,112.7c9.5-43.4-93.3-43.2-109-6.3c6.1,6.5,16.2,11.8,32.2,15c20.3,4.1,50.2,7.7,68.8-0.9
				c3.5-1.6,6.4-3.4,8.9-5.4C153.1,114.6,152.6,113.8,152.8,112.7z"/>
			<path class="st1" d="M92.8,156.7c-13.3-3.5-31.6-11.3-43.7-20.4c9,12.3,23.4,21.3,45.1,24.4c22.2,3.1,35.5-2,48.8-11.3
				C127.5,156.4,109,160.9,92.8,156.7z"/>
		</g>
	</g>
	<path class="st6" d="M49.5,23.4c3.8-2.8,7.8-5.5,12.2-7.8c2.8-1.6,5.8-3.2,8.8-4.4c7.4-3.1,15-5.7,22.7-8
		c-10.7,1.2-20.6,1.8-31,7.2C50.6,16.2,40.9,24,34.1,33.7C39.4,30.5,44.4,26.9,49.5,23.4z"/>
	<path class="st6" d="M93.9,145C93.9,145,93.9,145,93.9,145c-4.9-0.6-9.6-1.9-14.2-3.3c-4.3-0.5-8.7-0.4-13.2,0.6
		c6.8,4.5,12.6,9,21.5,11.2c10.4,2.6,21.9,0.9,31.7-2.7C110.8,150.5,102.3,147.5,93.9,145z"/>
</g>
</svg>