<?xml version="1.0" encoding="utf-8"?>
<!-- Generator: Adobe Illustrator 21.0.0, SVG Export Plug-In . SVG Version: 6.00 Build 0)  -->
<svg class="svg-edition" version="1.1"  xmlns="http://www.w3.org/2000/svg" xmlns:xlink="http://www.w3.org/1999/xlink" x="0px" y="0px"
	 viewBox="0 0 200 75" style="enable-background:new 0 0 200 75;" xml:space="preserve">
<style type="text/css">
	#bigote-5 .st0{fill:#A6703D;}
	#bigote-5 .st1{fill:#5F3C17;}
	#bigote-5 .st2{fill:#784F26;}
	#bigote-5 .st3{fill:#382D27;}
</style>
<g id="bigote-5">
	<g>
		<path class="st0" d="M50.6,39.6c6.9-11.9,13.1-29.4,24.7-34.8c0,0-0.1,0-0.1,0C69.9,6.3,64.8,9.2,61,13.3
			c-4.1,4.4-6.6,9.9-9.3,15.3c-4.9,9.9-11.2,19.2-23.1,20.1c-1.4,0.1-2.9,0.1-4.5,0C33.8,51.3,45.1,47.9,50.6,39.6z"/>
		<path class="st1" d="M91.5,6.6c-0.4-0.2-0.8-0.5-1.2-0.7c-2.1-1-4.4-1.6-6.7-1.9c-2.5,13.6-4.9,26.1-1.2,39.5
			C91.9,33.8,95.5,19.3,91.5,6.6z"/>
		<path class="st2" d="M83.6,4.1c-2.8-0.3-5.6,0-8.3,0.7c-11.6,5.4-17.8,22.9-24.7,34.8c-5.6,8.4-16.8,11.7-26.5,9.2
			c-5.4-0.3-11.2-2.2-11.9-7.6c-0.1-0.1-0.1-0.1-0.2-0.2c0.1,0.1,0.1,0.1,0.2,0.2c0-0.3-0.1-0.6-0.1-1C11.8,36.6,14,33,16.8,31
			c-9-1-14,10-13.3,17.7c0.1,1.5,0.4,2.9,0.9,4.3c3.8,2.8,8.6,4.7,13.1,5.9c20.7,5.5,39.9,0,57.8-9.6c2.6-1.6,4.9-3.5,6.9-5.6
			C78.7,30.2,81.1,17.7,83.6,4.1z"/>
		<path class="st1" d="M100.4,20.5c0-0.1,0-0.1,0.1-0.2c-1.4-5.4-4.1-10.7-9-13.7c4.9,15.4-1.4,33.5-16,42.5
			c-17.9,9.6-37.2,15.1-57.8,9.6c-4.5-1.3-9.3-3.2-13.1-5.9c2.2,6.7,7.9,11.4,14.9,13.4c11,3.2,24.1,1.6,35.2-0.4
			c11.8-2.2,24.2-6,33.6-13.7C98.1,44.2,102.1,33,100.4,20.5z"/>
		<path class="st3" d="M100.7,20.4c0-0.1-0.1-0.1-0.2-0.1c-2.1-8.9-8-15.8-17.5-16.6C74,3,65.1,8,59.3,14.6
			c-8.3,9.7-10,23.8-21.5,30.9c-7.1,4.4-24.1,5.4-25.2-5.3c0.3-3.8,1.9-6.4,4.7-9.2c0.1-0.1,0-0.3-0.2-0.2c0,0,0,0,0,0
			c-5.8-1.3-9.9,3.2-12.1,8c-2.6,5.5-2.4,12.1,0.4,17.5C11,67.5,25.4,68.8,36.4,68.4c20.6-0.6,47.4-5.6,59.9-23.8
			C101.2,37.5,102.3,28.7,100.7,20.4z M88.3,52.2c-9.4,7.7-21.9,11.5-33.6,13.7c-11.1,2.1-24.2,3.7-35.2,0.4
			c-8.4-2.5-15-8.8-15.8-17.7C2.9,40.9,7.9,30,16.8,31c-2.9,2.1-5,5.6-4.7,9.2c0.2,7.8,10,9.1,16.4,8.5
			c11.9-0.9,18.1-10.3,23.1-20.1c2.7-5.4,5.2-10.9,9.3-15.3c3.8-4.1,8.9-7,14.3-8.5c5-1.4,10.4-1.2,15,1.1
			c5.6,2.7,8.7,8.6,10.2,14.4c0,0-0.1,0.1-0.1,0.2C102.1,33,98.1,44.2,88.3,52.2z"/>
	</g>
	<g>
		<path class="st2" d="M184.2,31c2.4,1.8,4.3,4.5,4.7,7.5c0-1.1-0.1-2.2-0.5-3.1c0.5,0.9,0.6,2,0.5,3.1c0.1,0.6,0.1,1.1,0,1.7
			c-0.1,2.1-0.8,3.8-2.1,5c-6.9,8.1-19.2,8.1-28.8,2.6C142.3,37.3,140.3,6.9,118.7,4c-2,0.1-4,0.4-5.8,1
			c-5.3,14.7-0.9,32.4,12.1,42.8c19.3,12.4,41.3,23.4,63.3,9.6c5.2-3.9,7.6-8.4,8.9-13.3C196,37.4,191.7,30.1,184.2,31z"/>
		<path class="st0" d="M158,47.8c9.6,5.5,21.9,5.5,28.8-2.6c-3.4,3.5-10.2,4-15,3.4c-12-1.5-17.8-10.9-22.8-20.9
			c-2.7-5.5-5.4-11.2-9.9-15.5c-3.9-3.6-8.7-6.4-13.9-7.6c-2.1-0.5-4.3-0.7-6.4-0.6C140.3,6.9,142.3,37.3,158,47.8z"/>
		<path class="st1" d="M197.2,44.2c-1.3,4.9-3.7,9.4-8.9,13.3c-22,13.8-44.1,2.8-63.3-9.6C112,37.4,107.6,19.7,112.9,5
			c-0.9,0.3-1.8,0.7-2.7,1.2c-5.3,3.1-8.1,8.3-9.6,14.1c0,0,0.1,0.1,0.1,0.2c-1.8,12.9,2.5,24.7,13.1,32.5c9.6,7.2,21.6,11,33.4,13
			c11,1.9,24.6,3.9,35.3,0c8.1-2.9,15-9.2,15-18.4C197.5,46.5,197.4,45.4,197.2,44.2z"/>
		<path class="st3" d="M184,30.8C184,30.8,184,30.8,184,30.8c-0.2-0.1-0.3,0.1-0.2,0.2c2.8,2.8,4.4,5.4,4.7,9.2
			c-1.1,10.9-18,9.3-25.2,5.3c-11.5-6.4-13.7-21.3-21.5-30.9C136.1,7.8,127,3.2,118,3.7c-9.5,0.5-15.4,7.8-17.5,16.6
			c-0.1,0-0.1,0-0.2,0.1c-2.1,10.9,0.7,21.3,8.5,29.3c7.8,8,19,12.4,29.6,15.1c17.5,4.5,57.1,10.6,59.5-16.1
			C198.6,41,193.3,28.7,184,30.8z M182.5,66.1c-10.7,3.8-24.4,1.9-35.3,0c-11.7-2-23.7-5.9-33.4-13c-10.5-7.8-14.9-19.7-13.1-32.5
			c0-0.1,0-0.1-0.1-0.2c1.5-5.8,4.4-11,9.6-14.1c4.5-2.6,10-2.7,14.9-1.6c5.2,1.2,10,4,13.9,7.6c4.6,4.2,7.2,10,9.9,15.5
			c5,10,10.9,19.4,22.8,20.9c6.6,0.8,16.9-0.5,17.1-8.4c0.4-3.6-1.8-7.1-4.7-9.2c8.8-1,13.3,9.3,13.3,16.7
			C197.5,56.8,190.6,63.2,182.5,66.1z"/>
	</g>
</g>
</svg>
