<?xml version="1.0" encoding="utf-8"?>
<!-- Generator: Adobe Illustrator 21.0.0, SVG Export Plug-In . SVG Version: 6.00 Build 0)  -->
<svg version="1.1" id="Layer_1" xmlns="http://www.w3.org/2000/svg" xmlns:xlink="http://www.w3.org/1999/xlink" x="0px" y="0px"
	 viewBox="0 0 200 105" style="enable-background:new 0 0 200 105;" xml:space="preserve">
<style type="text/css">
	.st0{fill:#901827;}
	.st1{fill:#71191E;}
	.st2{fill:#FFFFFF;}
</style>
<g id="mouths_1_">
	<g>
		<path id="XMLID_4_" class="st0" d="M99.2,20.2c-29.1,0-56.4-4.7-78.2-12.4C14.6,5.6,6.5,9.1,6.5,14.2l0,0
			c0,36.8,41.5,80.4,92.8,80.4s92.8-44,92.8-80.4l0,0c0-5.1-8.1-8.6-14.5-6.4C155.7,15.5,128.7,20.2,99.2,20.2z"/>
		<path id="XMLID_2_" class="st1" d="M99.2,64.2c-29.1,0-56.4-4.7-78.2-12.4c-0.4,0-1.3-0.4-1.7-0.4C35.5,75.3,65,95,99.2,95
			s64.1-19.7,79.9-43.6c-0.4,0-1.3,0.4-1.7,0.4C155.7,59.5,128.7,64.2,99.2,64.2z"/>
		<path id="XMLID_1_" class="st2" d="M158.7,73.6c-18,4.3-38,6.8-59.4,6.8s-41.5-2.6-59.4-6.8C56.1,86.4,76.6,95,99.2,95
			C121.9,94.6,142.8,86,158.7,73.6z"/>
		<path id="XMLID_13_" class="st2" d="M99.2,33.4c35.1,0,66.7-9.8,90.2-23.9c-3-2.1-7.7-3.4-12-1.7c-22.2,7.7-49.2,12.4-78.2,12.4
			c-29.1,0-56.4-4.7-78.2-12.4c-4.3-1.7-9-0.4-12,1.7C33,23.6,64.6,33.4,99.2,33.4z"/>
	</g>
</g>
</svg>
