<?xml version="1.0" encoding="utf-8"?>
<!-- Generator: Adobe Illustrator 19.0.0, SVG Export Plug-In . SVG Version: 6.00 Build 0)  -->
<svg version="1.1" id="Capa_1" xmlns="http://www.w3.org/2000/svg" xmlns:xlink="http://www.w3.org/1999/xlink" x="0px" y="0px"
	 viewBox="0 0 200 200" style="enable-background:new 0 0 200 200;" xml:space="preserve">
<style type="text/css">
	.st0{fill:#030104;}
</style>
<path id="XMLID_2_" class="st0" d="M197.8,156.6c0.4,3.2-0.6,5.9-2.9,8.3l-27.6,27.4c-1.2,1.4-2.9,2.6-4.9,3.5c-2,1-4,1.6-5.9,1.9
	c-0.1,0-0.6,0-1.2,0.1c-0.7,0.1-1.6,0.1-2.7,0.1c-2.6,0-6.9-0.4-12.7-1.3c-5.9-0.9-13.1-3.1-21.6-6.6c-8.5-3.5-18.1-8.8-28.9-15.9
	c-10.8-7-22.2-16.7-34.4-29c-9.7-9.5-17.7-18.7-24-27.4c-6.4-8.7-11.5-16.8-15.3-24.1c-3.9-7.4-6.8-14.1-8.7-20.1
	C5,67.4,3.7,62.2,3,57.8c-0.7-4.3-1-7.8-0.8-10.3c0.1-2.5,0.2-3.9,0.2-4.1c0.3-1.9,0.9-3.9,1.9-5.9c1-2,2.1-3.6,3.5-4.9L35.3,5.1
	c1.9-1.9,4.1-2.9,6.6-2.9c1.8,0,3.4,0.5,4.8,1.6c1.4,1,2.6,2.3,3.5,3.8l22.2,42.1c1.2,2.2,1.6,4.6,1,7.3c-0.6,2.6-1.7,4.8-3.5,6.6
	L59.8,73.7C59.5,74,59.2,74.4,59,75c-0.2,0.6-0.3,1.1-0.3,1.6c0.6,2.9,1.8,6.2,3.7,9.9c1.7,3.3,4.2,7.4,7.7,12.1
	c3.5,4.8,8.4,10.3,14.7,16.5c6.2,6.4,11.7,11.3,16.6,14.8c4.8,3.5,8.9,6.1,12.1,7.8c3.2,1.7,5.7,2.7,7.5,3l2.6,0.5
	c0.3,0,0.7-0.1,1.3-0.3c0.6-0.2,1.1-0.4,1.3-0.7l11.8-12c2.5-2.2,5.4-3.3,8.7-3.3c2.4,0,4.2,0.4,5.6,1.2h0.2l40,23.6
	C195.5,151.5,197.2,153.8,197.8,156.6z"/>
</svg>
