<?xml version="1.0" encoding="utf-8"?>
<!-- Generator: Adobe Illustrator 19.0.0, SVG Export Plug-In . SVG Version: 6.00 Build 0)  -->
<svg version="1.1" id="Capa_1" xmlns="http://www.w3.org/2000/svg" xmlns:xlink="http://www.w3.org/1999/xlink" x="0px" y="0px"
	 viewBox="0 0 200 200" style="enable-background:new 0 0 200 200;" xml:space="preserve">
<g id="icon">
	<path id="XMLID_7_" class="st0" d="M192.7,166.7l-45-45c-6.7,10.4-15.6,19.3-26,26l45,45c7.2,7.2,18.8,7.2,26,0
		C199.9,185.5,199.9,173.9,192.7,166.7z"/>
	<path id="XMLID_4_" class="st0" d="M149,75.5c0-40.6-32.9-73.5-73.5-73.5C34.9,1.9,1.9,34.9,1.9,75.5c0,40.6,32.9,73.5,73.5,73.5
		C116.1,149,149,116.1,149,75.5z M75.5,130.6c-30.4,0-55.2-24.7-55.2-55.2c0-30.4,24.7-55.2,55.2-55.2c30.4,0,55.2,24.7,55.2,55.2
		C130.6,105.9,105.9,130.6,75.5,130.6z"/>
	<path id="XMLID_3_" class="st0" d="M32.6,75.5h12.3c0-16.9,13.7-30.6,30.6-30.6V32.6C51.8,32.6,32.6,51.8,32.6,75.5z"/>
</g>
</svg>
