<?xml version="1.0" encoding="utf-8"?>
<!-- Generator: Adobe Illustrator 21.0.0, SVG Export Plug-In . SVG Version: 6.00 Build 0)  -->
<svg version="1.1" id="character" xmlns="http://www.w3.org/2000/svg" xmlns:xlink="http://www.w3.org/1999/xlink" x="0px" y="0px"
	 viewBox="0 0 443 685" style="enable-background:new 0 0 443 685;" xml:space="preserve">
<style type="text/css">
	.st0{fill:#E6B99C;}
	.st1{fill:#D4A282;}
	.st2{fill:#BD4459;}
	.st3{fill:#E2AF8F;}
	.st4{fill:#36160D;}
	.st5{fill:#FFFFFF;}
	.st6{display:none;}
	.st7{display:inline;}
	.st8{fill:#5F3C17;}
	.st9{fill:#784F26;}
	.st10{fill:#432600;}
	.st11{fill:#C39577;}
	.st12{fill:#4C252C;}
	.st13{fill:#A33A4D;}
	.st14{fill:none;stroke:#393449;stroke-width:3;stroke-miterlimit:10;}
	.st15{fill:none;stroke:#2B2737;stroke-width:6;stroke-linecap:round;stroke-linejoin:round;stroke-miterlimit:10;}
	.st16{fill:#2B2737;}
	.st17{fill:#393449;}
</style>
<g id="faces">
	<g>
		<g id="XMLID_35_">
			<path id="XMLID_38_" class="st0" d="M100.8,265.1c3.8,16.8-2.9,32.7-14.6,35.9c-11.7,3.2-24.4-7.9-28.2-24.7
				c-3.8-16.8,2.9-32.7,14.6-35.9C84.6,237.4,97,248.6,100.8,265.1z"/>
			<path id="XMLID_37_" class="st1" d="M95.1,266.6c2.5,11.7-0.6,16.2-9.2,18.4c-8.6,2.2-19.7,1.3-22.2-10.2
				c-2.5-11.7,2.2-22.8,11.1-25.1C83.3,247.3,92.5,254.9,95.1,266.6z"/>
			<ellipse id="XMLID_36_" class="st0" cx="84.3" cy="268.9" rx="9.2" ry="7.3"/>
		</g>
		<g id="XMLID_31_">
			<path id="XMLID_34_" class="st0" d="M337.1,265.1c-3.8,16.8,2.9,32.7,14.6,35.9c11.7,3.2,24.4-7.9,28.2-24.7
				c3.8-16.8-2.9-32.7-14.6-35.9C353.6,237.1,340.6,248.6,337.1,265.1z"/>
			<path id="XMLID_33_" class="st1" d="M342.9,266.6c-2.5,11.7,0.6,16.2,9.2,18.4c8.6,2.2,19.7,1.3,22.2-10.2
				c2.5-11.7-2.2-22.8-11.1-25.1C354.3,247.3,345.4,254.9,342.9,266.6z"/>
			<ellipse id="XMLID_32_" class="st0" cx="353.3" cy="268.9" rx="9.2" ry="7.3"/>
		</g>
		<g>
			<path id="XMLID_13_" class="st0" d="M163.3,660.1H135c-39.7,0-72-32.4-72-72v-37.8c0-77.1,62.5-99.9,93.6-99.9l7,24.1
				c31.1,0,56.8,25.4,56.8,56.8v72.3C220.1,634.7,194.7,660.1,163.3,660.1z"/>
			<path id="XMLID_9_" class="st0" d="M273.7,660.1h28.2c39.7,0,72-32.4,72-72v-37.8c0-77.1-62.5-99.9-93.6-99.9l-7,24.1
				c-31.1,0-56.8,25.4-56.8,56.8v72.3C216.9,634.7,242.6,660.1,273.7,660.1z"/>
			<path id="XMLID_8_" class="st2" d="M312.4,660.1H117.9c-15.9,0-28.9-13-28.9-28.9V506.8c0-31.7,26-57.7,57.7-57.7h144
				c31.7,0,57.7,26,57.7,57.7v117.1C348.2,643.9,332.1,660.1,312.4,660.1z"/>
			<path id="XMLID_4_" class="st0" d="M276.9,449.4H160.4c-6.3,0-12.4,1-18.1,2.5c4.4,49.5,36.8,87.9,76.5,87.9s72-38.4,76.5-87.9
				C289.2,450.3,283.2,449.4,276.9,449.4z"/>
			<path id="XMLID_3_" class="st3" d="M218.8,473.2L218.8,473.2c-21.9,0-39.7-10.2-39.7-10.2v-94.2c0-21.9,17.8-39.7,39.7-39.7l0,0
				c21.9,0,39.7,17.8,39.7,39.7V463C258.5,463,240.4,473.2,218.8,473.2z"/>
			<path id="XMLID_18_" class="st0" d="M354.9,268.9c0,85.3-60.9,154.5-136.4,154.5S82.1,354.2,82.1,268.9s60.9-144,136.4-144
				S354.9,183.5,354.9,268.9z"/>
			<circle id="XMLID_17_" class="st3" cx="126.5" cy="313.6" r="20.9"/>
			<circle id="XMLID_16_" class="st3" cx="310.8" cy="313.6" r="20.9"/>
			<path id="XMLID_2_" class="st3" d="M354.9,268.9c0-2.5,0-4.8-0.3-7.3c0-0.6,0-1.6,0-2.2c0-1.9-0.3-3.5-0.3-5.4
				c0-0.6,0-1.3-0.3-1.9c-0.3-2.2-0.3-4.4-0.6-6.7l0,0c-3.2-22.8-10.8-43.1-22.2-60.6c8.2,20,13,42.2,13,66
				c0,85.3-60.9,154.5-136.4,154.5c-43.5,0-82.5-23.2-107.2-59.3l0,0c4.4,8.6,9.5,16.8,15.2,24.1c0,0,0,0,0,0.3
				c3.8,5.1,7.9,9.5,12.4,14l0,0c1.9,2.2,4.1,4.1,6.3,6c0.3,0.3,0.3,0.3,0.6,0.6c4.4,3.8,9.2,7.6,14,10.8c0.3,0.3,0.6,0.3,1,0.6
				c2.2,1.3,4.1,2.5,6.3,3.8c0.3,0.3,1,0.6,1.3,0.6c4.8,2.9,9.8,5.1,15.2,7.3c0.6,0.3,1.3,0.3,1.9,0.6c1.9,0.6,4.1,1.6,6.3,2.2
				c0.6,0.3,1.3,0.3,1.9,0.6c2.5,1,5.4,1.6,7.9,2.2l0,0c2.5,0.6,5.4,1.3,8.2,1.6c0.6,0,1.6,0.3,2.2,0.3c1.9,0.3,4.1,0.6,6.3,0.6
				c1,0,1.6,0,2.5,0.3c2.9,0.3,5.7,0.3,8.6,0.3c26,0,50.1-8.2,70.8-22.2c20.6-14.3,37.8-34.3,49.2-58.4c2.2-4.4,4.1-8.9,5.7-13.6
				C351.1,310.4,354.9,290.1,354.9,268.9L354.9,268.9z"/>
		</g>
	</g>
</g>

<g id="eyes">
	<g id="eyeRight">
		<g id="XMLID_23_">
			<ellipse id="XMLID_26_" class="st4" cx="146.7" cy="257.8" rx="10.6" ry="17.5"/>
			<circle id="XMLID_24_" class="st5" cx="143.8" cy="250.9" r="3.3"/>
		</g>
	</g>
	<g id="eyeLeft">
		<g id="XMLID_20_">
			<ellipse id="XMLID_22_" class="st4" cx="283.9" cy="257.8" rx="10.6" ry="17.5"/>
			<circle id="XMLID_21_" class="st5" cx="281.1" cy="250.9" r="3.3"/>
		</g>
	</g>
</g>
<g id="eyebrows">
	<g id="eyebrowsLeft" class="st6">
		<g class="st7">
			<path class="st8" d="M108.7,269c15.1-2.9,30.1-5.4,45.2-8c7.8-1.3,15.5-2.6,23.1-4c3.8-0.6,7.8-1.6,11.6-1.8c0,0,0,0,0-0.1
				c0.1-0.7,0.3-1.3,0.4-2c0.1-1.9,0.3-3.7,0.6-5.6c-27.8,4.7-55.5,9.5-80.8,20C108.8,268.1,108.8,268.5,108.7,269z"/>
			<path class="st9" d="M109.4,258.9L109.4,258.9c0.3,2.2,0,4.4-0.3,6.7c-0.1,0.6-0.1,1.5-0.1,2.2c25.3-10.5,53-15.5,80.8-20
				c1-9.4,2.9-18.4,5.6-27.5C170,239.1,139.1,248.9,109.4,258.9z"/>
			<path class="st10" d="M205.4,224.6c-0.1,0.6-0.3,1-0.4,1.6l0,0c-0.1,0.6-0.3,1.2-0.4,1.6c-1,3.2-2,6.3-2.9,9.5
				c1.3-6,2.3-12,2.9-18.1c0-0.1-0.1-0.1-0.1,0c-0.6,3.5-1.3,6.9-2,10.2c0-0.1-0.1-0.1-0.3,0c-2.2,7.2-3.7,14.5-6.1,21.5
				c0.4-5.1,1.3-10.2,2.3-15.2c0.6-2.8,1.2-5.4,1.9-8.2c0.4-1.6,0.7-3.2,1.2-4.8c0,0.1,0-0.1,0.1-0.7s0.3-1,0.6-1.6v-0.1
				c0.1-0.3,0.3-0.7,0.4-1c0-0.1-0.1-0.4-0.3-0.3c-1,0.7-1,2.3-1.5,3.5c-0.1,0.6-0.3,1.2-0.6,1.8c-2.8,7-5.6,14.2-8.2,21.4
				c2.5-9.8,5.4-19.5,7.3-29.4c0-0.1-0.1-0.1-0.1,0c-2.5,9.8-5.4,19.6-8,29.4c1.5-8.8,2.6-17.4,4.7-26l0,0c0.1-0.1,0-0.4-0.1-0.3
				c-13.3,8.3-26.6,16.1-41,22.2c-14.6,6.3-29.9,11.4-44.9,16.8c-0.1-0.1-0.3-0.1-0.4,0c-0.3,2-0.4,4.1-0.7,6c0,0.6-0.1,1.2-0.3,1.9
				c-0.6-3.2-1.2-6.4-1.6-9.7c0-0.3-0.6-0.3-0.6,0.1c-0.1,3.4-1,7.2-0.7,10.7c-0.1-0.7-0.3-1.5-0.3-1.6c-0.3-2-0.4-4-0.9-6
				c-0.1-0.4-1-0.4-0.9,0.1c0.1,0.9,0.1,1.8,0.3,2.6l0,0c0,0,0,0-0.1,0.1l0,0l0,0l0,0l0,0c-0.3,2.2,0.4,4.5,0.9,6.6
				c0.1,0.6,1,0.4,0.9-0.1c-0.1-0.7-0.1-1.5-0.3-2.2c0.3,1.5,0.6,2.9,1,4.4c0,0.1,0.3,0.1,0.1,0c-0.3-4,0.3-8.2,0.6-12.1
				c0.6,2.6,1,5.1,1.6,7.8c0,0.7,0,1.3,0.3,1.8c0,0.1,0.1,0.1,0.1,0.1c14.9-1.8,29.9-4.8,44.6-7.5c11.9-2.2,24-3.7,35.7-6.4
				c0.1,0.3,0.7,0.4,0.9,0c2.8-7.9,5.9-15.8,8.6-23.9c-0.1,0.7-0.4,1.6-0.6,2.3c-1.6,7-2.9,14.2-3.1,21.4c0,0.7,0.9,0.7,1.2,0.1
				c1.3-3.7,2.3-7.5,3.4-11.3c-0.6,2.6-1.2,5.1-1.6,7.8c-0.1,0.6,0.7,0.7,0.9,0.3c1.3-5.4,2.8-10.7,4.4-16c-0.6,2.5-1,5.1-1.5,7.6
				c-0.1,0.4,0.6,0.6,0.7,0.1c1.8-5.4,2.3-11.1,3.7-16.5c0.3-0.4,0.4-0.7,0.3-1c0.1-0.6,0.3-1.2,0.4-1.8
				C206.3,224.3,205.5,224.2,205.4,224.6z M189.1,253.2c-0.1,0.7-0.3,1.3-0.4,2c0,0,0,0,0,0.1c-3.8,0.1-7.8,1-11.6,1.8
				c-7.8,1.3-15.5,2.6-23.1,4c-15.1,2.6-30.1,5.1-45.2,8c0.4-1,0.3-2.3,0.4-3.4c0.3-2.2,0.6-4.4,0.3-6.6l0,0
				c29.7-9.8,60.6-19.6,85.9-38.6C192.1,230.9,190,241.9,189.1,253.2z"/>
		</g>
	</g>
	<g id="eyebrowsRight" class="st6">
		<g class="st7">
			<path class="st9" d="M339.3,258.3L339.3,258.3c-28.8-9.7-59-19.2-83.6-37.8c2.8,9.4,4.7,18.9,5.7,28.7c25.8,3.8,52.7,5,77.9,11.3
				C339.1,259.7,339.3,259,339.3,258.3z"/>
			<path class="st8" d="M339.3,260.6c-25.2-6.3-52.1-7.5-77.9-11.3c0.1,1.2,0.3,2.3,0.3,3.4c0.1,0.7,0.3,1.3,0.4,2c0,0,0,0,0,0.1
				c3.8,0.1,7.9,1,11.7,1.8c7.5,1.3,14.8,2.5,22.2,3.8c14.6,2.5,29.4,5,44,7.8c-0.4-1.2-0.4-2.8-0.4-4
				C339.4,263,339.3,261.8,339.3,260.6z"/>
			<path class="st8" d="M345.6,262.4L345.6,262.4L345.6,262.4c0-0.1,0-0.1,0-0.1s0-0.1-0.1-0.1l0,0c0-0.9,0.1-1.6,0.3-2.5
				c0-0.6-0.7-0.6-0.9-0.1c-0.7,3.4-1.3,7.3-1.6,10.5c0.3-4.5-0.1-8.9-0.3-13.5c0-0.3-0.6-0.4-0.6-0.1c-0.4,3.2-1,6.3-1.6,9.4
				c-0.1-0.6-0.3-1.3-0.3-1.8c-0.3-1.9-0.4-4-0.7-5.9c0-0.1-0.3-0.1-0.4,0c-14.6-5.3-29.4-10.4-43.8-16.4c-14-6-27.1-13.6-39.9-21.7
				c-0.1-0.1-0.3,0.1-0.1,0.3l0,0c1.9,8.3,3.1,16.7,4.4,25.2c-2.5-9.5-5.4-18.9-7.8-28.4c0-0.1-0.3-0.1-0.1,0
				c1.8,9.5,4.5,18.9,7,28.4c-2.5-6.9-5.1-13.8-7.8-20.5v-0.1c-0.4-1.5-0.6-4.1-1.9-5.1c-0.1-0.1-0.4,0.1-0.3,0.3
				c0.1,0.3,0.3,0.7,0.4,1c0,0,0,0,0,0.1c0.1,0.3,0.1,0.6,0.3,0.9c0.4,1.6,0.7,3.2,1.2,4.7c0.7,2.8,1.3,5.6,1.9,8.2
				c1.2,5.1,1.9,10.4,2.5,15.7c-2.3-6.9-3.8-13.9-6-20.8c0-0.1-0.1-0.1-0.3,0c-0.7-3.4-1.5-6.6-2-10c0-0.1-0.1,0-0.1,0
				c0.6,6.3,1.8,12.3,3.1,18.4c-0.9-3.4-1.9-6.7-3.1-10.1c-0.1-0.6-0.3-1-0.4-1.6l0,0c-0.1-0.6-0.3-1-0.4-1.6
				c-0.1-0.4-0.7-0.3-0.7,0.1c0.1,0.6,0.3,1.2,0.6,1.8c-0.1,0.3,0,0.6,0.3,1c1.3,5.3,1.9,10.8,3.5,16c0.1,0.4,0.7,0.3,0.7-0.1
				c-0.6-2.6-1-5.3-1.6-7.9c1.6,5.3,3.1,10.7,4.4,16.1c0.1,0.6,0.9,0.3,0.9-0.3c-0.4-2.3-1-4.8-1.5-7.2c0.9,3.5,1.9,7,3.1,10.5
				c0.1,0.6,1.2,0.6,1.2-0.1c-0.3-6.7-1.5-13.5-2.9-20c-0.1-0.9-0.4-1.8-0.7-2.8c2.8,7.6,5.6,15.4,8.3,23c0.1,0.4,0.7,0.4,0.9,0
				c11.4,2.8,23.3,4.2,34.8,6.3c14.5,2.6,28.8,5.6,43.5,7.3c0.1,0,0.1-0.1,0.1-0.1c0.3-0.4,0.3-1.2,0.3-1.8c0.4-2.5,1-5,1.5-7.5
				c0.1,4,0.9,7.9,0.6,11.9c0,0.1,0.1,0.1,0.3,0c0.3-1.3,0.6-2.8,0.9-4.1c0,0.6-0.1,1.3-0.1,1.9c0,0.6,0.9,0.7,0.9,0.1
				C345.1,266.9,345.9,264.6,345.6,262.4L345.6,262.4z M296,260.2c-7.3-1.3-14.8-2.5-22.2-3.8c-3.8-0.6-7.8-1.6-11.7-1.8
				c0,0,0,0,0-0.1c-0.1-0.7-0.3-1.3-0.4-2c-0.9-10.8-2.8-21.7-6-32c24.6,18.6,54.7,28.1,83.6,37.6l0,0c-0.3,1.9,0,4,0.3,5.9
				c0.1,1.2,0,2.8,0.4,4C325.4,265.2,310.7,262.8,296,260.2z"/>
		</g>
	</g>
</g>
<g id="nose">
	<path id="XMLID_5_" class="st11" d="M215.3,303.8c-6.4,0-11.8-2.8-13.9-7c-0.5,1-0.8,2.3-0.8,3.3c0,5.7,6.7,10.3,14.7,10.3
		c8.2,0,14.7-4.6,14.7-10.3c0-1.3-0.3-2.3-0.8-3.3C226.9,301,221.5,303.8,215.3,303.8z"/>
</g>
<g id="hair">
	<g>
		<circle id="XMLID_40_" class="st12" cx="220.3" cy="99.8" r="83.7"/>
		<path id="XMLID_39_" class="st13" d="M138,115c3.4,19.3,13.6,36.6,28.1,48.8c6.8-6.4,13.2-13.6,19-21.7
			c11.2,3.1,23.1,5.1,35.6,5.1c13.2,0,25.8-2,38-5.8c5.4,7.5,11.5,14.6,18,21c13.9-12.5,23.7-29.8,26.8-49.2
			c-23.1-15.6-51.2-24.4-81-24.4C190.8,88.6,161.7,98.1,138,115z"/>
		<path id="XMLID_19_" class="st12" d="M220.3,100.8c-71.5,0-131.2,49.8-143.4,124.8c42.7-2,80.7-25.1,106.1-60.3
			c11.2,3.1,23.1,5.1,35.6,5.1c13.2,0,25.8-2,38-5.8c25.4,35.6,63.7,59,106.8,61C351.2,150.3,291.9,100.8,220.3,100.8z"/>
		<g>
			<path class="st12" d="M353.2,300.7c-4.5,23.9-13.8,45.8-26.8,64.2c16.9-16.1,29.3-37.6,35.3-64.4
				C358.9,301.3,356,301.4,353.2,300.7z"/>
			<path class="st12" d="M85.4,241.4c11.4-70.4,67.1-116.9,134.3-116.9c67.3,0,123,46.7,134.3,117.2c3.4-1.8,7-2.6,10.6-2.1
				c-9-83.2-70.2-138.9-144.6-138.9c-74.5,0-135.6,55.7-144.6,138.9C78.8,239.3,82.2,239.9,85.4,241.4z"/>
			<path class="st12" d="M78.5,300.4c5.5,23.7,16.1,43.2,30.5,58.5c-10.9-17.1-18.7-36.7-22.7-58.1C83.7,301.4,81,301.2,78.5,300.4z
				"/>
		</g>
	</g>
</g>
<g id="mouths">
	<path id="XMLID_1_" class="st5" d="M217.8,338.5c-17.6,0-33.7-2.7-47-7.5c-4-1.3-8.5,0.8-8.5,3.7l0,0c0,21.9,24.8,48.1,55.6,48.1
		s55.6-26.4,55.6-48.1l0,0c0-3.2-4.8-5.1-8.5-3.7C251.4,335.8,235.4,338.5,217.8,338.5z"/>
</g>
<g id="lentes"></g>
<g id="bigote"></g>
<g id="cap">
	<g>
		<path id="XMLID_30_" class="st14" d="M363.6,228.6C352.5,163,311.9,89.2,218.1,89.2c-90.3,0-134.3,73.8-145.4,139.4"/>
		<path id="XMLID_29_" class="st15" d="M330.3,145.3c-40.6-56.7-122.6-73.2-182.8-37.4c-15.5,9.5-29.2,22.2-39.9,36.8"/>
		<path id="XMLID_28_" class="st16" d="M52.1,313.2L52.1,313.2c11.4,0,20.9-9.5,20.9-20.9v-37.4c0-11.4-9.5-20.9-20.9-20.9l0,0
			c-11.4,0-20.9,9.5-20.9,20.9v37.4C31.2,303.7,40.7,313.2,52.1,313.2z"/>
		<path id="XMLID_27_" class="st17" d="M73,335.7L73,335.7c11.4,0,20.9-9.5,20.9-20.9v-82.7c0-11.4-9.5-20.9-20.9-20.9l0,0
			c-11.4,0-20.9,9.5-20.9,20.9v83C52.1,326.5,61.6,335.7,73,335.7z"/>
		<path id="XMLID_10_" class="st16" d="M394.3,234h-11.1c-8.2,0-15.2,7-15.2,15.2v48.5c0,8.2,7,15.2,15.2,15.2h11.1
			c8.2,0,15.2-7,15.2-15.2v-48.5C409.5,241,402.5,234,394.3,234z"/>
		<path id="XMLID_25_" class="st17" d="M367.7,211.5L367.7,211.5c-11.4,0-20.9,9.5-20.9,20.9v83c0,11.4,9.5,20.9,20.9,20.9l0,0
			c11.4,0,20.9-9.5,20.9-20.9v-83.3C388.6,220.7,379.1,211.5,367.7,211.5z"/>
		<path id="XMLID_7_" class="st14" d="M367.7,316.1c0,0,16.5,70.7-82.7,58.6"/>
		<circle id="XMLID_6_" class="st16" cx="285.3" cy="374.4" r="16.2"/>
	</g>
</g>
</svg>
