<?xml version="1.0" encoding="utf-8"?>
<!-- Generator: Adobe Illustrator 15.1.0, SVG Export Plug-In  -->
<!DOCTYPE svg PUBLIC "-//W3C//DTD SVG 1.1//EN" "http://www.w3.org/Graphics/SVG/1.1/DTD/svg11.dtd" [
	<!ENTITY ns_flows "http://ns.adobe.com/Flows/1.0/">
]>
<svg version="1.1"
	 xmlns="http://www.w3.org/2000/svg" xmlns:xlink="http://www.w3.org/1999/xlink" xmlns:a="http://ns.adobe.com/AdobeSVGViewerExtensions/3.0/"
	 x="0px" y="0px" width="79px" height="69px" viewBox="-5.538 -3.396 79 69" enable-background="new -5.538 -3.396 79 69"
	 xml:space="preserve">
<defs>
</defs>
<path fill="#ECF1F1" d="M57.471,7.66C51.242,2.831,42.965,0.02,33.969,0h-0.012c-8.996,0.021-17.273,2.831-23.502,7.66
	C4.248,12.454,0.018,19.533,0,27.597c-0.002,6.785,3.05,13.055,8.022,17.831l-2.479,7.929c-0.22,0.703-0.326,1.43-0.326,2.143
	c-0.004,2.115,0.938,4.179,2.639,5.572c1.311,1.076,2.928,1.632,4.564,1.633c1.186,0,2.361-0.292,3.422-0.863l12.835-6.989
	c1.749,0.235,3.516,0.368,5.286,0.369c9.002-0.021,17.279-2.832,23.508-7.662c6.205-4.795,10.434-11.87,10.452-19.934
	C67.904,19.533,63.677,12.454,57.471,7.66z"/>
<path fill="#0098D9" d="M33.964,5.388c-15.755,0-28.575,9.968-28.575,22.224c0,6.075,3.225,11.831,8.842,16.018l-3.544,11.336
	c-0.218,0.701,0.013,1.475,0.583,1.938c0.572,0.472,1.367,0.547,2.018,0.194l14.415-7.848c2.11,0.37,4.216,0.583,6.262,0.583
	c15.755,0,28.572-9.97,28.572-22.222C62.536,15.355,49.719,5.388,33.964,5.388z"/>
<path fill="#0098D9" d="M33.963,4.687C17.943,4.709,4.726,14.82,4.688,27.611c0,6.184,3.209,12.014,8.727,16.278l-3.396,10.866
	C9.94,55,9.902,55.25,9.902,55.499c0,0.741,0.328,1.46,0.923,1.946c0.457,0.377,1.025,0.572,1.595,0.572
	c0.412,0,0.826-0.102,1.201-0.304l14.201-7.733c2.063,0.354,4.125,0.554,6.141,0.554c16.021-0.022,29.234-10.136,29.273-22.923
	C63.197,14.82,49.984,4.709,33.963,4.687z M53.728,42.763c-5.038,3.919-12.035,6.37-19.765,6.368c-1.997,0-4.063-0.207-6.139-0.574
	l-0.243-0.043l-14.63,7.967c-0.168,0.091-0.35,0.135-0.531,0.135c-0.252,0-0.5-0.085-0.705-0.254
	c-0.262-0.212-0.409-0.534-0.409-0.862c0-0.108,0.017-0.218,0.05-0.324l3.693-11.813l-0.399-0.296
	c-5.476-4.085-8.56-9.637-8.56-15.455c0-5.875,3.067-11.231,8.109-15.155c5.037-3.919,12.034-6.368,19.764-6.366
	c7.729-0.002,14.727,2.447,19.765,6.366c5.04,3.924,8.106,9.28,8.106,15.155C61.834,33.484,58.768,38.838,53.728,42.763z"/>
<circle fill="#ECF1F1" cx="22.375" cy="27.69" r="4.25"/>
<circle fill="#ECF1F1" cx="35.334" cy="27.69" r="4.25"/>
<circle fill="#ECF1F1" cx="48.294" cy="27.69" r="4.25"/>
</svg>
