<?xml version="1.0" encoding="utf-8"?>
<!-- Generator: Adobe Illustrator 21.0.0, SVG Export Plug-In . SVG Version: 6.00 Build 0)  -->
<svg version="1.1" id="cara_4" xmlns="http://www.w3.org/2000/svg" xmlns:xlink="http://www.w3.org/1999/xlink" x="0px" y="0px"
	 viewBox="0 0 178 238" style="enable-background:new 0 0 178 238;" xml:space="preserve">
<style type="text/css">
	#faces .st0{fill:#E6B99C;}
	#faces .st1{fill:#D4A282;}
	#faces .st2{fill:#BD4459;}
	#faces .st3{fill:#E2AF8F;}
</style>
<g id="faces">
	<g id="XMLID_35_">
		<path id="XMLID_38_" class="st0" d="M39,68.6c1.6,7-1.2,13.5-6,14.8c-4.9,1.3-10.1-3.3-11.7-10.2c-1.6-7,1.2-13.5,6-14.8
			C32.3,57.2,37.5,61.8,39,68.6z"/>
		<path id="XMLID_37_" class="st1" d="M36.7,69.3c1.1,4.9-0.3,6.7-3.8,7.6c-3.5,0.9-8.1,0.5-9.2-4.2c-1.1-4.9,0.9-9.5,4.6-10.4
			C31.8,61.3,35.6,64.4,36.7,69.3z"/>
		<ellipse id="XMLID_36_" class="st0" cx="32.2" cy="70.2" rx="3.8" ry="3"/>
	</g>
	<g id="XMLID_31_">
		<path id="XMLID_34_" class="st0" d="M136.8,68.6c-1.6,7,1.2,13.5,6,14.8c4.9,1.3,10.1-3.3,11.7-10.2c1.6-7-1.2-13.5-6-14.8
			C143.7,57.1,138.3,61.8,136.8,68.6z"/>
		<path id="XMLID_33_" class="st1" d="M139.2,69.3c-1.1,4.9,0.3,6.7,3.8,7.6c3.5,0.9,8.1,0.5,9.2-4.2c1.1-4.9-0.9-9.5-4.6-10.4
			C143.9,61.3,140.2,64.4,139.2,69.3z"/>
		<ellipse id="XMLID_32_" class="st0" cx="143.5" cy="70.2" rx="3.8" ry="3"/>
	</g>
	<g>
		<path id="XMLID_13_" class="st0" d="M64.9,232.1H53.2c-16.4,0-29.8-13.4-29.8-29.8v-15.6c0-31.9,25.9-41.4,38.7-41.4l2.9,10
			c12.9,0,23.5,10.5,23.5,23.5v29.9C88.4,221.6,77.9,232.1,64.9,232.1z"/>
		<path id="XMLID_9_" class="st0" d="M110.6,232.1h11.7c16.4,0,29.8-13.4,29.8-29.8v-15.6c0-31.9-25.9-41.4-38.7-41.4l-2.9,10
			c-12.9,0-23.5,10.5-23.5,23.5v29.9C87.1,221.6,97.7,232.1,110.6,232.1z"/>
		<path id="XMLID_8_" class="st2" d="M126.6,232.1H46.1c-6.6,0-11.9-5.4-11.9-11.9v-51.5c0-13.1,10.8-23.9,23.9-23.9h59.6
			c13.1,0,23.9,10.8,23.9,23.9v48.4C141.4,225.4,134.7,232.1,126.6,232.1z"/>
		<path id="XMLID_4_" class="st0" d="M111.9,144.9H63.7c-2.6,0-5.1,0.4-7.5,1.1c1.8,20.5,15.2,36.4,31.6,36.4s29.8-15.9,31.6-36.4
			C117,145.3,114.5,144.9,111.9,144.9z"/>
		<path id="XMLID_3_" class="st3" d="M87.9,154.7L87.9,154.7c-9.1,0-16.4-4.2-16.4-4.2v-39c0-9.1,7.4-16.4,16.4-16.4l0,0
			c9.1,0,16.4,7.4,16.4,16.4v39C104.3,150.5,96.8,154.7,87.9,154.7z"/>
		<path id="XMLID_18_" class="st0" d="M144.2,70.2c0,35.3-25.2,63.9-56.4,63.9s-56.4-28.6-56.4-63.9s25.2-59.6,56.4-59.6
			S144.2,34.9,144.2,70.2z"/>
		<circle id="XMLID_17_" class="st3" cx="49.7" cy="88.7" r="8.7"/>
		<circle id="XMLID_16_" class="st3" cx="125.9" cy="88.7" r="8.7"/>
		<path id="XMLID_2_" class="st3" d="M144.2,70.2c0-1.1,0-2-0.1-3c0-0.3,0-0.7,0-0.9c0-0.8-0.1-1.4-0.1-2.2c0-0.3,0-0.5-0.1-0.8
			c-0.1-0.9-0.1-1.8-0.3-2.8l0,0c-1.3-9.5-4.5-17.9-9.2-25.1c3.4,8.3,5.4,17.5,5.4,27.3c0,35.3-25.2,63.9-56.4,63.9
			c-18,0-34.1-9.6-44.4-24.5l0,0c1.8,3.5,3.9,7,6.3,10c0,0,0,0,0,0.1c1.6,2.1,3.3,3.9,5.1,5.8l0,0c0.8,0.9,1.7,1.7,2.6,2.5
			c0.1,0.1,0.1,0.1,0.3,0.3c1.8,1.6,3.8,3.2,5.8,4.5c0.1,0.1,0.3,0.1,0.4,0.3c0.9,0.5,1.7,1.1,2.6,1.6c0.1,0.1,0.4,0.3,0.5,0.3
			c2,1.2,4.1,2.1,6.3,3c0.3,0.1,0.5,0.1,0.8,0.3c0.8,0.3,1.7,0.7,2.6,0.9c0.3,0.1,0.5,0.1,0.8,0.3c1.1,0.4,2.2,0.7,3.3,0.9l0,0
			c1.1,0.3,2.2,0.5,3.4,0.7c0.3,0,0.7,0.1,0.9,0.1c0.8,0.1,1.7,0.3,2.6,0.3c0.4,0,0.7,0,1.1,0.1c1.2,0.1,2.4,0.1,3.5,0.1
			c10.8,0,20.7-3.4,29.3-9.2c8.5-5.9,15.6-14.2,20.3-24.2c0.9-1.8,1.7-3.7,2.4-5.6C142.6,87.4,144.2,79,144.2,70.2L144.2,70.2z"/>
	</g>
</g>
</svg>
