<?xml version="1.0" encoding="utf-8"?>
<!-- Generator: Adobe Illustrator 21.0.0, SVG Export Plug-In . SVG Version: 6.00 Build 0)  -->
<svg version="1.1" id="cara_3" xmlns="http://www.w3.org/2000/svg" xmlns:xlink="http://www.w3.org/1999/xlink" x="0px" y="0px"
	 viewBox="0 0 127 205" style="enable-background:new 0 0 127 200;" xml:space="preserve">
<style type="text/css">
	#faces .st0{fill:#E6B99C;}
	#faces .st1{fill:#D4A282;}
	#faces .st2{fill:#393449;}
	#faces .st3{fill:#2B2737;}
	#faces .st4{fill:#ECC430;}
	#faces .st5{fill:#DC9922;}
	#faces .st6{fill:#E2AF8F;}
</style>
<g id="faces">
	<g id="XMLID_69_">
		<path id="XMLID_72_" class="st0" d="M24.2,59.1c1.3,5.7-1,11.2-5.1,12.3s-8.4-2.7-9.6-8.4c-1.3-5.7,1-11.2,5.1-12.3
			C18.6,49.6,22.9,53.4,24.2,59.1z"/>
		<path id="XMLID_71_" class="st1" d="M22.1,59.6c0.9,4-0.2,5.5-3.1,6.4c-3,0.8-6.7,0.5-7.5-3.4c-0.9-4,0.9-7.9,3.8-8.6
			C18.1,53,21.2,55.6,22.1,59.6z"/>
		<ellipse id="XMLID_70_" class="st0" cx="18.6" cy="60.5" rx="3.1" ry="2.5"/>
	</g>
	<g id="XMLID_41_">
		<path id="XMLID_68_" class="st0" d="M105,59.1c-1.3,5.7,1,11.2,5.1,12.3c4.1,1.1,8.4-2.7,9.6-8.4c1.3-5.7-1-11.2-5.1-12.3
			C110.6,49.6,106.3,53.4,105,59.1z"/>
		<path id="XMLID_67_" class="st1" d="M107,59.6c-0.9,4,0.2,5.5,3.1,6.4c3,0.8,6.7,0.5,7.5-3.4s-0.9-7.9-3.8-8.6
			C111,53,107.9,55.6,107,59.6z"/>
		<ellipse id="XMLID_66_" class="st0" cx="110.6" cy="60.5" rx="3.1" ry="2.5"/>
	</g>
	<path id="XMLID_40_" class="st2" d="M45.6,194.4h-9.7c-13.7,0-24.7-11.1-24.7-24.7v-13c0-26.4,21.3-34.2,32-34.2l2.4,8.3
		c10.7,0,19.4,8.7,19.4,19.4V175C65,185.7,56.3,194.4,45.6,194.4z"/>
	<path id="XMLID_39_" class="st2" d="M83.3,194.4H93c13.7,0,24.7-11.1,24.7-24.7v-13c0-26.4-21.3-34.2-32-34.2l-2.4,8.3
		c-10.7,0-19.4,8.7-19.4,19.4V175C63.9,185.7,72.7,194.4,83.3,194.4z"/>
	<path id="XMLID_38_" class="st3" d="M96.7,194.4H29.9c-5.4,0-9.8-4.4-9.8-9.8v-42.8c0-10.8,8.8-19.6,19.6-19.6h49.7
		c10.8,0,19.6,8.8,19.6,19.6v40.4C109,188.9,103.5,194.4,96.7,194.4z"/>
	<polygon id="XMLID_37_" class="st4" points="43.7,194.4 31.9,194.4 31.9,123.4 43.7,121.1 	"/>
	<path id="XMLID_36_" class="st5" d="M31.9,162.5v29.1c0.1,0,0.2,0,0.3,0h11.4v-35.7C39,156.7,34.9,159.1,31.9,162.5z"/>
	<polygon id="XMLID_35_" class="st4" points="85.3,194.4 97,194.4 97,123.4 85.3,121.1 	"/>
	<path id="XMLID_34_" class="st5" d="M85.3,191.5h8.4c1.2,0,2.3-0.1,3.3-0.3v-28.8c-3-3.3-7.1-5.7-11.7-6.5
		C85.3,155.9,85.3,191.5,85.3,191.5z"/>
	<path id="XMLID_33_" class="st2" d="M50.9,119.4c0,0-24.8,4.1-11.2,31.7c0,0,14.2-11.6,24.8-11.6v-9.3L50.9,119.4z"/>
	<path id="XMLID_32_" class="st2" d="M78.1,119.4c0,0,24.8,4.1,11.2,31.7c0,0-14.2-11.6-24.8-11.6v-9.3L78.1,119.4z"/>
	<path id="XMLID_31_" class="st6" d="M64.5,130.3L64.5,130.3c-7.4,0-13.6-3.4-13.6-3.4V94.5c0-7.4,6.1-13.6,13.6-13.6l0,0
		c7.4,0,13.6,6.1,13.6,13.6v32.3C78,126.8,72,130.3,64.5,130.3z"/>
	<path id="XMLID_29_" class="st0" d="M111.2,60.4c0,29.2-20.9,52.9-46.7,52.9S17.9,89.6,17.9,60.4S38.7,11,64.5,11
		S111.2,31.2,111.2,60.4z"/>
	<circle id="XMLID_28_" class="st6" cx="32.9" cy="73.2" r="7.1"/>
	<circle id="XMLID_27_" class="st6" cx="96" cy="73.2" r="7.1"/>
	<path id="XMLID_25_" class="st6" d="M111.2,60.4c0-0.9,0-1.7-0.1-2.5c0-0.2,0-0.5,0-0.8c0-0.6-0.1-1.2-0.1-1.8c0-0.2,0-0.4-0.1-0.6
		c-0.1-0.8-0.1-1.5-0.2-2.3l0,0c-1.1-7.9-3.8-14.9-7.7-20.7c2.9,6.9,4.5,14.5,4.5,22.6c0,29.2-20.9,52.9-46.7,52.9
		c-15,0-28.2-8-36.7-20.3l0,0c1.5,2.9,3.2,5.7,5.2,8.3c0,0,0,0,0,0.1c1.3,1.7,2.7,3.3,4.2,4.7l0,0c0.8,0.8,1.4,1.4,2.2,2
		c0.1,0.1,0.1,0.1,0.2,0.2c1.5,1.3,3.1,2.6,4.7,3.7c0.1,0.1,0.2,0.1,0.3,0.2c0.8,0.4,1.4,1,2.2,1.4c0.1,0.1,0.3,0.2,0.4,0.2
		c1.7,1,3.4,1.8,5.2,2.5c0.2,0.1,0.4,0.1,0.6,0.2c0.6,0.2,1.4,0.5,2.2,0.8c0.2,0.1,0.4,0.1,0.8,0.2c0.9,0.3,1.8,0.5,2.7,0.8l0,0
		c1,0.2,1.8,0.4,2.8,0.5c0.2,0,0.5,0.1,0.8,0.1c0.8,0.1,1.4,0.2,2.2,0.2c0.3,0,0.5,0,0.9,0.1c1,0.1,1.9,0.1,2.9,0.1
		c8.8,0,17.1-2.8,24.2-7.7c7.1-4.8,12.9-11.7,16.8-20c0.8-1.5,1.4-3,1.9-4.6C109.9,74.6,111.2,67.7,111.2,60.4L111.2,60.4z"/>
	<path id="XMLID_9_" class="st4" d="M82,158.4H47.1c-11.1,0-20.2,9.1-20.2,20.2v14.5c1.6,0.8,3.4,1.3,5.4,1.3h61.4
		c3.1,0,6-1,8.5-2.6v-13.1C102.2,167.6,93.1,158.4,82,158.4z"/>
	<circle id="XMLID_8_" class="st3" cx="37.8" cy="170" r="3"/>
	<circle id="XMLID_3_" class="st3" cx="91.2" cy="170" r="3"/>
</g>
</svg>
