<?xml version="1.0" encoding="utf-8"?>
<!-- Generator: Adobe Illustrator 21.0.0, SVG Export Plug-In . SVG Version: 6.00 Build 0)  -->
<svg class="svg-edition" version="1.1" xmlns="http://www.w3.org/2000/svg" xmlns:xlink="http://www.w3.org/1999/xlink" x="0px" y="0px"
	 viewBox="0 0 200 88" style="enable-background:new 0 0 200 88;" xml:space="preserve">
<g  id="lente-3">
	<path d="M187.3,58.1c0.4-1.3,0.8-2.6,1.3-3.8c0-0.1,0.1-0.2,0.1-0.4c0.1-0.4,0.2-0.7,0.3-1c-0.1-0.3-0.1-0.7,0-1.3
	c0.8-4.1,1.5-8.2,2.3-12.4c0.5-2.6,1-5.3,1.6-7.8c0.5-2,1.7-3.3,3.8-4.1c0.7-0.3,1.5-1.4,1.7-2.2c0.3-1.8,0.1-3.6,0.1-5.5
	c0-1.2-0.6-1.8-1.9-2.1c-4.6-1-9.4-1.7-13.8-3.3c-16.5-6-33.1-6.7-50-2.5c-5.2,1.3-10.1,3.3-15.2,5.1c-2.7,0.9-5.4,1.9-8.3,1.1
	c-5.9-1.6-11.8-1.4-17.7,0.1c-2.3,0.6-4.5,0.3-6.8-0.5c-5.9-2.2-11.7-4.8-17.8-6.4C54,7.7,40.8,8.7,27.8,11.7
	c-6.6,1.5-13.1,3.4-19.7,5c-1.5,0.4-3.1,0.4-4.7,0.7c-1.3,0.2-2,0.8-1.9,2.2c0.1,1.8,0,3.7,0.3,5.5c0.1,0.9,0.8,2,1.6,2.4
	c2.4,1.2,3.5,3,3.9,5.5c0.7,4.3,1.5,8.6,2.2,13c0,0,0,0,0,0s1.1,7.9,4,14.7c0.1,0.3,0.3,0.6,0.4,0.8c3.3,7.1,8.6,12,16,14.5
	c9.4,3.2,19,4.1,28.7,2.3c10.5-1.9,18.6-7.4,24.1-16.6c4.3-7.4,7.1-15.3,9-23.5c0.6-2.6,1.3-5-1.1-7.1c-0.4-0.3-0.4-1.5-0.1-2.1
	c0.1-0.4,1.1-0.6,1.7-0.5c3,0.1,5.9,0.3,8.9,0.6c3.1,0.2,6.1,0.5,9.3,0.8c-0.1,0.6-0.1,0.9-0.2,1.2c-0.2,0.6-0.5,1.1-0.7,1.7
	c-0.2,0.7-0.6,1.6-0.4,2.3c1.6,7.8,3.6,15.5,7.2,22.7c2.3,4.6,4.9,9.1,8.9,12.6c7.3,6.5,16.1,9,25.7,8.9c3.9-0.1,7.9-0.7,11.7-1.4
	c10.5-1.9,18.8-7,23.5-17c0.1-0.2,0.3-0.5,0.5-0.8C186.7,59.1,187,58.6,187.3,58.1z M86.1,39.4c-0.9,7.4-3.2,14.5-7,21
	c-6.3,10.8-15.9,15.6-28.2,15.7c-0.7,0-1.3,0-2,0c-6.8-0.1-13.4-0.9-19.7-3.8c-3.3-1.6-6-3.7-8.1-6.2l-0.2,0.1c0,0-0.5-0.7-1.1-1.9
	c-1.5-2.2-2.7-4.7-3.6-7.5c0-0.1-0.1-0.3-0.1-0.5c-1.1-2.8-2.1-6.1-2.8-9.7c0,0-2.3-5.9,1.2-18.8c0,0,2-5.9,9.3-9.8
	c0-0.1,0-0.2,0-0.2c1-0.3,1.9-0.8,2.8-1.1c1.9-0.8,4.1-1.4,6.7-1.8C45,13,65.7,12.5,77.4,20c0.8,0.5,1.6,1,2.4,1.5
	c0,0.1,0,0.2,0,0.3c2.1,1.7,3.7,3.8,4.8,6.3c0.3,0.3,0.6,0.7,0.8,1C86.5,32.4,86.5,35.9,86.1,39.4z M185.1,49.6
	c-0.1,1.1-0.3,2.2-0.8,3.3c0,0.1-0.1,0.2-0.1,0.3c0,0,0,0,0,0.1c0,0,0,0.1,0,0.1c-0.2,0.4-0.3,0.8-0.5,1.3c-0.1,0.4-0.2,0.8-0.3,1.2
	c-0.1,0.3-0.2,0.6-0.3,0.9c0,0.2-0.1,0.4-0.1,0.6c-3.3,9.3-10.3,14.4-19.5,16.6c-4.3,1-8.8,1.4-13.3,2.1c-10.9,0-19.8-3.8-26.2-12.8
	c-6.2-8.6-9.1-18.1-8.6-28.6c0,0,0,0,0,0c0,0-1.6-14.1,18.5-18.2c0,0,0,0,0,0c7.4-2,18.2-3,27.1-2.7l0,0c0,0,3.8-0.2,8.4,0.8
	c2.3,0.4,4.2,1,5.3,1.8c3.9,1.8,7.6,4.8,9.6,9.8c0.6,0.2,0.9,0.6,1.2,1.5c2,7.3,1.1,14.4-0.2,21.6C185.2,49.5,185.2,49.5,185.1,49.6
	z"/>
	</g>
</svg>
