<?xml version="1.0" encoding="utf-8"?>
<!-- Generator: Adobe Illustrator 21.0.0, SVG Export Plug-In . SVG Version: 6.00 Build 0)  -->
<svg class="svg-edition svg-small" version="1.1"  xmlns="http://www.w3.org/2000/svg" xmlns:xlink="http://www.w3.org/1999/xlink" x="0px" y="0px"
	 viewBox="0 0 200 200" style="enable-background:new 0 0 200 200;" xml:space="preserve">
<style type="text/css">
	#nose .st0{fill:#DE8172;}
	#nose .st1{fill:#913D2B;}
	#nose .st2{fill:#C55640;}
</style>
<g id="nose">
	<path class="st0" d="M53.7,134.9h8.6c8.6,0,15.7,7.1,15.7,15.7v8.6c0,8.6-7.1,15.7-15.7,15.7h-8.6c-8.6,0-15.7-7.1-15.7-15.7v-8.6
		C38,141.9,45.1,134.9,53.7,134.9z"/>
	<path class="st0" d="M53.7,133h8.6c8.6,0,15.7,7.1,15.7,15.7v1.5c0,8.6-7.1,15.7-15.7,15.7h-8.6c-8.6,0-15.7-7.1-15.7-15.7v-1.5
		C38,140.1,45.1,133,53.7,133z"/>
	<path class="st1" d="M62.3,165.9h-8.6c-8.6,0-15.6-7-15.7-15.5c0,0.1,0,0.1,0,0.2v8.6c0,8.6,7.1,15.7,15.7,15.7h8.6
		c8.6,0,15.7-7.1,15.7-15.7v-8.6c0-0.1,0-0.1,0-0.2C77.9,159,70.9,165.9,62.3,165.9z"/>
	<path class="st0" d="M133.8,134.9h8.6c8.6,0,15.7,7.1,15.7,15.7v8.6c0,8.6-7.1,15.7-15.7,15.7h-8.6c-8.6,0-15.7-7.1-15.7-15.7v-8.6
		C118.1,141.9,125.2,134.9,133.8,134.9z"/>
	<path class="st1" d="M142.3,166.9h-8.6c-8.6,0-15.6-7-15.7-15.5c0,0.1,0,0.1,0,0.2v8.6c0,8.6,7.1,15.7,15.7,15.7h8.6
		c8.6,0,15.7-7.1,15.7-15.7v-8.6c0-0.1,0-0.1,0-0.2C157.9,160,150.9,166.9,142.3,166.9z"/>
	<g id="nose">
		<g>
			<path class="st1" d="M63.7,164.9c-0.5,5.4-0.8,10.4-0.8,15.8c5.1,9.2,14,15.3,24.5,15.3h20.1c9.7,0,18.3-5.4,23.4-13.5
				c0-7.6-0.3-15.3-0.5-22.9C114.1,176.9,81.7,182.8,63.7,164.9z"/>
			<path class="st2" d="M130.2,159.6c-2.3-47.1-11.2-93.8-13.5-140.1c-3.6-5.6-8.7-9.4-15.3-9.4h-6.1c-7.1,0-12.5,3.1-16.1,8.2
				c2.3,49.4-11.7,97.8-15.3,146.8C81.7,182.8,114.1,176.9,130.2,159.6z"/>
			<path class="st0" d="M123,47.2c0-9.9-2-20.4-6.4-27.8c2.8,54,14.3,107.8,14.3,163.1c3.3-5.1,5.1-11.5,5.1-18.1L123,47.2z"/>
			<path class="st0" d="M78.9,18.2c-4.6,6.1-6.9,15-6.9,24.7L58.6,164.4c0,5.9,1.5,11.5,4.1,16.3C63.9,126.2,81.5,72.9,78.9,18.2z"
				/>
		</g>
	</g>
</g>
</svg>
