<?xml version="1.0" encoding="iso-8859-1"?>
<!-- Generator: Adobe Illustrator 16.0.0, SVG Export Plug-In . SVG Version: 6.00 Build 0)  -->
<!DOCTYPE svg PUBLIC "-//W3C//DTD SVG 1.1//EN" "http://www.w3.org/Graphics/SVG/1.1/DTD/svg11.dtd">
<svg version="1.1" xmlns="http://www.w3.org/2000/svg" xmlns:xlink="http://www.w3.org/1999/xlink" x="0px" y="0px" width="47px"
	 height="47px" viewBox="0 0 47 47" style="enable-background:new 0 0 47 47;" xml:space="preserve">
<g id="foto_de_ejemplo" style="display:none;">
</g>
<g id="fondo_azul">
</g>
<g id="fondo_naranja">
</g>
<g id="fondo_gris" style="display:none;">
</g>
<g id="vectores">
	<g>
		<g>
			<circle style="fill:#FFF7FF;" cx="23.5" cy="23.499" r="23.092"/>
			<path style="fill:#E0E3E1;" d="M8.938,37.437c0,0-13.834-14.979,0.937-29.645c0,0,14.354-13.211,28.917,1.662
				c0,0-12.17-11.547-27.461,0.418C11.33,9.872-1.776,20.479,8.938,37.437z"/>
		</g>
		<path style="fill:#E0E3E1;" d="M11.746,9.456C-1.152,19.753,9.374,37.624,9.374,37.624c-3.799-3.719-6.157-8.906-6.157-14.645
			c0-11.316,9.173-20.49,20.491-20.49c5.973,0,11.35,2.555,15.096,6.633C38.804,9.122,24.087-0.397,11.746,9.456z"/>
		<circle style="fill:#3C2918;" cx="23.5" cy="23.083" r="17.891"/>
		<g>
			<path style="fill:#FFFFFF;" d="M26.42,12.905c-0.002,0.002-0.002,0.002-0.003,0.002c-0.021-0.287-0.264-0.514-0.559-0.514
				c-0.31,0-0.561,0.248-0.561,0.555v11.734c-0.925-0.854-2.339-1.4-3.927-1.4c-2.786,0-5.047,1.686-5.047,3.762
				c0,2.078,2.261,3.762,5.047,3.762c2.744,0,4.978-1.631,5.045-3.664c0.003-0.021,0.003-0.043,0.003-0.066v-7.406
				c1.19-0.033,4.306,0.268,4.579,4.541c0.021,0.297,0.252,0.557,0.562,0.557c0.31,0,0.56-0.248,0.56-0.557v-2
				C32.58,13.435,26.836,16.556,26.42,12.905z"/>
			<line style="fill:none;stroke:#FFFFFF;stroke-miterlimit:10;" x1="16.752" y1="15.82" x2="32.931" y2="31.999"/>
		</g>
	</g>
</g>
<g id="Capa_6">
</g>
<g id="reglas" style="display:none;">
</g>
</svg>
