[
	{ "file": "uno.svg", "type":"flat", "gender": "female"},
	{ "file": "dos.svg", "type":"flat", "gender": "male"},
	{ "file": "tres.svg", "type":"flat", "gender": "female"},
	{ "file": "cuatro.svg", "type":"flat", "gender": "female"},
	{ "file": "personaje.svg", "type":"flat", "gender": "male"},
	{ "file": "base1.svg", "type":"flat", "gender": "male"},
	{ "file": "base2.svg", "type":"flat", "gender": "male"},
	{ "file": "base3.svg", "type":"flat", "gender": "male"}
]