[
	{ "file":"cara1.svg", "tag":"faces","type":"flat","gender":"male, female","emotion":"happiness, sadness, anger"},
	{ "file":"cara2.svg", "tag":"faces", "type":"flat", "gender":"male, female", "emotion":"happiness, sadness, anger"},
	{ "file":"cara3.svg", "tag":"faces", "type":"flat", "gender":"male, female", "emotion":"happiness, sadness, anger"},
	{ "file":"cara4.svg", "tag":"faces", "type":"flat", "gender":"male, female", "emotion":"happiness, sadness, anger"},
	{ "file":"cap1.svg", "tag":"accesories", "type":"flat","gender":"male", "emotion":"happiness, sadness, anger" },
	{ "file":"cap2.svg", "tag":"accesories", "type":"flat", "gender":"male", "emotion":"happiness, sadness, anger"},
	{ "file":"cap3.svg", "tag":"accesories", "type":"flat", "gender":"male", "emotion":"happiness, sadness, anger"},
	{ "file":"lentes1.svg", "tag":"accesories", "type":"flat", "gender":"male, female", "emotion":"happiness, sadness" },
	{ "file":"lentes2.svg", "tag":"accesories", "type":"flat", "gender":"male, female", "emotion":"happiness, anger"},
	{ "file":"lentes3.svg", "tag":"accesories", "type":"flat", "gender":"male, female", "emotion":"happiness"},
	{ "file":"Bigote1.svg", "tag":"accesories", "type":"flat", "gender":"male", "emotion":"happiness" },
	{ "file":"Bigote2.svg", "tag":"accesories", "type":"flat","gender":"male","emotion":"happiness" },
	{ "file":"Bigote3.svg", "tag":"accesories", "type":"flat", "gender":"male", "emotion":"happiness" },
	{ "file":"Bigote4.svg", "tag":"accesories", "type":"flat", "gender":"male", "emotion":"happiness" },
	{ "file":"Bigote5.svg","tag":"accesories","type":"flat", "gender":"male", "emotion":"happiness" },
	{ "file":"nariz1.svg", "tag":"nose", "type":"flat", "gender":"male", "emotion":"happiness" },
	{ "file":"nariz2.svg","tag":"nose","type":"flat","gender":"male","emotion":"happiness"},
	{ "file":"nariz3.svg", "tag":"nose", "type":"flat", "gender":"male", "emotion":"happiness" },
	{ "file":"nariz4.svg", "tag":"nose", "type":"flat", "gender":"male", "emotion":"happiness" },
	{ "file":"Boca4.svg", "tag":"mouths", "type":"flat", "gender":"male,female", "emotion":"happiness" },
	{ "file":"Boca5.svg", "tag":"mouths", "type":"flat", "gender":"male,female", "emotion":"happiness" },
	{ "file":"Boca8.svg", "tag":"mouths", "type":"flat", "gender":"male,female", "emotion":"happiness" },
	{ "file":"ojos2.svg", "tag":"eyes", "type":"flat", "gender":"male,female", "emotion":"happiness" },
	{ "file":"Cabello.svg", "tag":"hearh", "type":"flat", "gender":"male,female", "emotion":"happiness" }
]