<?xml version="1.0" encoding="utf-8"?>
<!-- Generator: Adobe Illustrator 21.1.0, SVG Export Plug-In . SVG Version: 6.00 Build 0)  -->
<svg version="1.1" id="Capa_1" xmlns="http://www.w3.org/2000/svg" xmlns:xlink="http://www.w3.org/1999/xlink" x="0px" y="0px"
	 viewBox="0 0 200 200" style="enable-background:new 0 0 200 200;" xml:space="preserve">
<style type="text/css">
	.st0{fill:#020202;}
	.st1{fill:#FDFDFD;}
</style>
<g  id="icon">
<rect x="55.5" y="53.3" class="st1" width="25.4" height="90.9"/>
<rect x="118.9" y="53.3" class="st1" width="25.4" height="90.9"/>
</g>
</svg>
