
		<svg id="customer-character" version="1.1" xmlns="http://www.w3.org/2000/svg" xmlns:xlink="http://www.w3.org/1999/xlink" x="0px" y="0px" style="enable-background:new 0 0 522 552;width:389px;height:370px" xml:space="preserve"><!-- width: 389px; height: 392px;-->
			<g></g>
		<desc>Created with Snap</desc><defs></defs><g class="">

<svg version="1.1" id="cara_4" xmlns="http://www.w3.org/2000/svg" xmlns:xlink="http://www.w3.org/1999/xlink" x="0px" y="0px" viewBox="0 0 178 238" style="enable-background:new 0 0 178 238;" xml:space="preserve">
<style type="text/css">
	#faces .st0{fill:#E6B99C;}
	#faces .st1{fill:#D4A282;}
	#faces .st2{fill:#BD4459;}
	#faces .st3{fill:#E2AF8F;}
</style>
<g id="faces">
	<g id="XMLID_35_">
		<path id="XMLID_38_" class="st0" d="M39,68.6c1.6,7-1.2,13.5-6,14.8c-4.9,1.3-10.1-3.3-11.7-10.2c-1.6-7,1.2-13.5,6-14.8
			C32.3,57.2,37.5,61.8,39,68.6z"></path>
		<path id="XMLID_37_" class="st1" d="M36.7,69.3c1.1,4.9-0.3,6.7-3.8,7.6c-3.5,0.9-8.1,0.5-9.2-4.2c-1.1-4.9,0.9-9.5,4.6-10.4
			C31.8,61.3,35.6,64.4,36.7,69.3z"></path>
		<ellipse id="XMLID_36_" class="st0" cx="32.2" cy="70.2" rx="3.8" ry="3"></ellipse>
	</g>
	<g id="XMLID_31_">
		<path id="XMLID_34_" class="st0" d="M136.8,68.6c-1.6,7,1.2,13.5,6,14.8c4.9,1.3,10.1-3.3,11.7-10.2c1.6-7-1.2-13.5-6-14.8
			C143.7,57.1,138.3,61.8,136.8,68.6z"></path>
		<path id="XMLID_33_" class="st1" d="M139.2,69.3c-1.1,4.9,0.3,6.7,3.8,7.6c3.5,0.9,8.1,0.5,9.2-4.2c1.1-4.9-0.9-9.5-4.6-10.4
			C143.9,61.3,140.2,64.4,139.2,69.3z"></path>
		<ellipse id="XMLID_32_" class="st0" cx="143.5" cy="70.2" rx="3.8" ry="3"></ellipse>
	</g>
	<g>
		<path id="XMLID_13_" class="st0" d="M64.9,232.1H53.2c-16.4,0-29.8-13.4-29.8-29.8v-15.6c0-31.9,25.9-41.4,38.7-41.4l2.9,10
			c12.9,0,23.5,10.5,23.5,23.5v29.9C88.4,221.6,77.9,232.1,64.9,232.1z"></path>
		<path id="XMLID_9_" class="st0" d="M110.6,232.1h11.7c16.4,0,29.8-13.4,29.8-29.8v-15.6c0-31.9-25.9-41.4-38.7-41.4l-2.9,10
			c-12.9,0-23.5,10.5-23.5,23.5v29.9C87.1,221.6,97.7,232.1,110.6,232.1z"></path>
		<path id="XMLID_8_" class="st2" d="M126.6,232.1H46.1c-6.6,0-11.9-5.4-11.9-11.9v-51.5c0-13.1,10.8-23.9,23.9-23.9h59.6
			c13.1,0,23.9,10.8,23.9,23.9v48.4C141.4,225.4,134.7,232.1,126.6,232.1z" style="fill:#710014"></path>
		<path id="XMLID_4_" class="st0" d="M111.9,144.9H63.7c-2.6,0-5.1,0.4-7.5,1.1c1.8,20.5,15.2,36.4,31.6,36.4s29.8-15.9,31.6-36.4
			C117,145.3,114.5,144.9,111.9,144.9z"></path>
		<path id="XMLID_3_" class="st3" d="M87.9,154.7L87.9,154.7c-9.1,0-16.4-4.2-16.4-4.2v-39c0-9.1,7.4-16.4,16.4-16.4l0,0
			c9.1,0,16.4,7.4,16.4,16.4v39C104.3,150.5,96.8,154.7,87.9,154.7z"></path>
		<path id="XMLID_18_" class="st0" d="M144.2,70.2c0,35.3-25.2,63.9-56.4,63.9s-56.4-28.6-56.4-63.9s25.2-59.6,56.4-59.6
			S144.2,34.9,144.2,70.2z"></path>
		<circle id="XMLID_17_" class="st3" cx="49.7" cy="88.7" r="8.7"></circle>
		<circle id="XMLID_16_" class="st3" cx="125.9" cy="88.7" r="8.7"></circle>
		<path id="XMLID_2_" class="st3" d="M144.2,70.2c0-1.1,0-2-0.1-3c0-0.3,0-0.7,0-0.9c0-0.8-0.1-1.4-0.1-2.2c0-0.3,0-0.5-0.1-0.8
			c-0.1-0.9-0.1-1.8-0.3-2.8l0,0c-1.3-9.5-4.5-17.9-9.2-25.1c3.4,8.3,5.4,17.5,5.4,27.3c0,35.3-25.2,63.9-56.4,63.9
			c-18,0-34.1-9.6-44.4-24.5l0,0c1.8,3.5,3.9,7,6.3,10c0,0,0,0,0,0.1c1.6,2.1,3.3,3.9,5.1,5.8l0,0c0.8,0.9,1.7,1.7,2.6,2.5
			c0.1,0.1,0.1,0.1,0.3,0.3c1.8,1.6,3.8,3.2,5.8,4.5c0.1,0.1,0.3,0.1,0.4,0.3c0.9,0.5,1.7,1.1,2.6,1.6c0.1,0.1,0.4,0.3,0.5,0.3
			c2,1.2,4.1,2.1,6.3,3c0.3,0.1,0.5,0.1,0.8,0.3c0.8,0.3,1.7,0.7,2.6,0.9c0.3,0.1,0.5,0.1,0.8,0.3c1.1,0.4,2.2,0.7,3.3,0.9l0,0
			c1.1,0.3,2.2,0.5,3.4,0.7c0.3,0,0.7,0.1,0.9,0.1c0.8,0.1,1.7,0.3,2.6,0.3c0.4,0,0.7,0,1.1,0.1c1.2,0.1,2.4,0.1,3.5,0.1
			c10.8,0,20.7-3.4,29.3-9.2c8.5-5.9,15.6-14.2,20.3-24.2c0.9-1.8,1.7-3.7,2.4-5.6C142.6,87.4,144.2,79,144.2,70.2L144.2,70.2z"></path>
	</g>
</g>
</svg>
</g><g class="" style="transform: translate(148px, -10px) scale(0.2, 0.2);">

<svg class="svg-edition" version="1.1" xmlns="http://www.w3.org/2000/svg" xmlns:xlink="http://www.w3.org/1999/xlink" x="0px" y="0px" viewBox="0 0 221 188" style="enable-background:new 0 0 221 188;" xml:space="preserve">
<style type="text/css">
	#cap-1 .st0{fill:#81562B;}
	#cap-1 .st1{fill:#3E2100;}
	#cap-1 .st2{fill:#4F300B;}
	#cap-1 .st3{fill:#E5E1D6;}
</style>
<g id="cap-1">
	<g>
		<g>
			<g>
				<path class="st0" d="M37.7,95.6l0.3-2.7c-9.3-0.8-20.8,0.4-27.4,4.5c-5,2.5-7.6,6.9-7.7,12.3C11.5,99.8,24.8,93.1,37.7,95.6z"></path>
				<path class="st0" d="M214.4,137.5c0.9,1.4,1.7,2.8,2.4,4.3c0.8-4.8-0.7-9.3-4.6-13c-5.3-6-16.1-10.5-25.2-12.6l-0.6,4.4
					C197.9,121.3,207.9,128,214.4,137.5z"></path>
				<path class="st1" d="M117,171.2c-32.3-0.9-62.8-11.2-90.8-30.4c-9.6-6.6-16-15.3-22.2-24.2c6,20.5,39.2,49.5,99.4,59.6
					c62.9,9.1,102.7-10.5,111.7-29C190.2,171.7,150.5,172.1,117,171.2z" style="fill:#be6500"></path>
				<path class="st2" d="M26.2,140.8c28.1,19.2,58.5,29.5,90.8,30.4c33.5,0.9,73.2,0.5,98-24.1c0.9-1.8,1.5-3.6,1.7-5.3
					c-0.6-1.5-1.4-2.9-2.4-4.3c-6.5-9.5-16.5-16.2-28-16.8l-1.5,11.7c-22.4,8.6-47.3,12.8-77,8.2c-29.7-4.6-52.5-16.4-71.9-31.5
					l1.7-13.4c-12.9-2.4-26.3,4.2-34.8,14.1c0,2.1,0.3,4.4,1,6.9C10.2,125.4,16.5,134.1,26.2,140.8z" style="fill:#b86400"></path>
				<path class="st2" d="M169,33.5c-12.2-11.7-27.2-17.3-43.5-21.1c-26.9-6.1-51.6,3.7-70.1,21.1C48,43.4,43,55.5,41.2,69l-1.2,9
					l-2,15.4c18.6,14.5,43.6,25.5,72,29.9c28.4,4.4,55.2,1.5,76.7-6.7l2-15.4l1.2-9c1.4-10.5,0.6-20.8-2-30.4
					C182.2,51.7,177.8,41.6,169,33.5z" style="fill:#b86400"></path>
				<path class="st0" d="M134.5,10.9l-19.4-3c-23.4-3.7-45.7,6.9-59.7,25.7c18.5-17.4,43.2-27.2,70.1-21.1
					c16.4,3.7,31.4,9.4,43.5,21.1c8.9,8.1,13.2,18.2,19,28.3C181,35.6,160.7,15,134.5,10.9z"></path>
			</g>
		</g>
	</g>
	<g>
		<path class="st3" d="M107.9,140.6c29.7,4.6,54.6,0.5,77-8.2l2-15.7l-0.1,0l0,0.1c-21.5,8.3-48.3,11.2-76.7,6.7
			c-28.4-4.4-53.5-15.4-72-29.9l-0.1,0l-2,15.5C55.4,124.2,78.3,135.9,107.9,140.6z"></path>
	</g>
</g>
</svg>
</g><g class="svg-selected" style="transform: translate(146px, 63px) scale(0.2, 0.2);">

<svg class="svg-edition" version="1.1" xmlns="http://www.w3.org/2000/svg" xmlns:xlink="http://www.w3.org/1999/xlink" x="0px" y="0px" viewBox="0 0 200 88" style="enable-background:new 0 0 200 88;" xml:space="preserve">
<style type="text/css">
	#lentes-1 .st0{fill:#231F20;}
</style>
<g id="lentes-1">
	<path id="lentes" class="st0" d="M195.1,17.2c-18.6-7.2-48-7.4-68.7-2.8c-3.5,0.8-15.8,5-16.9,5.3c-2.8,0.9-5.7,1.4-8.4,1.4l0,0
	c-0.4,0-0.8,0-1.2,0c-0.4,0-0.8,0-1.2,0l0,0c-2.7-0.1-5.6-0.5-8.4-1.4c-1.1-0.3-13.4-4.6-16.9-5.3C52.9,9.7,23.6,9.9,4.9,17.2
	c0.1,5.2-1.2,11.9,0,17.2C5.5,37,8.6,40,9.9,42.4c4.4,8,6.7,20.4,12.4,26.5c7.1,7.7,23.4,8.4,36.7,7.5c19.7-1.3,24.8-12,31.1-27.5
	c2.1-5.3,3.7-12.2,8.7-13.2l0,0c0.4-0.1,0.8-0.1,1.2-0.1c0.4,0,0.8,0,1.2,0.1l0,0c5,1,6.5,7.9,8.7,13.2
	c6.2,15.5,11.3,26.2,31.1,27.5c13.3,0.9,29.6,0.2,36.7-7.5c5.8-6.1,8.1-18.6,12.4-26.5c1.4-2.5,4.4-5.6,5.1-8.1
	C196.3,29.1,195,22.3,195.1,17.2z M84.5,48.8c-2.5,9.5-6,16.3-12.4,20c-9.6,5.7-33,6.1-42.3,0c-6.3-4.2-8.8-12-10.3-22.2
	c-1.1-6.7-1.9-16.3,0.9-20.7c4.7-7.6,25.1-7.8,37.3-6.9c11.6,0.9,26.1,3.9,28.4,11.9C87.5,36.5,85.7,44.2,84.5,48.8z M180.6,46.5
	c-1.6,10.1-4,18-10.3,22.2c-9.4,6.1-32.8,5.7-42.3,0c-6.3-3.8-9.9-10.5-12.4-20c-1.3-4.6-3-12.3-1.5-17.9c2.2-8,16.8-11,28.4-11.9
	c12.3-0.9,32.6-0.7,37.3,6.9C182.4,30.2,181.6,39.8,180.6,46.5z" style="fill:#ff0040"></path>
</g>
</svg>
</g></svg>
	