<?xml version="1.0" encoding="utf-8"?>
<!-- Generator: Adobe Illustrator 19.0.0, SVG Export Plug-In . SVG Version: 6.00 Build 0)  -->
<svg version="1.1" id="Capa_1" xmlns="http://www.w3.org/2000/svg" xmlns:xlink="http://www.w3.org/1999/xlink" x="0px" y="0px"
	 viewBox="0 0 200 200" style="enable-background:new 0 0 200 200;" xml:space="preserve">
<style type="text/css">
	.st0{fill:#B97D50;}
	.st1{fill:#E6B99C;}
	.st2{fill:#D4A282;}
	.st3{fill:#393449;}
	.st4{fill:#2B2737;}
	.st5{fill:#ECC430;}
	.st6{fill:#DC9922;}
	.st7{fill:#E2AF8F;}
	.st8{fill:#CA9A7C;}
	.st9{fill:#FFFFFF;}
	.st10{fill:#C39577;}
	.st11{fill:#36160D;}
</style>
<g id="XMLID_5_">
	<path id="XMLID_73_" class="st0" d="M136.4,125.4c4.3-21.2,6.8-40.9,6.8-50.7c0-27.1-19.4-45.8-43.3-45.8
		c-23.9,0-43.3,18.7-43.3,45.8c0,9.7,2.5,29.4,6.8,50.7H136.4z"/>
	<g id="XMLID_69_">
		<path id="XMLID_72_" class="st1" d="M62.5,73.5c1.2,5.3-0.9,10.4-4.7,11.4c-3.8,1-7.8-2.5-8.9-7.8c-1.2-5.3,0.9-10.4,4.7-11.4
			C57.3,64.7,61.3,68.2,62.5,73.5z"/>
		<path id="XMLID_71_" class="st2" d="M60.6,74c0.8,3.7-0.2,5.1-2.9,5.9c-2.8,0.7-6.2,0.5-7-3.2c-0.8-3.7,0.8-7.3,3.5-8
			C56.9,67.9,59.8,70.3,60.6,74z"/>
		<ellipse id="XMLID_70_" class="st1" cx="57.3" cy="74.8" rx="2.9" ry="2.3"/>
	</g>
	<g id="XMLID_41_">
		<path id="XMLID_68_" class="st1" d="M137.5,73.5c-1.2,5.3,0.9,10.4,4.7,11.4c3.8,1,7.8-2.5,8.9-7.8c1.2-5.3-0.9-10.4-4.7-11.4
			C142.7,64.7,138.7,68.2,137.5,73.5z"/>
		<path id="XMLID_67_" class="st2" d="M139.4,74c-0.8,3.7,0.2,5.1,2.9,5.9c2.8,0.7,6.2,0.5,7-3.2c0.8-3.7-0.8-7.3-3.5-8
			C143.1,67.9,140.2,70.3,139.4,74z"/>
		<ellipse id="XMLID_66_" class="st1" cx="142.7" cy="74.8" rx="2.9" ry="2.3"/>
	</g>
	<path id="XMLID_40_" class="st3" d="M82.4,199.1h-9c-12.7,0-22.9-10.3-22.9-22.9v-12.1c0-24.5,19.8-31.7,29.7-31.7l2.2,7.7
		c9.9,0,18,8.1,18,18v23C100.4,191,92.3,199.1,82.4,199.1z"/>
	<path id="XMLID_39_" class="st3" d="M117.4,199.1h9c12.7,0,22.9-10.3,22.9-22.9v-12.1c0-24.5-19.8-31.7-29.7-31.7l-2.2,7.7
		c-9.9,0-18,8.1-18,18v23C99.4,191,107.5,199.1,117.4,199.1z"/>
	<path id="XMLID_38_" class="st4" d="M129.8,199.1h-62c-5,0-9.1-4.1-9.1-9.1v-39.7c0-10,8.2-18.2,18.2-18.2H123
		c10,0,18.2,8.2,18.2,18.2v37.5C141.2,194,136.1,199.1,129.8,199.1z"/>
	<polygon id="XMLID_37_" class="st5" points="80.6,199.1 69.7,199.1 69.7,133.2 80.6,131.1 	"/>
	<path id="XMLID_36_" class="st6" d="M69.7,169.5v27c0.1,0,0.2,0,0.3,0h10.6v-33.1C76.3,164.1,72.5,166.3,69.7,169.5z"/>
	<polygon id="XMLID_35_" class="st5" points="119.2,199.1 130.1,199.1 130.1,133.2 119.2,131.1 	"/>
	<path id="XMLID_34_" class="st6" d="M119.2,196.4h7.8c1.1,0,2.1-0.1,3.1-0.3v-26.7c-2.8-3.1-6.6-5.3-10.9-6V196.4z"/>
	<path id="XMLID_33_" class="st3" d="M87.3,129.5c0,0-23,3.8-10.4,29.4c0,0,13.2-10.8,23-10.8v-8.6L87.3,129.5z"/>
	<path id="XMLID_32_" class="st3" d="M112.6,129.5c0,0,23,3.8,10.4,29.4c0,0-13.2-10.8-23-10.8v-8.6L112.6,129.5z"/>
	<path id="XMLID_31_" class="st7" d="M99.9,139.6L99.9,139.6c-6.9,0-12.6-3.2-12.6-3.2v-30c0-6.9,5.7-12.6,12.6-12.6l0,0
		c6.9,0,12.6,5.7,12.6,12.6v30C112.5,136.4,106.9,139.6,99.9,139.6z"/>
	<path id="XMLID_30_" class="st8" d="M99.9,94.5c-6.9,0-12.6,5.7-12.6,12.6V127c2.9,0.7,5.9,1,8.9,1c5.8,0,11.3-1.3,16.3-3.6v-17.3
		C112.5,100.2,106.9,94.5,99.9,94.5z"/>
	<path id="XMLID_29_" class="st1" d="M143.3,74.7c0,27.1-19.4,49.1-43.3,49.1s-43.3-22-43.3-49.1S76,28.9,99.9,28.9
		S143.3,47.6,143.3,74.7z"/>
	<circle id="XMLID_28_" class="st7" cx="70.6" cy="86.6" r="6.6"/>
	<circle id="XMLID_27_" class="st7" cx="129.2" cy="86.6" r="6.6"/>
	<path id="XMLID_26_" class="st0" d="M59.1,88.6L59.1,88.6c-1.2,0-2.2-1-2.2-2.2l-0.3-13.6c0-4.5,1.3-8.8,2.5-8.8l0,0
		c1.2,0,2.2-1.2,2.2,0v22.4C61.2,87.6,60.2,88.6,59.1,88.6z"/>
	<path id="XMLID_25_" class="st7" d="M143.3,74.7c0-0.8,0-1.6-0.1-2.3c0-0.2,0-0.5,0-0.7c0-0.6-0.1-1.1-0.1-1.7c0-0.2,0-0.4-0.1-0.6
		c-0.1-0.7-0.1-1.4-0.2-2.1c0,0,0,0,0,0c-1-7.3-3.5-13.8-7.1-19.2c2.7,6.4,4.2,13.5,4.2,21c0,27.1-19.4,49.1-43.3,49.1
		c-13.9,0-26.2-7.4-34.1-18.8c0,0,0,0,0,0c1.4,2.7,3,5.3,4.8,7.7c0,0,0,0,0,0.1c1.2,1.6,2.5,3.1,3.9,4.4c0,0,0,0,0,0
		c0.7,0.7,1.3,1.3,2,1.9c0.1,0.1,0.1,0.1,0.2,0.2c1.4,1.2,2.9,2.4,4.4,3.4c0.1,0.1,0.2,0.1,0.3,0.2c0.7,0.4,1.3,0.9,2,1.3
		c0.1,0.1,0.3,0.2,0.4,0.2c1.6,0.9,3.2,1.7,4.8,2.3c0.2,0.1,0.4,0.1,0.6,0.2c0.6,0.2,1.3,0.5,2,0.7c0.2,0.1,0.4,0.1,0.7,0.2
		c0.8,0.3,1.7,0.5,2.5,0.7c0,0,0,0,0,0c0.9,0.2,1.7,0.4,2.6,0.5c0.2,0,0.5,0.1,0.7,0.1c0.7,0.1,1.3,0.2,2,0.2c0.3,0,0.5,0,0.8,0.1
		c0.9,0.1,1.8,0.1,2.7,0.1c8.2,0,15.9-2.6,22.5-7.1c6.6-4.5,12-10.9,15.6-18.6c0.7-1.4,1.3-2.8,1.8-4.3
		C142.1,87.9,143.3,81.5,143.3,74.7C143.3,74.7,143.3,74.7,143.3,74.7z"/>
	<path id="XMLID_24_" class="st0" d="M140.8,88.6L140.8,88.6c1.2,0,2.2-1,2.2-2.2l0.3-13.6c0-4.5-1.3-8.8-2.5-8.8l0,0
		c-1.2,0-2.2-1.2-2.2,0v22.4C138.7,87.6,139.6,88.6,140.8,88.6z"/>
	<path id="XMLID_23_" class="st0" d="M99.9,53.7c17.2,0,32.6,5.7,43,15.3c-2.5-24-20.8-40.1-43-40.1S59.4,45,56.9,69
		C67.3,59.3,82.7,53.7,99.9,53.7z"/>
	<path id="XMLID_22_" class="st9" d="M99.9,92.7c-6.6,0-12.6-1-17.6-2.8c-1.5-0.5-3.2,0.3-3.2,1.4c0,0,0,0,0,0c0,8.2,9.3,18,20.8,18
		c11.5,0,20.8-9.9,20.8-18c0,0,0,0,0,0c0-1.2-1.8-1.9-3.2-1.4C112.5,91.7,106.5,92.7,99.9,92.7z"/>
	<path id="XMLID_21_" class="st10" d="M99.9,82.3c-2.2,0-4-1-4.7-2.4c-0.2,0.4-0.3,0.8-0.3,1.2c0,1.9,2.2,3.5,5,3.5
		c2.8,0,5-1.6,5-3.5c0-0.4-0.1-0.8-0.3-1.2C103.9,81.4,102.1,82.3,99.9,82.3z"/>
	<g id="XMLID_18_">
		<ellipse id="XMLID_20_" class="st11" cx="76.7" cy="69.6" rx="3.6" ry="5.9"/>
		<circle id="XMLID_19_" class="st9" cx="75.8" cy="67.2" r="1.2"/>
	</g>
	<g id="XMLID_15_">
		<ellipse id="XMLID_17_" class="st11" cx="123.2" cy="69.6" rx="3.6" ry="5.9"/>
		<circle id="XMLID_16_" class="st9" cx="122.2" cy="67.2" r="1.2"/>
	</g>
	<path id="XMLID_14_" class="st5" d="M116.2,165.7H83.8c-10.3,0-18.7,8.4-18.7,18.7v13.5c1.5,0.7,3.2,1.2,5,1.2h57
		c2.9,0,5.6-0.9,7.9-2.4v-12.2C134.9,174.2,126.5,165.7,116.2,165.7z"/>
	<circle id="XMLID_13_" class="st4" cx="75.2" cy="176.4" r="2.8"/>
	<circle id="XMLID_12_" class="st4" cx="124.7" cy="176.4" r="2.8"/>
	<path id="XMLID_11_" class="st5" d="M99.9,62.8c17.2,0,36-7.6,44.4-2.3c0-0.6,0.1-1.1,0.1-1.7c0-25-13.6-53.5-44.4-53.5
		c-29.6,0-44.4,28.5-44.4,53.5c0,0.6,0,1.1,0.1,1.7C61.6,54.9,82.8,62.8,99.9,62.8z"/>
	<path id="XMLID_10_" class="st6" d="M140.6,61.7H59.2c-3.9,0-7.1-3.2-7.1-7.1l0,0c0-3.9,3.2-7.1,7.1-7.1h81.4
		c3.9,0,7.1,3.2,7.1,7.1l0,0C147.7,58.5,144.5,61.7,140.6,61.7z"/>
	<rect id="XMLID_9_" x="93.2" y="0.1" class="st6" width="14.4" height="19.8"/>
	<path id="XMLID_8_" class="st5" d="M142.5,58.9c0,1.9-18.9,6.7-42.1,6.7s-42.1-4.7-42.1-6.7s18.9-0.4,42.1-0.4
		S142.5,56.9,142.5,58.9z"/>
	<path id="XMLID_7_" class="st6" d="M68.8,19.8v11.6c0,1.9,1.5,3.4,3.4,3.4c1.9,0,3.4-1.5,3.4-3.4V13.3
		C73.1,15.2,70.8,17.4,68.8,19.8z"/>
	<path id="XMLID_6_" class="st6" d="M124.3,12.9v18.5c0,1.9,1.5,3.4,3.4,3.4c1.9,0,3.4-1.5,3.4-3.4V19.2
		C129,16.8,126.8,14.7,124.3,12.9z"/>
</g>
</svg>
