<?xml version="1.0" encoding="utf-8"?>
<!-- Generator: Adobe Illustrator 19.0.0, SVG Export Plug-In . SVG Version: 6.00 Build 0)  -->
<svg version="1.1" id="Capa_1" xmlns="http://www.w3.org/2000/svg" xmlns:xlink="http://www.w3.org/1999/xlink" x="0px" y="0px"
	 viewBox="0 0 200 200" style="enable-background:new 0 0 200 200;" xml:space="preserve">
<style type="text/css">
	.st0{fill:#FFFFFF;}
</style>
<g id="XMLID_5_">
	<path id="XMLID_3_" class="st0" d="M196.9,66.1c-3.7,0-21.4,13.7-27.4,20.5c-8.3,9.4-14.6,24.1-35.9,35.1c-21.2,11-25.3,5.5-34,5.5
		s-12.8,5.4-34-5.5c-21.2-11-27.5-25.7-35.9-35.1c-6-6.8-22.9-20.5-26.5-20.5c-3.7,0,7.7,13.8,11.5,18.3c4.2,5,7.7,11,15,21.3
		c7.3,10.2,9.5,21.2,28.5,32.9c19,11.7,63.6,11.7,82.7,0c19-11.7,21.2-22.7,28.5-32.9s10.8-16.3,15-21.3
		C188.3,79.9,200.5,66.1,196.9,66.1z"/>
	<path id="XMLID_2_" class="st0" d="M83.1,95.2c2.2,8.7,8,10.9,12.2,11.5c1.1,0.1,4.4,0,4.4,0s3.3,0.1,4.3,0
		c4.1-0.6,10-2.8,12.2-11.5C118.3,86.6,80.9,86.6,83.1,95.2z"/>
	<path id="XMLID_1_" class="st0" d="M158.8,73.6c-7.9-28-110.5-28-118.4,0c-7.4,26-5.1,27.5,0,41.5s15.2,5.6,15.6-3.8
		c0.2-4.3,3.5-40,11-41.9s32.6,0,32.6,0s25.2-1.9,32.6,0c7.5,1.9,10.8,37.5,11,41.9c0.4,9.4,10.5,17.8,15.6,3.8
		C163.9,101.1,166.2,99.7,158.8,73.6z"/>
</g>
</svg>
