<?xml version="1.0" encoding="utf-8"?>
<!-- Generator: Adobe Illustrator 21.0.0, SVG Export Plug-In . SVG Version: 6.00 Build 0)  -->
<svg class="svg-edition" version="1.1"  xmlns="http://www.w3.org/2000/svg" xmlns:xlink="http://www.w3.org/1999/xlink" x="0px" y="0px"
	 viewBox="0 0 221 188" style="enable-background:new 0 0 221 188;" xml:space="preserve">
<style type="text/css">
	#cap-1 .st0{fill:#81562B;}
	#cap-1 .st1{fill:#3E2100;}
	#cap-1 .st2{fill:#4F300B;}
	#cap-1 .st3{fill:#E5E1D6;}
</style>
<g id="cap-1">
	<g>
		<g>
			<g>
				<path class="st0" d="M37.7,95.6l0.3-2.7c-9.3-0.8-20.8,0.4-27.4,4.5c-5,2.5-7.6,6.9-7.7,12.3C11.5,99.8,24.8,93.1,37.7,95.6z"/>
				<path class="st0" d="M214.4,137.5c0.9,1.4,1.7,2.8,2.4,4.3c0.8-4.8-0.7-9.3-4.6-13c-5.3-6-16.1-10.5-25.2-12.6l-0.6,4.4
					C197.9,121.3,207.9,128,214.4,137.5z"/>
				<path class="st1" d="M117,171.2c-32.3-0.9-62.8-11.2-90.8-30.4c-9.6-6.6-16-15.3-22.2-24.2c6,20.5,39.2,49.5,99.4,59.6
					c62.9,9.1,102.7-10.5,111.7-29C190.2,171.7,150.5,172.1,117,171.2z"/>
				<path class="st2" d="M26.2,140.8c28.1,19.2,58.5,29.5,90.8,30.4c33.5,0.9,73.2,0.5,98-24.1c0.9-1.8,1.5-3.6,1.7-5.3
					c-0.6-1.5-1.4-2.9-2.4-4.3c-6.5-9.5-16.5-16.2-28-16.8l-1.5,11.7c-22.4,8.6-47.3,12.8-77,8.2c-29.7-4.6-52.5-16.4-71.9-31.5
					l1.7-13.4c-12.9-2.4-26.3,4.2-34.8,14.1c0,2.1,0.3,4.4,1,6.9C10.2,125.4,16.5,134.1,26.2,140.8z"/>
				<path class="st2" d="M169,33.5c-12.2-11.7-27.2-17.3-43.5-21.1c-26.9-6.1-51.6,3.7-70.1,21.1C48,43.4,43,55.5,41.2,69l-1.2,9
					l-2,15.4c18.6,14.5,43.6,25.5,72,29.9c28.4,4.4,55.2,1.5,76.7-6.7l2-15.4l1.2-9c1.4-10.5,0.6-20.8-2-30.4
					C182.2,51.7,177.8,41.6,169,33.5z"/>
				<path class="st0" d="M134.5,10.9l-19.4-3c-23.4-3.7-45.7,6.9-59.7,25.7c18.5-17.4,43.2-27.2,70.1-21.1
					c16.4,3.7,31.4,9.4,43.5,21.1c8.9,8.1,13.2,18.2,19,28.3C181,35.6,160.7,15,134.5,10.9z"/>
			</g>
		</g>
	</g>
	<g>
		<path class="st3" d="M107.9,140.6c29.7,4.6,54.6,0.5,77-8.2l2-15.7l-0.1,0l0,0.1c-21.5,8.3-48.3,11.2-76.7,6.7
			c-28.4-4.4-53.5-15.4-72-29.9l-0.1,0l-2,15.5C55.4,124.2,78.3,135.9,107.9,140.6z"/>
	</g>
</g>
</svg>
