<?xml version="1.0" encoding="utf-8"?>
<!-- Generator: Adobe Illustrator 21.0.0, SVG Export Plug-In . SVG Version: 6.00 Build 0)  -->
<svg class="svg-edition" version="1.1" xmlns="http://www.w3.org/2000/svg" xmlns:xlink="http://www.w3.org/1999/xlink" x="0px" y="0px"
	 viewBox="0 0 221 188" style="enable-background:new 0 0 221 188;" xml:space="preserve">
<style type="text/css">
	#cap-2 .st0{fill:#81562B;}
	#cap-2 .st1{fill:#4F300B;}
	#cap-2 .st2{fill:#3E2100;}
	#cap-2 .st3{fill:#65411B;}
	#cap-2 .st4{fill:#E5E1D6;}
</style>
<g id="cap-2">
	<path class="st0" d="M186.4,107.8c4-1.8,8-2.8,12.1-3.3c-12.1-3.3-28.9,5.5-32.7,7.1c-3.6,1.5-26.3,5-53.1,4.9
		c-26.8,0.1-49.5-3.4-53.1-4.9c-2.9-1.2-13.8-6.9-24.2-7.7c14.9,8,31.4,12.6,48.2,14.2C118.2,120.7,154.3,122.1,186.4,107.8z"/>
	<path class="st1" d="M78.4,177.4c23.6,5.8,46,3.1,69.6-1.8c0,0,1.8-0.9,2.2-0.9c2.2-0.9,4.9-1.3,7.1-1.8c1.8-0.9,3.6-1.8,4.9-2.2
		c24.2-6.1,44.3-23,48.7-46.9c-0.8-12.1-5.9-17.5-12.5-19.3c-4.1,0.5-8.2,1.5-12.1,3.3c-32.1,14.3-68.3,12.9-102.6,10.3
		c-16.9-1.6-33.4-6.1-48.2-14.2C25,103,15,107.1,14.5,126c-0.2,7.4,1.8,14.2,5.5,20.4c1.7,1.5,3.5,2.9,5.3,4.3
		C41,163.6,58.4,172.5,78.4,177.4z"/>
	<path class="st2" d="M211,123.9c-4.4,23.8-24.5,40.8-48.7,46.9c-1.3,0.4-3.1,1.3-4.9,2.2c-2.2,0.4-4.9,0.9-7.1,1.8
		c-0.4,0-2.2,0.9-2.2,0.9c-23.6,4.9-46,7.6-69.6,1.8c-20.1-4.9-37.5-13.8-53.1-26.8c-1.8-1.4-3.6-2.8-5.3-4.3
		c14.7,24.6,56.2,39.1,92.8,39.6c45.8-0.6,99.3-23.2,98.3-60C211.1,125.2,211.1,124.5,211,123.9z"/>
	<g>
		<path class="st1" d="M165.7,127.9c0-4.4,0-8.8,0.1-13c-26.5,6.6-54.8,5.3-82,3.2c-8.4-0.8-16.7-2.3-24.8-4.6
			c-0.7,9-1.5,14.4-1.5,14.4C116,166.5,165.7,127.9,165.7,127.9z"/>
		<path class="st0" d="M59.7,41.3c-0.9-7.9-3.7-15.4-6.3-23c-2.4-1.1-3.8-2.3-3.8-3.6c-0.3,0.9,0.1,1.6,0.1,1.6
			c11.6,36.8,10.9,76.4,9.3,97.1c1.5,0.4,3.1,0.8,4.6,1.2C65.1,90.3,61.8,66.1,59.7,41.3z"/>
		<path class="st1" d="M112.8,25.3c-27.3,0-50.5-2.9-59.3-7c2.6,7.5,5.4,15.1,6.3,23c2.1,24.8,5.4,49,3.9,73.3
			c6.6,1.6,13.3,2.8,20.2,3.4c26,2,52.9,3.3,78.4-2.4c1-32.7,3.9-65.5,10.4-97.6C164.2,22.3,140.6,25.3,112.8,25.3z"/>
		<path class="st0" d="M175.7,15.4c-0.3,0.9-1.4,1.8-3.1,2.7c-6.5,32.1-9.4,64.9-10.4,97.6c1.2-0.3,2.4-0.5,3.6-0.8
			C167,56.9,175.6,15.9,175.7,15.4z"/>
		<path class="st3" d="M155.2,10.5c-25-4.9-49.5-4.5-74.1-3.1c-10.8,0.4-21.6,2.9-31.4,7.1c0,0.1,0,0.1-0.1,0.2
			c0,5.8,28.2,10.6,63.1,10.6c33.5,0,60.9-4.4,62.9-9.9c0-0.1,0-0.2,0-0.4C169.1,13.2,162.3,11.7,155.2,10.5z"/>
		<path class="st0" d="M155.2,10.5c7.1,1.1,13.9,2.6,20.5,4.5c0-0.7-0.3-1.6-1.3-2.5c-6.1-4.7-30.7-8.2-60.4-8.3
			c-3.9,0-7.5,0-10.9,0.1c-23.1,0.6-42,3.3-49.7,6.9c-2.3,1.3-3.3,2.5-3.7,3.4c9.8-4.2,20.6-6.8,31.4-7.1
			C105.7,6.1,130.2,5.6,155.2,10.5z"/>
		<path class="st4" d="M59.7,101.8c-0.6,16.3-2.1,26.1-2.1,26.1c58.5,38.6,108.1,0,108.1,0s0.1-14,0.6-27.9
			C158.7,105.3,111.8,134.1,59.7,101.8z"/>
	</g>
</g>
</svg>
