<?xml version="1.0" encoding="utf-8"?>
<!-- Generator: Adobe Illustrator 21.0.0, SVG Export Plug-In . SVG Version: 6.00 Build 0)  -->
<svg class="svg-edition" version="1.1" xmlns="http://www.w3.org/2000/svg" xmlns:xlink="http://www.w3.org/1999/xlink" x="0px" y="0px"
	 viewBox="0 0 310 536" style="enable-background:new 0 0 310 536;" xml:space="preserve">
<style type="text/css">
	#face-2 .st0{fill:none;}
	#face-2 .st1{fill:#FFE6C7;}
	#face-2 .st2{fill:#FDD3A2;}
	#face-2 .st3{fill:#DDC0AC;}
	#face-2 .st4{fill:#F9E0C7;}
	#face-2 .st5{fill:#C69B7E;}
	#face-2 .st6{fill:#684624;}
</style>
<g id="face-2">
<path class="st0" d="M-369,273.7c0-0.1,0-0.1,0-0.2l0-0.1C-369,273.4-369,273.6-369,273.7z"/>
<path class="st1" d="M-369,273.7c0-0.1,0-0.1,0-0.2l0-0.1C-369,273.4-369,273.6-369,273.7z"/>
<path class="st0" d="M-369,273.7c0-0.1,0-0.1,0-0.2l0-0.1C-369,273.4-369,273.6-369,273.7z"/>
<g>
	<path class="st2" d="M283.1,135.9C263.9,79.1,227.5,33.4,160.7,29.8C79.6,25.3,39.4,93.5,19.9,171.9c-0.9,3.5-1.7,7.1-2.5,10.6
		C3.4,245,3.8,309.9,20.8,371.6c1.8,6.7,3.8,13.3,6,19.8c21.5,63.2,61.4,115.5,135,115.1c75.7-0.5,112.1-61.9,128.5-134.7
		c8.7-38.4,11.8-79.9,12.3-117.3C301,216,295.8,173.5,283.1,135.9z"/>
	<path class="st3" d="M155,506.3c2.2,0.1,4.5,0.1,6.8,0.1c75.7-0.5,112.1-61.9,128.5-134.7c5.9-26.2,9.3-53.9,10.9-80.7
		C259.9,505.3,49.7,441.3,49.7,441.3v0C72.4,478.3,105.9,504.5,155,506.3z"/>
	<path class="st4" d="M40.4,112.4L40.4,112.4c-2.3,4.9-4.4,9.9-6.4,15c-5.6,14.1-10.2,29.2-14.1,44.6c-0.9,3.5-1.7,7.1-2.5,10.6
		C3.4,245,3.8,309.9,20.8,371.6c1.8,6.7,3.8,13.3,6,19.8c20.8,61.3,59,112.3,128.2,115C155,506.3-21,456.3,40.4,112.4z"/>
	<path class="st5" d="M292.6,165.6c-2.3-10.1-5.1-20.1-8.4-29.7C265,79.1,228.6,33.4,161.8,29.8C96.7,26.2,57.9,69.5,35.1,127.3
		C169.8-10,292.1,164.9,292.6,165.6z"/>
	<g>
		<path class="st6" d="M281.9,136.3c-4.2-12.2-9.2-24.2-15.4-35.5c-6.2-11.3-13.6-22-22.4-31.3c-8.8-9.4-18.9-17.5-30.2-23.6
			c-11.3-6.1-23.6-10.2-36.2-12.5c-12.6-2.2-25.6-2.7-38.3-1.3c-6.3,0.8-12.6,2-18.8,3.9c-6.1,1.9-12,4.3-17.7,7.2
			c-5.6,3-11,6.5-16.1,10.4c-5,4-9.7,8.3-14.2,12.9c-4.4,4.7-8.4,9.7-12.2,14.9c-3.7,5.2-7.2,10.7-10.4,16.3
			c-6.3,11.2-11.7,23-16.3,35.1c-4.6,12.1-8.4,24.5-11.6,37c-3.2,12.6-5.9,25.2-8,38c-2.1,12.8-3.5,25.7-4.4,38.6
			c-0.5,6.5-0.6,12.9-0.8,19.4l0,9.7c0,3.2,0.2,6.5,0.2,9.7c0.5,12.9,1.5,25.9,3.2,38.7c1.8,12.8,4.2,25.6,7.2,38.2
			c3,12.6,6.7,25,11.2,37.2c2.2,6.1,4.7,12.1,7.4,18c2.7,5.9,5.5,11.7,8.8,17.3c6.4,11.3,13.8,22,22.5,31.5
			c4.4,4.8,9.1,9.2,14.1,13.3c5,4,10.4,7.7,16,10.9c11.2,6.5,23.6,10.7,36.3,13.2c6.4,1.1,12.8,1.8,19.3,2.1c3.2,0,6.5,0.2,9.7,0
			c1.6-0.1,3.2-0.1,4.8-0.2l4.8-0.4c6.4-0.7,12.8-1.8,19.1-3.5c6.2-1.8,12.3-4,18.1-6.8c5.8-2.8,11.3-6.3,16.5-10.1
			c1.3-1,2.6-1.9,3.8-3l3.7-3.1l3.5-3.3c1.2-1.1,2.3-2.3,3.4-3.5c4.4-4.7,8.6-9.7,12.3-15c3.7-5.3,7.1-10.8,10.3-16.5
			c12.4-22.8,20.2-47.9,25.5-73.2c5.3-25.4,8.3-51.3,9.8-77.2c0.4-6.5,0.7-13,0.8-19.5c0.1-3.2,0.2-6.5,0.2-9.7
			c0-3.2,0.2-6.5-0.1-9.7c-0.6-12.9-1.7-25.9-3.2-38.8C295.2,186.4,290.2,160.8,281.9,136.3z M284.4,135.5
			c8.2,24.8,13.1,50.6,16,76.5c1.4,13,2.4,25.9,2.9,39c0.2,3.3,0.1,6.5,0,9.8c-0.1,3.3-0.2,6.5-0.3,9.8c-0.2,6.5-0.6,13-1,19.5
			c-1.7,26-4.7,51.9-10.2,77.4c-1.3,6.4-2.9,12.7-4.6,19c-1.7,6.3-3.6,12.5-5.7,18.7c-2.1,6.2-4.4,12.3-7,18.2
			c-2.6,6-5.4,11.9-8.5,17.6c-3.2,5.7-6.6,11.3-10.3,16.6c-3.8,5.3-7.9,10.4-12.4,15.1c-1.1,1.2-2.2,2.4-3.4,3.5l-3.6,3.3l-3.7,3.2
			c-1.2,1.1-2.6,2-3.9,3c-5.2,3.9-10.8,7.4-16.7,10.3c-5.9,2.9-12,5.2-18.3,7c-6.3,1.8-12.8,2.9-19.2,3.6l-4.9,0.4
			c-1.6,0.1-3.3,0.1-4.9,0.2c-3.3,0.2-6.5,0-9.8,0c-6.5-0.3-13-1-19.5-2.1c-12.8-2.4-25.4-6.7-36.7-13.2c-5.7-3.2-11.1-6.9-16.2-11
			c-5.1-4.1-9.9-8.6-14.3-13.4c-8.9-9.6-16.5-20.3-22.9-31.7c-3.3-5.7-6.2-11.5-8.9-17.4c-2.7-5.9-5.2-12-7.5-18.1
			c-4.6-12.2-8.4-24.7-11.5-37.4c-3.1-12.7-5.6-25.5-7.5-38.4c-1.8-12.9-2.9-25.9-3.4-39c-0.1-3.3-0.3-6.5-0.3-9.8l0-9.8
			c0.2-6.5,0.3-13,0.8-19.5c0.8-13,2.2-26,4.2-38.9c2.1-12.9,4.7-25.7,7.9-38.3c3.2-12.6,7-25.2,11.5-37.4
			c4.5-12.3,9.9-24.2,16.3-35.7c3.2-5.7,6.7-11.3,10.5-16.6c3.9-5.3,8-10.5,12.5-15.3c4.5-4.8,9.4-9.3,14.6-13.4
			c5.3-4,10.8-7.6,16.7-10.7c5.9-3,12-5.5,18.4-7.4c6.3-1.9,12.8-3.1,19.4-4c13.1-1.4,26.4-0.8,39.4,1.4
			c12.9,2.4,25.6,6.6,37.2,12.9c11.6,6.4,22,14.7,30.9,24.4c8.9,9.7,16.4,20.6,22.6,32.1C275.2,111,280.2,123.1,284.4,135.5z"/>
	</g>
</g>
<path class="st4" d="M337,110C337,110,337,110,337,110C337,110,337,110,337,110z"/>
<g>
	<path class="st6" d="M443.3,18.2c0.7-0.1,1.4-0.3,2-0.6c0.6-0.3,1-0.5,1.3-0.7c0.3-0.2,0.6-0.2,0.9-0.1c0.3,0.1,0.8,0.2,1.2,0.3
		l0,2c-1.1-0.3-2.2-0.5-3.3-0.5c-0.6,0-1.1,0.2-1.7,0.4c-0.3,0.1-0.5,0.2-0.8,0.3c-0.2,0.1,0.2,0.1,0.4-0.2
		C443.5,18.8,443.4,18.4,443.3,18.2z M440.6,18.3c0.2-0.2,0.4-0.7,0.9-1c0.5-0.3,1.1-0.3,1.2-0.2c0.3,0.1,0.6,0.1,0.9,0.2
		c0.6,0.2,1.1,0.3,1.7,0.3c1.1,0,2.2-0.2,3.4-0.5l0,2c-0.6,0.2-1.4,0.3-2.1,0.4c-0.8,0.1-1.6,0.1-2.5,0c-0.8-0.1-1.6-0.4-2.1-0.6
		C441.5,18.6,441.1,18.4,440.6,18.3z"/>
</g>
</g>
</svg>
