
			<svg id="character" version="1.1" xmlns="http://www.w3.org/2000/svg" xmlns:xlink="http://www.w3.org/1999/xlink" x="0px" y="0px" viewBox="0 0 522 552" style="enable-background:new 0 0 522 552;width:100%;border:1px solid gray;width:100%;height:100%" xml:space="preserve"><desc>Created with Snap</desc><defs></defs><g>

<svg version="1.1" id="character" xmlns="http://www.w3.org/2000/svg" xmlns:xlink="http://www.w3.org/1999/xlink" x="0px" y="0px" viewBox="0 0 502 552" style="enable-background:new 0 0 502 552;" xml:space="preserve">
<style type="text/css">
	.st0{fill:#E2F2F4;}
	.st1{fill:#5A5B5D;}
	.st2{fill:#48484A;}
	.st3{fill:#444B4E;}
	.st4{fill:none;}
	.st5{fill:#FDD3A2;}
	.st6{fill:#FFE6C7;}
	.st7{fill:#C69B7E;}
	.st8{fill:none;stroke:#684624;stroke-miterlimit:10;}
	.st9{fill:#C55640;}
	.st10{fill:#923E2C;}
	.st11{fill:#F9CEB2;}
	.st12{fill:#9E4C0B;}
	.st13{fill:#8C0C00;}
	.st14{fill:#FFFFFF;}
	.st15{opacity:0.6;fill:#B8A997;enable-background:new    ;}
	.st16{fill:#FF7858;}
	.st17{fill:#784F26;}
	.st18{fill:#231F20;}
	.st19{fill:#FFE9D1;}
	.st20{fill:#5F3C17;}
	.st21{fill:#432600;}
	.st22{fill:#A6703D;}
	.st23{fill:#913D2B;}
	.st24{fill:#DE8172;}
	.st25{fill:#382D27;}
</style>
<g id="faces">
	<g>
		<path class="st0" d="M225,505.1c0-0.9-0.3-2.2,0.1-3.1c0,0,0,0-0.1,0c-5.7-6.1-10.7-13-16-19.5c-5.3-6.3-11.1-11.6-16.5-17.6
			c-0.3,0-0.4,0.1-0.7,0.1c2.3,14,3.1,28.5,4,42.7c8.5,2.5,16,10.5,21.5,16.8c3.7,4.2,7,8.6,10.1,13.2c-0.9-7.2-1.3-14.5-1.8-21.7
			C225.4,512.6,225.1,508.9,225,505.1z"></path>
		<path class="st0" d="M237.7,501.9c1,4.8,0.9,10.4,0.7,15.5l0,0c0.3,0,0.3,0.4,0,0.6c0,0.9,0,1.6,0,2.5c0.1,5.7,0.1,11.4,0.1,17.1
			c1.3-4.8,4.4-9.7,6.7-13.9c4.1-7.3,8.9-15.2,16-20.2c-0.7-6.7-0.4-13.6-0.1-20.3c0.1-5.4-0.4-12.4,1.6-17.6
			c-0.1,0-0.3-0.1-0.4-0.1C253.5,477.1,246.4,490,237.7,501.9z"></path>
		<path class="st1" d="M252.5,477.9c3.1-4.2,6.3-8.5,9.5-12.6c-12-2.9-23.6-6.3-36-6c-11.6,0.1-22.2,2.9-33.2,5.7
			c4.8,2.6,9.1,7.2,12.9,11.7C220.9,472.9,237.4,473.2,252.5,477.9z"></path>
		<path class="st2" d="M237.3,501.7L237.3,501.7c4.5-8.2,9.7-16.2,15.2-23.9c-15.1-4.7-31.6-4.8-47-1.2c1.5,1.8,2.9,3.5,4.2,5.1
			c5.4,6.4,10.7,13,15.7,19.9c0.1,0.1,0,0.3-0.1,0.3c0.6,1,0.4,2.6,0.6,3.8c0.3,3.5,0.6,7,0.9,10.4c0,0.4,0.1,1,0.1,1.5
			c1.5-0.4,3.1-0.6,4.5-0.6c1.9-0.1,4-0.1,5.9,0.1C237.1,512.1,236.5,506.7,237.3,501.7L237.3,501.7z"></path>
		<path class="st3" d="M263.2,464.9c-22.4-9.2-49.2-8.9-71.4,0.1c-0.1-0.1-0.3,0-0.3,0.1c1.2,14.2,1,28.8,3.7,42.7
			c0,0.1,0.3,0.3,0.4,0.1c12.7,7.3,23.6,19.2,31.9,31.2c0.3,0.3,0.9,0,0.6-0.3l0,0c0.1-7-0.4-13.9-1-20.9c1.6-0.3,3.7,0,5.1,0
			c1.8,0,3.5,0,5.4,0c0,0.6,0,1,0,1.6c0.1,6.4,0.6,13,0.7,19.5c0,0.3,0.6,0.3,0.6,0v-0.1c2.5-4,4.2-8.6,6.4-12.9
			c4.4-8.2,9.5-16.2,16.5-22.4c0.1,0,0.3-0.1,0.3-0.3c-0.1-12.6,0.6-25.3,1.2-37.9C263.3,465.4,263.5,465,263.2,464.9z M227.3,537.9
			c-3.2-4.5-6.4-8.9-10.1-13.2c-5.7-6.4-13-14.5-21.5-16.8c-0.9-14.2-1.5-28.7-4-42.7c0.3,0,0.4-0.1,0.7-0.1
			c5.6,5.9,11.4,11.3,16.5,17.6c5.4,6.4,10.2,13.3,16,19.5c0,0,0,0,0.1,0c-0.3,0.9-0.1,2.2-0.1,3.1c0.1,3.7,0.4,7.5,0.6,11.1
			C226,523.5,226.6,530.7,227.3,537.9z M237.3,501.7L237.3,501.7L237.3,501.7c-0.9,5-0.3,10.4,0,15.5c-1.9-0.3-4-0.3-5.9-0.1
			c-1.5,0-3.1,0.1-4.5,0.6c0-0.4-0.1-1-0.1-1.5c-0.3-3.5-0.6-7-0.9-10.4c-0.1-1.2,0-2.6-0.6-3.8c0.1,0,0.1-0.1,0.1-0.3
			c-4.8-6.9-10.2-13.5-15.7-19.9c-4.8-5.7-10.4-13.2-17.1-16.8c11-2.8,21.8-5.6,33.2-5.7c12.4-0.3,24,3.1,36,6
			C253.1,476.7,244.3,489,237.3,501.7z M261.3,483c-0.3,6.7-0.6,13.6,0.1,20.3c-7,5-11.9,12.9-16,20.2c-2.3,4.2-5.4,9.1-6.7,13.9
			c-0.1-5.7,0-11.4-0.1-17.1c0-0.9,0-1.6,0-2.5c0.3,0,0.3-0.4,0-0.6l0,0c0-5.1,0.3-10.7-0.7-15.5c8.6-11.9,16-24.7,24.7-36.6
			c0.1,0,0.3,0.1,0.4,0.1C260.8,470.7,261.4,477.6,261.3,483z"></path>
	</g>
	<g>
		<path class="st4" d="M242.1,129.9c-0.9-5.9-1.9-11.7-2.8-17.7C240.2,118,241.1,124,242.1,129.9z"></path>
		<path class="st4" d="M349.2,180.4C349.2,180.5,349.2,180.5,349.2,180.4c0.6-3.1,1.2-6.3,1.9-9.5l0,0
			C350.5,174.1,349.8,177.2,349.2,180.4z"></path>
		<path class="st4" d="M353.5,158.9c-0.7,3.5-1.3,6.9-2,10.4l0,0C352,165.7,352.7,162.4,353.5,158.9z"></path>
		<g>
			<path class="st5" d="M352.9,170.7L352.9,170.7c0-0.1,0-0.3,0.1-0.4l-0.1-0.4c-0.3-22.4-5.1-43.8-13.8-62.6
				C318.2,61,274.7,28.9,219.7,28.9c-48.1,0-86.3,24-108.6,60.7c-12.6,20.8-20.2,45.7-21.5,72.6c-0.1,2.9-0.3,5.9-0.3,8.8l0,0
				c2.3,12.9,6.7,25.9,9.2,38.8c8.2,41.7,17,83.4,27.4,124.7c2.6,10.7,5.6,21.2,8.6,31.8l0,0l0,0c3.4,7,9.5,13,14.3,18.9
				c5.6,6.7,11,13.8,16.4,20.6c10.8,14,21.4,28.4,30.9,43.3c4.5,7,8.5,14.2,12.9,21.2c4.2,6.9,8.8,13.6,12.4,20.9
				c2,4,3.7,8,3.8,12.6c0,2-0.3,4.1,0.6,6c1.3,2.9,9.5,1.3,11.9,0.9c0.3,0,0.3-0.3,0.1-0.4l0.1-0.1c-0.7-8.5-0.7-9.7,0.7-14.8
				c1-3.7,2-7.2,3.4-10.8c2.8-8,6.1-15.8,9.8-23.4c7.5-15.7,16.4-30.4,26-44.9c8.3-12.7,17.4-25,26.9-36.7c5-6.1,10-13,16.1-18
				c0,0,0.1,0,0.1-0.1c8.6-63.1,20.2-125.8,32.2-188.3l-0.6-2.5C352.9,170.4,352.9,170.6,352.9,170.7z M350.7,182L350.7,182
				c0.6-3.4,1.3-6.4,1.9-9.7l0,0C351.9,175.5,351.3,178.8,350.7,182z"></path>
			<path class="st5" d="M346.2,160.3c-0.6,3.4-1.3,6.6-1.9,10l0,0C344.8,166.9,345.4,163.7,346.2,160.3z"></path>
		</g>
		<path class="st6" d="M114.4,94.8c0,0-19,190.2,39.5,292.7S148,386,148,386l-14.6-16.1l-43.9-199c0,0-3.4-27.8,19.6-76.1"></path>
		<path class="st7" d="M89.5,172.3c0,0-4.4-185.8,260.5-8.8c0,0,2.9-121.5-130.2-134.6C219.7,28.9,95.3,24.5,89.5,172.3z"></path>
		<path class="st6" d="M350,160.6c-18.1,61-26.9,143-38,205.5c2.6-3.1,5.6-5.9,8.6-8.2c3.2-33.8,9.7-67.5,15.5-100.8
			c4.5-26,11.7-60.3,16.7-86.3C351.6,170.7,351.3,160.9,350,160.6z"></path>
		<g>
			<path class="st8" d="M352.2,171.4L352.2,171.4c0-0.1,0-0.3,0.1-0.4l-0.1-0.4c-0.3-22.4-5.1-43.8-13.8-62.6
				C317.5,61.7,274,29.7,219,29.7c-48.1,0-86.3,24-108.6,60.7C97.8,111.2,90.2,136,88.9,163c-0.1,2.9-0.3,5.9-0.3,8.8H89
				c2.3,12.9,6.3,25.9,8.9,38.8c8.2,41.7,17,83.4,27.4,124.7c2.6,10.7,5.6,21.2,8.6,31.8l0,0l0,0c3.4,7,9.5,13,14.3,18.9
				c5.6,6.7,11,13.8,16.4,20.6c10.8,14,21.4,28.4,30.9,43.3c4.5,7,8.5,14.2,12.9,21.2c4.2,6.9,8.8,13.6,12.4,20.9
				c2,4,3.7,8,3.8,12.6c0,2-0.3,4.1,0.6,6c1.3,2.9,9.5,1.3,11.9,0.9c0.3,0,0.3-0.3,0.1-0.4l0.1-0.1c-0.7-8.5-0.7-9.7,0.7-14.8
				c1-3.7,2-7.2,3.4-10.8c2.8-8,6.1-15.8,9.8-23.4c7.5-15.7,16.4-30.4,26-44.9c8.3-12.7,17.4-25,26.9-36.7c5-6.1,10-13,16.1-18
				c0,0,0.1,0,0.1-0.1c8.6-63.1,20.2-125.8,32.2-188.3l-0.6-2.5C352.2,171.2,352.2,171.3,352.2,171.4z"></path>
		</g>
		<path class="st7" d="M179,423c5.1,6.9,10,13.9,14.8,21.1c8.5,12.9,16.5,26.2,24.4,39.4c3.4,5.7,6.7,12,7.9,18.7
			c0.4,2.6-0.1,5.7,0.1,8.2c0.3,2.6,9.2,1.3,11.4,1l0,0c0-5-1.2-9.1,0-14c1-4,2.2-8,3.5-11.9c2.6-7.6,5.9-15.2,9.4-22.5
			c3.2-6.6,6.6-13,10.1-19.3C233.2,448.6,201.7,439.4,179,423z"></path>
	</g>
	<g>
		<g>
			<path class="st9" d="M264.5,517.1c0-7,4.7-19.6-0.1-22.4c-4.7-2.8-18.7,11.3-18.7,11.3l-13,7.8l-13-7.8c0,0-14-14-18.7-11.3
				c-4.7,2.8-0.1,16.1-0.1,22.4c0,6.3-4.8,19.6-0.1,22.4c4.7,2.8,18.9-11.1,18.9-11.1l13.2-7.8l13.2,7.8c0,0,14.2,13.9,18.9,11.1
				C269.3,536.7,264.5,524.1,264.5,517.1z"></path>
			<g>
				<g>
					<path class="st10" d="M237.3,511.2l13-7.8c0,0,5-5,10-8.3c-6,2.5-14.5,11-14.5,11L237.3,511.2L237.3,511.2z"></path>
					<path class="st10" d="M205.2,537c-4.7-2.8,0.1-16.1,0.1-22.4c0-5.1-3.1-15.1-1.6-19.9c-1.2-0.3-2-0.3-2.8,0.1
						c-4.7,2.8-0.1,16.1-0.1,22.4c0,6.3-4.8,19.6-0.1,22.4c1.9,1.2,5.6-0.6,9.1-2.9C208,537.3,206.4,537.6,205.2,537z"></path>
					<path class="st10" d="M250.4,525.9l-13.2-7.8l-4.5,2.6l13,7.6c0,0,14.2,13.9,18.9,11.1c0.9-0.4,1.3-1.3,1.8-2.3
						C260.4,535.7,250.4,525.9,250.4,525.9z"></path>
				</g>
			</g>
		</g>
		<g>
			<path class="st9" d="M241.7,523.1c0,4.1-3.2,7.3-7.2,7.3h-3.7c-4,0-7.2-3.2-7.2-7.3v-11.7c0-4.1,3.2-7.3,7.2-7.3h3.7
				c4,0,7.2,3.2,7.2,7.3V523.1z"></path>
			<path class="st10" d="M239.2,527.8h-3.7c-4,0-7.2-3.2-7.2-7.3v-11.7c0-1.8,0.6-3.4,1.6-4.7c-3.5,0.4-6.1,3.5-6.1,7.3v11.7
				c0,4.1,3.2,7.3,7.2,7.3h3.7c2.2,0,4.2-1,5.6-2.6C239.8,527.8,239.5,527.8,239.2,527.8z"></path>
		</g>
		<g>
			<path class="st10" d="M257,512.8c-0.3,0-0.4-0.1-0.7-0.1s-0.7-0.1-1-0.1c-0.4,0-0.7-0.1-1.3-0.1c-0.4,0-0.9-0.1-1.5,0
				c-0.4,0-1,0-1.5,0c-0.4,0-1,0-1.6,0.1c-1,0.1-2,0.3-3.1,0.6c-1,0.3-1.9,0.4-2.6,0.7c-0.7,0.3-1.3,0.4-1.8,0.7
				c-0.1,0.1-0.4,0.1-0.4,0.3c-0.1,0-0.1,0.1-0.1,0.1l0.1,0.4l0.1,0.9c0,0,0.1,0,0.3,0c0.3,0,0.6-0.1,1-0.1s0.9-0.1,1.5-0.1
				s1,0,1.6,0s1.2,0.1,1.6,0.1c0.3,0,0.4,0.1,0.7,0.1c0.3,0.1,0.4,0.1,0.6,0.1c0.1,0.1,0.4,0.1,0.6,0.3c0.1,0,0.3,0.1,0.4,0.1
				c0.1,0.1,0.3,0.1,0.3,0.1s-0.1-0.1-0.3-0.3c-0.1-0.1-0.1-0.1-0.3-0.3c-0.1-0.1-0.3-0.1-0.4-0.3c-0.1-0.1-0.4-0.1-0.6-0.3
				c-0.3-0.1-0.4-0.1-0.7-0.3c-0.4-0.1-1-0.3-1.6-0.4c-0.6-0.1-1.2-0.1-1.6-0.3c-0.3,0-0.4,0-0.7,0c0.1,0,0.3-0.1,0.4-0.1
				c0.7-0.3,1.5-0.6,2.5-0.9c0.9-0.3,1.9-0.6,2.9-0.7c0.4-0.1,1-0.1,1.5-0.3c0.4-0.1,1-0.1,1.5-0.1s0.9,0,1.3,0c0.4,0,0.9,0,1.2,0
				c0.4,0,0.7,0,1,0C256.6,512.8,256.9,512.8,257,512.8c0.4,0.1,0.7,0.1,0.7,0.1S257.5,513,257,512.8z"></path>
			<path class="st10" d="M208.5,512.8c0.3,0,0.4-0.1,0.7-0.1s0.7-0.1,1-0.1c0.4,0,0.9-0.1,1.3-0.1c0.4,0,0.9-0.1,1.5,0
				c0.4,0,1,0,1.5,0c0.4,0,1,0,1.6,0.1c1,0.1,2,0.3,3.1,0.6c1,0.3,1.9,0.4,2.6,0.7c0.7,0.3,1.3,0.4,1.8,0.7c0.1,0.1,0.4,0.1,0.4,0.3
				c0.1,0,0.1,0.1,0.1,0.1l-0.1,0.4l-0.1,0.9c0,0-0.1,0-0.3,0c-0.3,0-0.6-0.1-1-0.1s-0.9-0.1-1.5-0.1s-1,0-1.6,0
				c-0.6,0-1.2,0.1-1.6,0.1c-0.3,0-0.4,0.1-0.7,0.1c-0.3,0.1-0.4,0.1-0.6,0.1c-0.1,0.1-0.4,0.1-0.6,0.3c-0.1,0-0.3,0.1-0.4,0.1
				c-0.1,0.1-0.3,0.1-0.3,0.1s0.1-0.1,0.3-0.3c0.1-0.1,0.1-0.1,0.3-0.3c0.1-0.1,0.3-0.1,0.4-0.3c0.1-0.1,0.4-0.1,0.6-0.3
				c0.3-0.1,0.4-0.1,0.7-0.3c0.6-0.1,1-0.3,1.6-0.4c0.6-0.1,1.2-0.1,1.6-0.3c0.3,0,0.4,0,0.7,0c-0.1,0-0.3-0.1-0.4-0.1
				c-0.7-0.3-1.5-0.6-2.5-0.9c-0.9-0.3-1.9-0.6-2.9-0.7c-0.4-0.1-1-0.1-1.5-0.3c-0.4-0.1-1-0.1-1.5-0.1s-0.9,0-1.3,0
				c-0.4,0-0.9,0-1.2,0c-0.4,0-0.7,0-1,0C208.9,512.8,208.6,512.8,208.5,512.8c-0.4,0.1-0.7,0.1-0.7,0.1S208,513,208.5,512.8z"></path>
		</g>
	</g>
</g>
<g id="mouths_1_">
	<path class="st11" d="M288.5,349.9c0.3,1.9,0.1,3.8-1.9,4.7c-1.5,1.6-3.8,2.9-7.5,3.6c-16.1,3.3-33.3,0.3-49.4-1.7
		c-8.4-1.1-16.3-1.6-24.7-0.3c-3.6,0.7-11,2.5-18.3,3.3c-2.3,0.4-4.6,0.7-7,1c-2.7,0.3-4.9,0-6.6-0.6c-3.3-0.3-6.1-1.4-7.6-3.7
		c-0.8,1.5-0.9,3.2,0.3,5.2c1.1,1.7,2.5,3,4.1,4.2c2.7,0.3,5.6,0.3,7.6,2.9c3,3.9,7.5,10.6,10.2,16c13.6,15.8,42.6,18.6,61.4,11.8
		c13.9-5,19.8-13.3,26.8-24.6c1.1-1.8,2.3-3.5,3.7-5C286.4,354.9,293.6,359.2,288.5,349.9z"></path>
	<path class="st12" d="M288.1,348.2c0.9,2.7,1.2,5.9-2.3,6.7c-1.4,0.3-2.9,0.5-4.3,0.7c-4.1,0.9-8.4,1.2-12.7,1.7
		c-8.9,1-17.9,0.8-26.9,0.7c-12.7-0.1-26-3.9-38.6-1.4c-1.1,0.1-2.3,0.1-3.5,0.2c-6.6,1.5-13.3,3-20.1,3.7c-2.7,0.3-4.9,0-6.6-0.6
		c-3.2-0.3-5.9-1.3-7.4-3.4c1.9,5.2,5.4,6.6,10.4,6.8c8.6,7.4,11.4,20,22.4,25.1c10.4,4.8,23.5,7.4,35.2,7
		c10.1-0.3,20.8-3.7,28.3-9.9c3.9-3.2,6-7.4,8-11.6c3.4-7.2,7.7-11.2,14.6-15.8c0.1-0.1,0.1-0.1,0.1-0.2c1-0.3,2-0.7,2.9-1.1
		c0.5,0,1-0.2,1.3-0.5l0.1-0.1l0,0c0.5-0.3,0.7-0.7,0.8-1.1C291,352.7,290.1,349.9,288.1,348.2z M267.4,372.9
		c-5.8,12.2-15.7,18.1-30.3,19.3c-11.6,1-24.8-1.7-35.5-5.6c-11.6-4.2-14.7-16.7-24.2-23.5c0.9,0,1.7-0.1,2.7-0.1
		c12.7-0.9,24.6-5.8,37.6-6.1c0.1,0,0.1-0.1,0.1-0.2c10,0.9,20.2,3.3,29.9,3.7c8.6,0.4,19.7,0.9,29.4-0.8
		C272.5,362.9,269.7,368.2,267.4,372.9z"></path>
	<path class="st13" d="M267.4,372.9c-5.8,12.2-15.7,18.1-30.3,19.3c-11.6,1-24.8-1.7-35.5-5.6c-11.6-4.2-14.7-16.7-24.2-23.5
		c0.9,0,1.7-0.1,2.7-0.1c12.7-0.9,24.6-5.8,37.6-6.1c0.1,0,0.1-0.1,0.1-0.2c10,0.9,20.2,3.3,29.9,3.7c8.6,0.4,19.7,0.9,29.4-0.8
		C272.5,362.9,269.7,368.2,267.4,372.9z"></path>
	<path class="st14" d="M264.3,367.4c1.9-2.1,3.5-4.5,5.1-6.9c-7.6,0.5-15.3,0.2-21.7-0.1c-9.6-0.5-19.9-2.8-29.9-3.7
		c0,0.1,0,0.1-0.1,0.2c-9.8,0.2-19,3.1-28.4,4.9c2.5,5,5.4,8.8,12.9,10.3c7.2,1.5,14.4,3.1,21.9,3.5c9,0.5,17.8-0.2,26.4-1.9
		C255.5,372.4,260.3,370.5,264.3,367.4z"></path>
	<path class="st15" d="M256.9,366.6c-1.1,2.7-2.8,5-5,6.8c4.5-1.4,8.8-3.2,12.4-6c1.9-2.1,3.5-4.5,5.1-6.9
		c-7.6,0.5-15.3,0.2-21.7-0.1c-9.6-0.5-19.9-2.8-29.9-3.7c0,0.1,0,0.1-0.1,0.2c-9.8,0.2-19,3.1-28.4,4.9c0.2,0.5,0.5,0.9,0.7,1.3
		c10-0.8,19.8-3.1,30.1-2.6c12,0.5,23.8,2.4,35.6,4C256.7,364.7,257.3,365.7,256.9,366.6z"></path>
	<path class="st16" d="M233.1,382.7c-11.4-1.2-20.5,0.5-29.5,4.6c10.4,3.5,22.6,5.8,33.6,4.9c5.3-0.5,9.9-1.5,13.9-3.3
		C245.7,385.8,239.9,383.4,233.1,382.7z"></path>
</g>
<g id="eyes">
	<g id="eyeRight">
		<g>
			<path class="st17" d="M260.7,225.4c2.3,3.5,4.2,6.6,8.3,8.8c4.1,2.2,8.8,3.7,13.6,3.8c10,0.3,18.9-4.1,21.1-14.3
				c-4.2,0.9-8.5,1.5-12.6,1.9c-3.5,8-18.6,10.1-21.4,0.6C266.7,226,263.8,225.9,260.7,225.4z"></path>
			<path class="st14" d="M282.6,238.9c-7.5-0.4-21.5-4.5-23-13.6c-4.1-0.6-8-1.3-12-2.3c1.2,10,3.8,19.9,8.5,28.8
				c10.5-1.9,21.2-2.5,31.8-1c9.1,1.2,17.7,3.8,26.5,6.6c5.1-13.8,9.7-27.7,11.9-42.1c-6.9,4.1-14.6,6.9-22.5,8.5
				C302.4,234.1,292.7,239.5,282.6,238.9z"></path>
			<path class="st18" d="M291,225.4c-0.9,0.1-1.9,0.1-2.8,0.3c-5.9,0.4-11.7,0.6-17.7,0.4C275.2,233.2,286.7,233.8,291,225.4z"></path>
			<path class="st7" d="M321.1,204.7c-12.3-9.1-27.1-14.8-42.7-11.6c-12,2.3-22.1,9.1-28.7,18.9
				C270.1,197.8,297.6,196.3,321.1,204.7z"></path>
			<path class="st19" d="M249.9,211.8c-2,2.9-3.7,6.3-5,9.8c4.8,1.2,9.8,2,14.8,2.8c0.1-0.1,0.3,0,0.4,0c9.4,1.2,18.7,1.3,28.1,0.6
				c14.5-1.2,30-4,42.1-12.6c-2.8-2.8-5.9-5.4-9.1-7.8C297.6,196.3,270.1,197.8,249.9,211.8z"></path>
			<path d="M330.8,212.1c-13.5-14.5-32.5-23.7-52.5-20.2c-15.5,2.8-29.3,14.2-33.7,29.6c-0.4-0.1-0.7-0.1-1.2-0.3
				c-0.3,0-0.3,0.3-0.1,0.4c1.3,0.4,2.8,0.9,4.2,1.2c0.6,10,3.4,20.3,8.5,29c-1.3,0.3-2.8,0.6-4.1,0.9c-0.3,0-0.3,0.6,0,0.4
				c11.7-1.5,23.1-2.9,34.8-1.6c9.4,1,18.4,3.4,27.5,6c-0.1,0.3,0.3,0.4,0.4,0.1l0,0c2.2,0.6,4.2,1.2,6.4,1.8l0,0
				c-2-0.6-4.2-1.3-6.3-2c6.6-12.9,10-28.1,11.4-42.3c1.3-0.9,2.6-1.6,4-2.6l0,0C330.6,212.7,330.9,212.4,330.8,212.1z M314.5,257.3
				c-8.6-2.8-17.4-5.4-26.5-6.6c-10.5-1.3-21.4-0.9-31.8,1c-4.7-8.9-7.5-18.9-8.5-28.8c4,1,7.9,1.9,12,2.3
				c1.5,9.1,15.4,13.2,23,13.6c10.1,0.6,19.6-5,21.2-15.4c7.9-1.6,15.7-4.4,22.5-8.5C324.2,229.7,319.7,243.6,314.5,257.3z
				 M291.1,225.4c4.2-0.4,8.5-1,12.6-1.9c-2.2,10.2-11.1,14.6-21.1,14.3c-4.7-0.1-9.4-1.6-13.6-3.8c-4.1-2.2-6-5.1-8.3-8.8
				c2.9,0.3,6,0.6,8.9,0.7C272.5,235.5,287.6,233.5,291.1,225.4z M270.5,226.2c6,0.1,12,0,17.7-0.4c0.9,0,1.9-0.1,2.8-0.3
				C286.7,233.8,275.2,233.2,270.5,226.2z M288.2,225c-9.4,0.7-18.7,0.6-28.1-0.6c-0.1-0.1-0.3-0.1-0.4,0c-5-0.6-10-1.6-14.8-2.8
				c5.6-14.9,18-25.5,33.7-28.7c19.6-4,38.2,6,51.8,19.5C318.2,220.9,302.7,223.8,288.2,225z"></path>
		</g>
	</g>
	<g id="eyeLeft">
		<g>
			<path class="st17" d="M181.4,223.7c-2.3,3.5-4.2,6.6-8.3,8.8c-4.1,2.2-8.8,3.7-13.6,3.8c-10,0.3-18.9-4.1-21.1-14.3
				c4.2,0.9,8.5,1.5,12.6,1.9c3.5,8,18.6,10.1,21.4,0.6C175.5,224.3,178.5,224.1,181.4,223.7z"></path>
			<path class="st14" d="M159.4,237.3c7.5-0.4,21.5-4.5,23-13.6c4.1-0.6,8-1.3,12-2.3c-1.2,10-3.8,19.9-8.5,28.8
				c-10.5-1.9-21.2-2.5-31.8-1c-9.1,1.2-17.7,3.8-26.5,6.6c-5.1-13.8-9.7-27.7-11.9-42.1c6.9,4.1,14.6,6.9,22.5,8.5
				C139.8,232.3,149.3,237.7,159.4,237.3z"></path>
			<path class="st18" d="M151.2,223.8c0.9,0.1,1.9,0.1,2.8,0.3c5.9,0.4,11.7,0.6,17.7,0.4C167,231.4,155.5,232,151.2,223.8z"></path>
			<path class="st7" d="M185.9,202.6c-6-5.7-13.6-9.7-22.2-11.3c-19.6-4-38.2,6-51.8,19.5c0,0,0.1,0,0.1,0.1
				C133.2,196.3,161.9,193.4,185.9,202.6z"></path>
			<path class="st19" d="M185.9,202.6c-23.9-9.2-52.7-6.3-73.9,8.2c12.1,8.5,27.5,11.3,42,12.4c9.4,0.7,18.7,0.6,28.1-0.6
				c0.1-0.1,0.3-0.1,0.4,0c5-0.6,10-1.6,14.8-2.8C194.8,213.2,190.9,207.3,185.9,202.6z"></path>
			<path d="M111.7,210.8L111.7,210.8c1.3,0.9,2.6,1.8,4,2.6c1.5,14.2,4.8,29.6,11.4,42.3c-2,0.7-4.2,1.3-6.3,2l0,0
				c2.2-0.6,4.2-1.2,6.4-1.8l0,0c0.1,0.3,0.6,0.1,0.4-0.1c9.1-2.5,18.3-5,27.5-6c11.7-1.2,23.3,0.3,34.8,1.6c0.3,0,0.3-0.4,0-0.4
				c-1.3-0.3-2.8-0.6-4.1-0.9c5.1-8.5,7.9-19,8.5-29c1.5-0.4,2.8-0.7,4.2-1.2c0.3-0.1,0.1-0.4-0.1-0.4c-0.4,0.1-0.7,0.1-1.2,0.3
				c-4.2-15.4-18-26.8-33.7-29.6c-20-3.5-39.1,5.6-52.5,20.2C111.1,210.7,111.6,211,111.7,210.8z M115.7,213.4
				c6.9,4.1,14.6,6.9,22.5,8.5c1.6,10.4,11.1,15.8,21.2,15.4c7.5-0.4,21.5-4.5,23-13.6c4.1-0.6,8-1.3,12-2.3
				c-1.2,10-3.8,19.9-8.5,28.8c-10.5-1.9-21.2-2.5-31.8-1c-9.1,1.2-17.7,3.8-26.5,6.6C122.6,241.8,117.9,227.9,115.7,213.4z
				 M172.5,224.4c2.9-0.1,6-0.3,8.9-0.7c-2.3,3.5-4.2,6.6-8.3,8.8c-4.1,2.2-8.8,3.7-13.6,3.8c-10,0.3-18.9-4.1-21.1-14.3
				c4.2,0.9,8.5,1.5,12.6,1.9C154.6,231.7,169.7,233.9,172.5,224.4z M151.2,223.8c0.9,0.1,1.9,0.1,2.8,0.3
				c5.9,0.4,11.7,0.6,17.7,0.4C167,231.4,155.5,232,151.2,223.8z M111.9,210.7c13.6-13.3,32.2-23.3,51.8-19.5
				c15.7,3.1,28.1,13.8,33.7,28.7c-4.8,1.2-9.8,2-14.8,2.8c-0.1-0.1-0.3,0-0.4,0c-9.4,1.2-18.7,1.3-28.1,0.6
				C139.5,222.1,124,219.3,111.9,210.7z"></path>
		</g>
	</g>
</g>
<g id="eyebrows">
	<g id="eyebrowsLeft">
		<g>
			<path class="st20" d="M108.7,187c15.1-2.9,30.1-5.4,45.2-8c7.8-1.3,15.5-2.6,23.1-4c3.8-0.6,7.8-1.6,11.6-1.8c0,0,0,0,0-0.1
				c0.1-0.7,0.3-1.3,0.4-2c0.1-1.9,0.3-3.7,0.6-5.6c-27.8,4.7-55.5,9.5-80.8,20C108.8,186.1,108.8,186.5,108.7,187z"></path>
			<path class="st17" d="M109.4,176.9L109.4,176.9c0.3,2.2,0,4.4-0.3,6.7c-0.1,0.6-0.1,1.5-0.1,2.2c25.3-10.5,53-15.5,80.8-20
				c1-9.4,2.9-18.4,5.6-27.5C170,157.1,139.1,166.9,109.4,176.9z"></path>
			<path class="st21" d="M205.4,142.6c-0.1,0.6-0.3,1-0.4,1.6l0,0c-0.1,0.6-0.3,1.2-0.4,1.6c-1,3.2-2,6.3-2.9,9.5
				c1.3-6,2.3-12,2.9-18.1c0-0.1-0.1-0.1-0.1,0c-0.6,3.5-1.3,6.9-2,10.2c0-0.1-0.1-0.1-0.3,0c-2.2,7.2-3.7,14.5-6.1,21.5
				c0.4-5.1,1.3-10.2,2.3-15.2c0.6-2.8,1.2-5.4,1.9-8.2c0.4-1.6,0.7-3.2,1.2-4.8c0,0.1,0-0.1,0.1-0.7s0.3-1,0.6-1.6v-0.1
				c0.1-0.3,0.3-0.7,0.4-1c0-0.1-0.1-0.4-0.3-0.3c-1,0.7-1,2.3-1.5,3.5c-0.1,0.6-0.3,1.2-0.6,1.8c-2.8,7-5.6,14.2-8.2,21.4
				c2.5-9.8,5.4-19.5,7.3-29.4c0-0.1-0.1-0.1-0.1,0c-2.5,9.8-5.4,19.6-8,29.4c1.5-8.8,2.6-17.4,4.7-26l0,0c0.1-0.1,0-0.4-0.1-0.3
				c-13.3,8.3-26.6,16.1-41,22.2c-14.6,6.3-29.9,11.4-44.9,16.8c-0.1-0.1-0.3-0.1-0.4,0c-0.3,2-0.4,4.1-0.7,6c0,0.6-0.1,1.2-0.3,1.9
				c-0.6-3.2-1.2-6.4-1.6-9.7c0-0.3-0.6-0.3-0.6,0.1c-0.1,3.4-1,7.2-0.7,10.7c-0.1-0.7-0.3-1.5-0.3-1.6c-0.3-2-0.4-4-0.9-6
				c-0.1-0.4-1-0.4-0.9,0.1c0.1,0.9,0.1,1.8,0.3,2.6l0,0c0,0,0,0-0.1,0.1l0,0l0,0l0,0l0,0c-0.3,2.2,0.4,4.5,0.9,6.6
				c0.1,0.6,1,0.4,0.9-0.1c-0.1-0.7-0.1-1.5-0.3-2.2c0.3,1.5,0.6,2.9,1,4.4c0,0.1,0.3,0.1,0.1,0c-0.3-4,0.3-8.2,0.6-12.1
				c0.6,2.6,1,5.1,1.6,7.8c0,0.7,0,1.3,0.3,1.8c0,0.1,0.1,0.1,0.1,0.1c14.9-1.8,29.9-4.8,44.6-7.5c11.9-2.2,24-3.7,35.7-6.4
				c0.1,0.3,0.7,0.4,0.9,0c2.8-7.9,5.9-15.8,8.6-23.9c-0.1,0.7-0.4,1.6-0.6,2.3c-1.6,7-2.9,14.2-3.1,21.4c0,0.7,0.9,0.7,1.2,0.1
				c1.3-3.7,2.3-7.5,3.4-11.3c-0.6,2.6-1.2,5.1-1.6,7.8c-0.1,0.6,0.7,0.7,0.9,0.3c1.3-5.4,2.8-10.7,4.4-16c-0.6,2.5-1,5.1-1.5,7.6
				c-0.1,0.4,0.6,0.6,0.7,0.1c1.8-5.4,2.3-11.1,3.7-16.5c0.3-0.4,0.4-0.7,0.3-1c0.1-0.6,0.3-1.2,0.4-1.8
				C206.3,142.3,205.5,142.2,205.4,142.6z M189.1,171.2c-0.1,0.7-0.3,1.3-0.4,2c0,0,0,0,0,0.1c-3.8,0.1-7.8,1-11.6,1.8
				c-7.8,1.3-15.5,2.6-23.1,4c-15.1,2.6-30.1,5.1-45.2,8c0.4-1,0.3-2.3,0.4-3.4c0.3-2.2,0.6-4.4,0.3-6.6l0,0
				c29.7-9.8,60.6-19.6,85.9-38.6C192.1,148.9,190,159.9,189.1,171.2z"></path>
		</g>
	</g>
	<g id="eyebrowsRight">
		<g>
			<path class="st17" d="M339.3,176.3L339.3,176.3c-28.8-9.7-59-19.2-83.6-37.8c2.8,9.4,4.7,18.9,5.7,28.7
				c25.8,3.8,52.7,5,77.9,11.3C339.1,177.7,339.3,177,339.3,176.3z"></path>
			<path class="st20" d="M339.3,178.6c-25.2-6.3-52.1-7.5-77.9-11.3c0.1,1.2,0.3,2.3,0.3,3.4c0.1,0.7,0.3,1.3,0.4,2c0,0,0,0,0,0.1
				c3.8,0.1,7.9,1,11.7,1.8c7.5,1.3,14.8,2.5,22.2,3.8c14.6,2.5,29.4,5,44,7.8c-0.4-1.2-0.4-2.8-0.4-4
				C339.4,181,339.3,179.8,339.3,178.6z"></path>
			<path class="st20" d="M345.6,180.4L345.6,180.4L345.6,180.4c0-0.1,0-0.1,0-0.1s0-0.1-0.1-0.1l0,0c0-0.9,0.1-1.6,0.3-2.5
				c0-0.6-0.7-0.6-0.9-0.1c-0.7,3.4-1.3,7.3-1.6,10.5c0.3-4.5-0.1-8.9-0.3-13.5c0-0.3-0.6-0.4-0.6-0.1c-0.4,3.2-1,6.3-1.6,9.4
				c-0.1-0.6-0.3-1.3-0.3-1.8c-0.3-1.9-0.4-4-0.7-5.9c0-0.1-0.3-0.1-0.4,0c-14.6-5.3-29.4-10.4-43.8-16.4c-14-6-27.1-13.6-39.9-21.7
				c-0.1-0.1-0.3,0.1-0.1,0.3l0,0c1.9,8.3,3.1,16.7,4.4,25.2c-2.5-9.5-5.4-18.9-7.8-28.4c0-0.1-0.3-0.1-0.1,0
				c1.8,9.5,4.5,18.9,7,28.4c-2.5-6.9-5.1-13.8-7.8-20.5v-0.1c-0.4-1.5-0.6-4.1-1.9-5.1c-0.1-0.1-0.4,0.1-0.3,0.3
				c0.1,0.3,0.3,0.7,0.4,1c0,0,0,0,0,0.1c0.1,0.3,0.1,0.6,0.3,0.9c0.4,1.6,0.7,3.2,1.2,4.7c0.7,2.8,1.3,5.6,1.9,8.2
				c1.2,5.1,1.9,10.4,2.5,15.7c-2.3-6.9-3.8-13.9-6-20.8c0-0.1-0.1-0.1-0.3,0c-0.7-3.4-1.5-6.6-2-10c0-0.1-0.1,0-0.1,0
				c0.6,6.3,1.8,12.3,3.1,18.4c-0.9-3.4-1.9-6.7-3.1-10.1c-0.1-0.6-0.3-1-0.4-1.6l0,0c-0.1-0.6-0.3-1-0.4-1.6
				c-0.1-0.4-0.7-0.3-0.7,0.1c0.1,0.6,0.3,1.2,0.6,1.8c-0.1,0.3,0,0.6,0.3,1c1.3,5.3,1.9,10.8,3.5,16c0.1,0.4,0.7,0.3,0.7-0.1
				c-0.6-2.6-1-5.3-1.6-7.9c1.6,5.3,3.1,10.7,4.4,16.1c0.1,0.6,0.9,0.3,0.9-0.3c-0.4-2.3-1-4.8-1.5-7.2c0.9,3.5,1.9,7,3.1,10.5
				c0.1,0.6,1.2,0.6,1.2-0.1c-0.3-6.7-1.5-13.5-2.9-20c-0.1-0.9-0.4-1.8-0.7-2.8c2.8,7.6,5.6,15.4,8.3,23c0.1,0.4,0.7,0.4,0.9,0
				c11.4,2.8,23.3,4.2,34.8,6.3c14.5,2.6,28.8,5.6,43.5,7.3c0.1,0,0.1-0.1,0.1-0.1c0.3-0.4,0.3-1.2,0.3-1.8c0.4-2.5,1-5,1.5-7.5
				c0.1,4,0.9,7.9,0.6,11.9c0,0.1,0.1,0.1,0.3,0c0.3-1.3,0.6-2.8,0.9-4.1c0,0.6-0.1,1.3-0.1,1.9c0,0.6,0.9,0.7,0.9,0.1
				C345.1,184.9,345.9,182.6,345.6,180.4L345.6,180.4z M296,178.2c-7.3-1.3-14.8-2.5-22.2-3.8c-3.8-0.6-7.8-1.6-11.7-1.8
				c0,0,0,0,0-0.1c-0.1-0.7-0.3-1.3-0.4-2c-0.9-10.8-2.8-21.7-6-32c24.6,18.6,54.7,28.1,83.6,37.6l0,0c-0.3,1.9,0,4,0.3,5.9
				c0.1,1.2,0,2.8,0.4,4C325.4,183.2,310.7,180.8,296,178.2z"></path>
		</g>
	</g>
</g>
<g id="hair">
	<g>
		<path class="st20" d="M344.1,146.3c0.4,4.4,1,8.9,1.6,13.6c0.4,4.7,1,9.2,1.5,13.6c0.4,4.4,0.9,8.3,1.2,11.9
			c0.6,5.9,0.9,10,1,11.3c13.3-21.4,18-54.4,3.1-76.1l-11.3,2.9L341,123c0,0,0.6,4.7,1.5,11.6C343.1,137.8,343.7,141.9,344.1,146.3z
			"></path>
		<path class="st21" d="M352.6,119.6c0-0.1-0.1-0.1-0.3,0v-0.1l-11.3,3.2l0.1,0.4l0.1,0.4l11.1-3.2c14.9,21.8,10.2,53.9-3.1,75.2
			c-0.1-1.2-0.4-5.4-1-11.3c-0.3-3.5-0.7-7.5-1.2-11.9c-0.4-4.4-1-8.9-1.5-13.6c-0.6-4.7-1-9.2-1.6-13.6c-0.6-4.4-1-8.3-1.5-11.9
			c-0.9-6.9-1.6-10.8-1.6-10.8s0.4,4,1,11c0.3,3.5,0.7,7.5,1.2,11.9c0.4,4.4,1,8.9,1.5,13.6c0.6,4.7,1,9.2,1.6,13.6
			c0.6,4.4,1,8.3,1.5,11.9c0.7,5.9,1.3,10,1.5,11.1c0,0.1-0.1,0.1-0.1,0.3c-0.1,0.1,0.1,0.4,0.3,0.3c7.9-11.1,11.6-24.7,12.6-38.2
			C363.1,145,361.2,129.7,352.6,119.6z"></path>
	</g>
	<g>
		<path class="st22" d="M91.7,196c-22-25.5-49.2-47.4-47.4-82.1C46,95.2,60.4,75,81.4,75.3c-4.4-1.8-9.1-2-13.9,0
			c-7.6,3.1-13.9,9.4-18.6,16.1c-9.2,13.8-12.6,30.4-7.9,46.5c8.9,30.1,35.6,50.9,59,69.9C98.1,203.4,95.5,199.3,91.7,196z"></path>
		<path class="st22" d="M425.8,108.7c-32.2-12.6-57.7-36.4-84.7-57.1c-13.8-10.5-28.2-20.5-44.2-27.5c-15.8-7-32.3-10.7-49.6-12
			c-32.3-2.6-66.6-1.3-97.9,8.3c-14.8,4.5-29.7,11-41,22C101.6,49,96.8,56.6,94,65.1C141.1,9.9,233.9,4,297.6,37.6
			c42,22,76.5,54.7,118.5,76.5c18.3,9.7,37.9,10.5,57.7,9.1c5.1-2.3,10.2-4.8,15.2-7.5C467.8,118.9,445.8,116.4,425.8,108.7z"></path>
		<path class="st20" d="M170.1,75.7c-29.1-7.3-54.7,9.1-72.9,32.8c-1.3,4,0.3,7,3.2,9.7c-0.6-1.2-1.2-2.2-1.8-3.4
			c-0.1,0-0.4-0.3-0.1-0.4C116.8,99.2,141,96.1,164,98.6c28.7,3.2,56.3,12.6,83.8,20.9c37.2,11.4,75.1,22.2,114.1,24.4
			c21.1,1.2,42.3,0.1,62.9-4.2c5-1,9.8-2.3,14.6-3.7C347,149.8,260.1,99,170.1,75.7z"></path>
		<path class="st17" d="M416.2,114.1c-42-22-76.5-54.7-118.5-76.5C234.1,3.9,141.3,9.7,94.2,65.1c-1.8,5.4-2.8,11.3-2.9,17.3
			c0,0.1-0.3,0.1-0.3,0l0,0c-2.8-3.1-6-5.4-9.5-6.9c-21.1-0.3-35.6,20-37.2,38.6c-1.8,34.7,25.5,56.5,47.4,82.1
			c3.8,3.2,6.4,7.3,8.5,11.9c0.6,0.4,1.2,1,1.8,1.5c9.2-21.5,12.4-44.5,6.9-67.6c-1.9-7.9-4.7-16.1-8.3-23.6
			c-3.1-2.8-4.5-5.7-3.2-9.7C115.5,85,141,68.6,170.1,75.9c90,23.4,177.1,74.2,269.4,60.3c11.9-3.4,23.3-7.8,34.4-12.9
			C454.1,124.5,434.5,123.7,416.2,114.1z"></path>
		<path class="st21" d="M490.4,114.7c-19.5,2-38.6,1.2-57.5-4.8c-16.7-5.3-31.9-14.3-46.1-24.3c-28.4-19.9-53.4-44.8-84.7-60.1
			c-29-14.3-61.5-16.2-93.2-14.9c-31,1.2-65.3,6.1-91.6,23.9c-16.1,11-26.5,27.9-26.3,47.7c-4.8-5.6-10.8-9.4-18.4-8.8
			C65.2,74,58.8,79,53.8,84.1c-11.7,12-17.4,29.3-15.4,45.8c2,16.8,11.9,31.6,22.7,44c11.9,13.6,26,25.6,40.7,36.1
			c0.1,0.1,0.3,0,0.4-0.1c10.4-19.9,12.6-43.2,8.2-65.1c-2-10.2-5.6-21.2-11.6-30c24-17.7,52.7-18.1,80.9-12.7
			c34.4,6.4,67.5,19,101.1,28.4c32.8,9.1,66.3,15.5,100.4,15.1c38-0.6,75.9-10.7,108.7-29.9c0.1,0,0.3,0,0.4-0.1
			C490.9,115.4,490.9,114.7,490.4,114.7z M424.7,139.7c-20.6,4.4-41.9,5.4-62.9,4.2c-39.1-2.2-76.8-13-114.1-24.4
			c-27.5-8.3-55.2-17.9-83.8-20.9c-23-2.5-47.1,0.6-65.4,15.8c-0.1,0.1,0,0.4,0.1,0.4c4.7,8.3,7.8,17.7,10.1,26.9
			c5.6,23,2.5,45.9-6.9,67.6c-23.9-19.5-51.7-40.5-60.9-71.4c-4.7-16.1-1.3-32.8,7.9-46.5c4.5-6.7,10.8-13,18.6-16.1
			c8.8-3.7,17.4,0.1,23.4,6.9l0,0c0,0.1,0.3,0.1,0.3,0c0.4-15.5,6-29.3,17.1-40.1c11.3-10.8,26.2-17.4,41-22
			c31.3-9.5,65.4-10.8,97.9-8.3c17.3,1.3,33.8,5,49.6,12c16,7,30.4,17,44.2,27.5c27.1,20.6,52.5,44.5,84.7,57.1
			c20,7.9,42,10.2,63.4,7C468.6,126.4,447.4,135,424.7,139.7z"></path>
	</g>
</g>
<g id="nose">
	<g>
		<path class="st23" d="M203.8,297.9c-0.3,3.1-0.4,6-0.4,9.1c2.9,5.3,8,8.8,14,8.8h11.6c5.6,0,10.5-3.1,13.5-7.8
			c0-4.4-0.1-8.8-0.3-13.2C232.7,304.8,214.2,308.1,203.8,297.9z"></path>
		<path class="st9" d="M242,294.8c-1.3-27.1-6.4-53.9-7.8-80.5c-2-3.2-5-5.4-8.8-5.4h-3.5c-4.1,0-7.2,1.8-9.2,4.7
			c1.3,28.4-6.7,56.2-8.8,84.3C214.2,308.1,232.7,304.8,242,294.8z"></path>
		<path class="st24" d="M237.9,230.3c0-5.7-1.2-11.7-3.7-16c1.6,31,8.2,61.9,8.2,93.7c1.9-2.9,2.9-6.6,2.9-10.4L237.9,230.3z"></path>
		<path class="st24" d="M212.5,213.6c-2.6,3.5-4,8.6-4,14.2l-7.8,69.8c0,3.4,0.9,6.6,2.3,9.4C203.9,275.6,214,245.1,212.5,213.6z"></path>
	</g>
</g>
<g id="accesorios">
	<path id="lentes" class="st18" d="M365.2,174.8c-27.9-10.8-72-11.1-103-4.2c-5.3,1.2-23.7,7.5-25.3,7.9c-4.2,1.3-8.5,2-12.6,2l0,0
		c-0.6,0-1.2,0-1.8,0s-1.2,0-1.8,0l0,0c-4.1-0.1-8.3-0.7-12.6-2c-1.6-0.4-20-6.9-25.3-7.9c-31-6.9-74.9-6.6-103,4.2
		c0.1,7.8-1.8,17.9,0,25.8c0.9,4,5.6,8.5,7.6,12.1c6.6,12,10.1,30.6,18.6,39.8c10.7,11.6,35.1,12.6,55,11.3
		c29.6-1.9,37.2-18,46.7-41.3c3.2-7.9,5.6-18.3,13-19.8l0,0c0.6-0.1,1.2-0.1,1.8-0.1s1.2,0,1.8,0.1l0,0c7.5,1.5,9.8,11.9,13,19.8
		c9.4,23.3,17,39.4,46.7,41.3c19.9,1.3,44.3,0.3,55-11.3c8.6-9.2,12.1-27.9,18.6-39.8c2-3.8,6.6-8.3,7.6-12.1
		C367.1,192.7,365,182.6,365.2,174.8z M199.2,222.2c-3.8,14.2-9.1,24.4-18.6,30c-14.3,8.5-49.5,9.2-63.5,0
		c-9.5-6.3-13.2-18-15.5-33.4c-1.6-10.1-2.8-24.4,1.3-31c7-11.4,37.6-11.7,55.9-10.4c17.4,1.3,39.2,5.9,42.6,17.9
		C203.8,203.8,201.1,215.3,199.2,222.2z M343.5,218.9c-2.3,15.2-6,27.1-15.5,33.4c-14,9.2-49.2,8.5-63.5,0
		c-9.5-5.7-14.8-15.8-18.6-30c-1.9-6.9-4.5-18.4-2.2-26.8c3.4-12,25.2-16.5,42.6-17.9c18.4-1.3,48.9-1,55.9,10.4
		C346.2,194.4,345,208.8,343.5,218.9z"></path>
	<g id="bigote">
		<g>
			<path class="st22" d="M162.6,356.6c9.2-15.7,17.4-38.9,32.8-46.1h-0.1c-7.2,1.9-13.8,5.9-18.9,11.3c-5.4,5.9-8.8,13.2-12.3,20.2
				c-6.6,13-14.8,25.5-30.6,26.6c-1.8,0.1-3.8,0.1-5.9,0C140.2,372.1,155.1,367.6,162.6,356.6z"></path>
			<path class="st20" d="M216.6,313c-0.6-0.3-1-0.6-1.6-0.9c-2.8-1.3-5.7-2.2-8.8-2.5c-3.2,18-6.4,34.5-1.6,52.4
				C217.2,349,222,329.7,216.6,313z"></path>
			<path class="st17" d="M206.2,309.6c-3.7-0.4-7.3,0-11,0.9c-15.4,7.2-23.6,30.3-32.8,46.1c-7.5,11.1-22.2,15.5-35.1,12.1
				c-7.2-0.4-14.8-2.9-15.8-10.1c0-0.1-0.1-0.1-0.3-0.3c0,0.1,0.1,0.1,0.3,0.3c0-0.4-0.1-0.9-0.1-1.3c-0.4-4.7,2.3-9.4,6.1-12.1
				c-11.9-1.3-18.4,13.2-17.6,23.4c0.1,2,0.6,3.8,1.2,5.7c5.1,3.7,11.4,6.1,17.4,7.9c27.4,7.3,52.8,0,76.5-12.7
				c3.4-2,6.4-4.7,9.2-7.5C199.8,344.2,203,327.6,206.2,309.6z"></path>
			<path class="st20" d="M228.5,331.3c0-0.1,0-0.1,0.1-0.1c-1.9-7.2-5.4-14.2-11.9-18.1c6.6,20.3-1.9,44.5-21.2,56.3
				c-23.7,12.7-49.2,20-76.5,12.7c-6-1.8-12.3-4.2-17.4-7.9c2.9,8.8,10.5,15.1,19.8,17.9c14.6,4.2,31.9,2.2,46.7-0.6
				c15.5-2.9,32-7.9,44.6-18.1C225.4,362.8,230.8,347.8,228.5,331.3z"></path>
			<path class="st25" d="M228.8,331.1c0-0.1-0.1-0.1-0.1-0.1c-2.8-11.9-10.5-20.9-23.1-22c-12-1-23.9,5.7-31.5,14.5
				c-11,12.7-13.2,31.5-28.5,40.8c-9.4,5.7-31.9,7-33.4-7c0.4-5,2.5-8.5,6.1-12.1c0.1-0.1,0-0.4-0.3-0.3l0,0
				c-7.6-1.8-13,4.2-16.1,10.7c-3.5,7.3-3.2,16,0.4,23.1c7.8,14.9,26.8,16.5,41.4,16.1c27.2-0.9,62.8-7.3,79.3-31.5
				C229.6,353.8,230.9,342.3,228.8,331.1z M212.4,373.3c-12.4,10.1-29,15.2-44.6,18.1c-14.6,2.8-32,4.8-46.7,0.6
				c-11.1-3.2-19.9-11.6-20.9-23.4c-0.9-10.1,5.7-24.7,17.6-23.4c-3.8,2.8-6.7,7.5-6.1,12.1c0.1,10.4,13.2,12,21.8,11.3
				c15.8-1.3,24-13.6,30.6-26.6c3.5-7,6.9-14.5,12.3-20.2c5.1-5.4,11.7-9.2,18.9-11.3c6.6-1.9,13.8-1.5,19.9,1.5
				c7.5,3.7,11.6,11.3,13.5,19l-0.1,0.1C230.8,347.8,225.4,362.8,212.4,373.3z"></path>
		</g>
		<g>
			<path class="st17" d="M339.4,345.2c3.2,2.3,5.7,6,6.1,10c0-1.5-0.1-2.9-0.7-4.1c0.6,1.2,0.7,2.6,0.7,4.1c0.1,0.7,0.1,1.5,0,2.2
				c0,2.8-1.2,5-2.8,6.7c-9.2,10.7-25.5,10.7-38,3.5c-20.8-13.9-23.6-54.1-52.1-58.1c-2.6,0.1-5.3,0.4-7.8,1.3
				c-7,19.5-1.2,42.9,16,56.6c25.5,16.4,54.7,31,83.8,12.7c6.9-5.1,10.1-11.1,11.7-17.6C355.2,353.7,349.3,344,339.4,345.2z"></path>
			<path class="st22" d="M304.8,367.4c12.7,7.3,29,7.3,38-3.5c-4.5,4.5-13.6,5.3-19.9,4.5c-15.8-1.9-23.6-14.3-30.1-27.7
				c-3.7-7.3-7.2-14.9-13.2-20.5c-5.1-4.8-11.6-8.5-18.4-10.1c-2.8-0.6-5.7-0.9-8.5-0.9C281.3,313.3,283.9,353.5,304.8,367.4z"></path>
			<path class="st20" d="M356.6,362.6c-1.8,6.6-5,12.4-11.7,17.6c-29.1,18.3-58.4,3.7-83.8-12.7c-17.1-13.8-23-37.2-16-56.6
				c-1.2,0.4-2.5,0.9-3.5,1.6c-7,4.1-10.8,11-12.7,18.6l0.1,0.1c-2.3,17,3.4,32.6,17.3,43c12.7,9.5,28.7,14.6,44.2,17.3
				c14.5,2.5,32.6,5.1,46.8,0c10.7-3.8,19.9-12.3,19.9-24.3C357.1,365.8,356.9,364.2,356.6,362.6z"></path>
			<path class="st25" d="M339.2,344.9C339.1,344.9,339.1,344.9,339.2,344.9c-0.3-0.1-0.4,0.1-0.3,0.3c3.7,3.7,5.7,7.2,6.1,12.1
				c-1.5,14.3-23.9,12.3-33.4,7c-15.2-8.5-18.1-28.2-28.5-40.8c-7.5-9.1-19.6-15.1-31.5-14.5c-12.6,0.6-20.5,10.4-23.1,22
				c-0.1,0-0.1,0-0.1,0.1c-2.8,14.5,0.9,28.2,11.3,38.8c10.4,10.7,25.2,16.4,39.2,20c23.1,6,75.7,14,78.7-21.4
				C358.5,358.5,351.5,342.1,339.2,344.9z M337.2,391.7c-14.2,5.1-32.3,2.5-46.8,0c-15.5-2.6-31.5-7.8-44.2-17.3
				c-13.9-10.4-19.8-26-17.3-43c0-0.1,0-0.1-0.1-0.1c1.9-7.6,5.7-14.6,12.7-18.6c6-3.5,13.2-3.7,19.8-2c6.9,1.6,13.3,5.3,18.4,10.1
				c6,5.6,9.5,13.2,13.2,20.5c6.6,13.3,14.3,25.8,30.1,27.7c8.6,1,22.4-0.6,22.7-11.1c0.4-4.8-2.3-9.5-6.1-12.1
				c11.7-1.3,17.6,12.3,17.6,22.1C357.1,379.4,347.9,387.9,337.2,391.7z"></path>
		</g>
	</g>
</g>
<desc>Created with Snap</desc><defs></defs></svg>
</g></svg>
		