<?xml version="1.0" encoding="utf-8"?>
<!-- Generator: Adobe Illustrator 19.0.0, SVG Export Plug-In . SVG Version: 6.00 Build 0)  -->
<svg version="1.1" id="Capa_1" xmlns="http://www.w3.org/2000/svg" xmlns:xlink="http://www.w3.org/1999/xlink" x="0px" y="0px"
	 viewBox="0 0 200 200" style="enable-background:new 0 0 200 200;" xml:space="preserve">
<style type="text/css">
	.st0{fill:#FFFFFF;}
</style>
<g id="XMLID_13_">
	<path id="XMLID_16_" class="st0" d="M178.1,106c-10.4-2.2-78.1-1.7-78.1-1.7s-67.6-0.5-78.1,1.7L2.6,95c0,0,18,57.3,97.4,57.3
		S197.4,95,197.4,95L178.1,106z"/>
	<path id="XMLID_15_" class="st0" d="M148.9,55.2C126.6,37,100,57.6,100,57.6S73.4,37,51.1,55.2S20.4,89.6,2.6,95
		c0,0,14.9,18,40,9.5c0,0,27.7-18,46.1-17.5c0,0,5.2,3,11.3,3c6.1,0,11.3-3,11.3-3c18.4-0.4,46.1,17.5,46.1,17.5
		c25.1,8.4,40-9.5,40-9.5C179.6,89.6,171.2,73.4,148.9,55.2z"/>
</g>
</svg>
