<?xml version="1.0" encoding="UTF-8" standalone="no"?>
<svg
   xmlns:dc="http://purl.org/dc/elements/1.1/"
   xmlns:cc="http://creativecommons.org/ns#"
   xmlns:rdf="http://www.w3.org/1999/02/22-rdf-syntax-ns#"
   xmlns:svg="http://www.w3.org/2000/svg"
   xmlns="http://www.w3.org/2000/svg"
   viewBox="0 0 765 990"
   height="990"
   fill="#ff0000"
   width="765"
   xml:space="preserve"
   version="1.1"
   id="svg2"><defs
     id="defs6"><clipPath
       id="clipPath16"
       clipPathUnits="userSpaceOnUse"><path
         id="path18"
         d="M 0,792 612,792 612,0 0,0 0,792 Z" /></clipPath></defs><g
     transform="matrix(1.25,0,0,-1.25,0,990)"
     id="coi"><g
       id="g12"><g
         clip-path="url(#clipPath16)"
         id="g14"><g
           transform="translate(332.167,110.6826)"
           id="g20"><path
             id="path22"
             style="fill-opacity:1;fill-rule:evenodd;stroke:none"
             d="M 0,0 C 5.443,2.375 10.396,-4.264 12.058,0 10.022,2.797 1.153,6.262 0,0 m 117.136,-29.283 c -2.603,23.81 -28.601,24.224 -43.065,36.174 2.068,-17.577 40.947,-12.936 43.065,-36.174 M 12.058,10.336 C 11.545,-11.91 59.42,-16.24 65.459,3.445 c -2.58,2.59 -3.083,7.254 -6.892,8.614 2.474,-5.241 1.759,-11.75 -3.445,-13.78 -18.748,-5.558 -37.217,1.014 -39.619,17.225 -0.157,-2.715 -4.394,-1.35 -3.445,-5.168 M -37.897,-49.953 C -47.318,-13.15 -7.873,-12.922 0,12.059 -0.386,13.396 -0.047,15.457 -1.723,15.504 -13.705,-4.74 -51.479,-15.383 -37.897,-49.953 M 70.626,8.613 C 75.26,14.508 69.77,21.783 65.459,24.117 50.66,7.092 -0.651,41.354 5.168,15.504 c 15.491,7.887 42.354,-6.418 65.458,1.723 2.235,-4.272 -3.844,-8.36 0,-8.614 M -13.781,6.891 c 2.593,6.593 7.851,10.523 10.336,17.226 -2.276,0.02 -1.575,3.02 -3.446,3.446 -2.896,-5.196 -10.875,-14.319 -6.89,-20.672 M 1.723,25.84 c 0.56,4.033 7.514,1.672 8.612,5.166 -5.407,-0.813 -4.55,4.639 -8.612,5.17 -2.423,-2.25 -6.193,-9.117 0,-10.336 m 56.844,0 c 6.799,3.183 -2.629,5.037 0,13.781 -15.616,-9.685 -29.415,1.178 -41.341,1.723 6.887,-1.77 2.397,-11.127 -1.723,-12.059 13.591,6.442 27.805,-0.974 43.064,1.721 0.68,-2.963 -2.556,-4.414 0,-5.166 m -89.574,10.336 c 5.628,-4.709 5.153,-15.52 13.78,-17.227 2.065,10.569 13.373,11.891 15.504,22.395 -5.662,15.017 -28.312,11.463 -29.284,-5.168 M 62.014,32.729 C 77.032,30.939 80.403,49.908 82.684,55.123 78.074,45.379 68.576,40.521 62.014,32.729 M -13.781,56.846 C -3.852,56.416 1.287,36.33 15.503,34.453 7.463,43.637 0.892,54.293 -13.781,56.846 m 82.684,-13.78 c 7.446,6.719 6.351,27.112 0,34.452 -3.078,-9.668 -8.665,-27.651 0,-34.452 M 13.78,74.072 c 1.985,2.035 1.95,6.088 1.723,10.336 C 9.551,83.775 4.196,93.629 1.723,86.131 12.401,88.77 10.768,79.096 13.78,74.072 m -3.445,-5.168 c 1.85,-8.486 7.429,-13.242 8.614,-22.394 15.294,-5.947 24.861,-8.057 41.342,-1.721 0.29,8.895 -1.066,19.44 1.723,25.838 -8.868,-0.254 -8.308,8.92 -10.337,15.504 C 32.004,101.033 21.891,77.48 10.335,68.904 M -46.51,65.459 c 6.201,-3.561 12.444,-7.078 15.503,-13.781 C -21.42,72.434 4.486,55.828 13.78,46.51 7.743,64.59 0.421,81.383 -12.058,93.02 -7.951,68.688 -28.983,62.688 -46.51,65.459 M -29.284,25.84 c -6.136,6.494 -7.043,18.221 -8.613,29.283 -14.937,3.857 -21.307,24.051 -18.949,39.619 -22.869,-24.478 3.313,-66.736 27.562,-68.902 m -8.613,43.064 c 19.874,-0.759 15.936,38.11 -1.722,31.006 11.474,-3.203 10.639,-25.824 1.722,-31.006 m 110.246,20.67 c -0.413,5.123 4.449,13.772 1.722,15.504 -1.944,-4.939 -8.472,-11.539 -1.722,-15.504 M -18.949,77.518 c 7.13,10.13 -0.256,29.117 -10.335,25.837 9.763,-2.296 6.979,-17.136 10.335,-25.837 m 99.911,32.728 c 3.764,1.688 -0.233,9.942 -1.723,12.059 2.77,-5.676 -5.992,-12.19 1.723,-12.059 m -20.671,1.723 c -10.868,22.895 -47.878,18.549 -60.291,0 -5.264,1.244 -6.279,-1.76 -10.335,-1.723 -1.654,-10.267 3.195,-14.029 6.89,-18.949 8.714,4.771 15.137,-1.68 22.394,-3.443 8.991,8.31 29.294,9.24 37.896,0 5.433,3.751 2.916,15.459 3.446,24.115 M -108.523,96.465 c -39.332,2.588 -68.297,24.721 -91.297,37.897 20.229,-21.69 50.962,-42.053 91.297,-37.897 m 10.335,37.897 c 4.796,0.774 -1.35,-9.389 3.446,-8.612 -3.469,8.841 6.623,19.86 0,20.671 0.174,-5.344 -2.106,-8.231 -3.446,-12.059 m 187.762,3.444 c 3.294,2.896 4.681,9.886 0,12.058 1.487,-4.705 -2.572,-17.135 0,-12.058 m -101.632,8.615 c -29.747,23.769 -70.073,-19.96 -41.341,-49.956 6.486,12.435 26.391,17.219 37.895,6.89 -2.424,15.057 14.654,10.614 18.949,18.95 -11.19,5.316 -7.958,18.087 -15.503,24.116 m -192.93,-1.725 c 20.58,-12.721 47.255,-34.897 75.794,-41.341 8.43,-1.902 26.883,-5.623 34.452,3.446 -40.998,3.459 -78.46,23.156 -106.801,44.786 l -3.445,0 c 0.156,-4.699 -2.868,-3.467 0,-6.891 m 361.743,-12.055 c -15.706,-17.319 -40.858,-22.832 -60.289,-36.176 30.04,13.025 64.237,21.892 75.792,53.399 -0.362,1.934 -1.91,2.682 -3.445,3.446 -3.135,-7.616 -7.077,-15.18 -12.058,-20.669 m -74.071,1.721 c 2.185,5.471 6.792,16.571 -1.722,18.948 -1.288,-4.352 -4.632,-17.454 1.722,-18.948 M 58.567,153.31 c -12.976,-21.462 9.318,-39.927 6.892,-56.845 10.798,14.99 17.383,51.573 -6.892,56.845 m 31.007,-48.232 c 30.806,3.815 69.083,23.789 74.072,53.4 l -6.891,0 c -5.371,-34.824 -41.107,-39.279 -67.181,-53.4 m -192.929,27.563 c -9.618,4.735 -10.81,17.899 -17.226,25.837 -0.609,-13.838 10.37,-25.198 17.226,-25.837 m 1.722,5.165 c -2.622,8.863 -4.224,18.744 -12.058,22.394 1.152,-10.332 5.476,-17.492 12.058,-22.394 M 141.251,160.2 c -7.15,-27.301 -38.862,-30.04 -55.122,-48.231 26.201,6.586 63.32,17.025 67.182,51.677 -6.302,1.132 -6.609,-3.729 -12.06,-3.446 M -10.335,149.864 c 8.935,-4.845 6.941,-20.618 17.226,-24.114 5.532,2.869 34.574,13.601 44.786,1.723 -1.724,7.294 -3.058,18.835 0,25.837 -15.506,14.644 -48.252,10.367 -62.012,-3.446 m 75.794,8.614 c -3.035,1.558 -2.848,6.339 -6.892,6.89 -2.454,-6.062 4.831,-11.027 6.892,-6.89 M -46.51,153.31 c 5.34,-0.172 8.23,2.107 12.058,3.445 -0.763,3.256 2.343,10.381 -3.445,8.613 -2.359,-4.533 -7.251,-6.529 -8.613,-12.058 M -70.625,67.182 c -1.639,15.992 6.539,22.17 10.334,32.728 -13.162,19.799 -2.533,45.888 6.892,62.013 -42.047,7.566 -47.908,-72.964 -17.226,-94.741 m -49.956,60.291 c -26.049,3.298 -29.377,52.768 -60.29,34.45 15.818,-13.531 44.223,-32.63 60.29,-34.45 m 206.71,-5.168 c 12.383,11.434 33.26,22.63 29.284,44.786 -10.206,5.084 -15.804,-4.826 -20.671,-10.336 8.002,-16.779 -8.265,-26.755 -8.613,-34.45 M -17.227,153.31 c 7.028,2.736 15.521,4.003 13.782,15.503 -11.846,1.938 -16.451,-8.128 -13.782,-15.503 m -182.593,12.058 c 17.927,-29.805 60.12,-53.47 101.632,-48.231 -45.754,4.773 -71.416,29.641 -98.187,53.399 -0.836,-2.037 -1.837,-3.904 -3.445,-5.168 m 272.169,-8.613 c -0.331,7.707 -4.409,11.67 -8.613,15.504 1.349,-6.692 4.823,-11.256 8.613,-15.504 M -86.13,155.032 c 2.91,3.483 8.65,13.071 5.169,17.227 -1.506,-4.887 -8.789,-12.932 -5.169,-17.227 m -6.89,0 c 0.249,5.578 7.579,12.979 3.446,17.227 0.655,-6.483 -8.182,-12.377 -3.446,-17.227 m 199.821,-24.114 c 11.768,11.196 32.359,13.575 29.283,39.618 -4.084,3.149 -9.962,4.494 -15.503,1.723 4.377,-16.412 -9.841,-33.735 -13.78,-41.341 m -65.459,32.728 c 6.512,-0.379 8.366,-5.415 13.78,-6.891 -0.823,9.512 -6.434,14.236 -13.78,17.226 -3.216,-3.064 1.399,-4.378 0,-10.335 m -118.859,-6.891 c 2.305,4.65 12.619,10.262 6.892,17.226 -2.744,-4.214 -9.414,-13.466 -6.892,-17.226 M 0,163.646 c 3.436,-1.299 14.84,1.671 18.949,5.167 -3.603,9.706 -20.384,8.243 -18.949,-5.167 m -156.756,8.613 c 10.241,-19.049 26.315,-41.433 48.233,-43.064 -20.806,8.415 -13.095,60.025 -48.233,43.064 m 179.149,-5.168 c 6.253,2.097 13.599,-3.444 15.503,0 -0.859,2.748 -6.292,9.217 -13.781,10.336 -3.607,-4.207 -2.461,-3.672 -1.722,-10.336 m -53.4,-5.168 c 5.419,-0.861 6.734,3.756 10.335,0 -0.723,7.039 5.672,6.963 3.445,15.504 -9.144,-0.617 -12.923,-6.598 -13.78,-15.504 m 91.298,8.613 c -4.553,4.635 -5.722,12.652 -13.781,13.779 -0.824,-8.914 8.969,-16.224 13.781,-13.779 m -101.633,-3.445 c 6.477,0.408 17.988,12.236 8.613,17.224 -4.332,-3.189 -12.921,-11.117 -8.613,-17.224 m 29.284,5.168 c 9.09,0.845 17.634,0.637 13.781,13.779 -9.758,0.572 -14.352,-4.021 -13.781,-13.779 m 39.62,15.502 c 1.69,-8.367 7.29,-12.973 15.502,-10.334 -0.562,7.539 -8.417,14.814 -15.502,10.334 M 6.891,179.147 c 9.862,-1.019 13.025,-1.718 18.948,3.446 -2.073,7.9 -21.892,11.332 -18.948,-3.446 m -60.29,-8.611 c 5.208,2.199 17.79,13.652 8.612,18.949 -2.982,-5.109 -12.375,-12.822 -8.612,-18.949 m 117.135,6.891 c -0.407,7.631 -3.776,12.299 -10.337,13.781 1.543,-6.496 4.763,-11.316 10.337,-13.781 m -127.472,-3.446 c 3.658,4.434 14.623,10.571 8.613,18.95 -2.982,-5.112 -12.375,-12.823 -8.613,-18.95 m 37.898,6.889 c 9.532,1.012 16.266,-0.158 15.503,13.781 -10.135,0.373 -13.224,-6.298 -15.503,-13.781 m -56.846,12.061 c 3.224,4.367 -10.075,-10.969 -5.168,-13.784 1.51,4.807 4.123,8.51 5.168,13.784 m 10.335,-15.504 c 5.011,3.078 10.729,14.465 8.613,18.947 -3.108,-4.982 -11.794,-13.4 -8.613,-18.947 m -10.335,1.72 c 6.26,1.264 11.678,12.36 8.613,17.227 -1.966,-6.646 -7.423,-9.801 -8.613,-17.227 m 151.587,6.891 c -2.642,4.248 -4.974,8.807 -8.612,12.059 -0.097,-5.922 6.015,-14.541 8.612,-12.059 m -18.948,3.447 c -3.734,3.221 -8.404,14.475 -15.503,8.612 1.862,-5.094 8.829,-14.049 15.503,-8.612 m -55.123,0 c 8.554,-0.515 14.823,1.252 17.226,6.889 -3.551,8.59 -19.703,5.148 -17.226,-6.889 m 20.671,12.057 c 0.165,-9.787 10.681,-12.391 17.226,-6.891 -3.449,5.157 -9.278,11.231 -17.226,6.891 m -51.678,-15.504 c 6.295,2.291 17.237,6.068 12.06,17.227 -6.685,-1.977 -14.657,-11.694 -12.06,-17.227 m 91.297,10.336 c -1.015,7.023 -5.035,11.043 -12.058,12.059 0.601,-7.438 4.622,-11.457 12.058,-12.059 M -46.51,191.208 c 4.774,3.316 16.207,8.986 10.335,17.225 -3.997,-4.092 -15.228,-9.967 -10.335,-17.225 m 27.561,6.889 c 9.414,1.131 15.488,0.619 17.226,12.058 -11.121,1.36 -15.165,-4.359 -17.226,-12.058 m -39.619,-1.723 c 8.219,1.543 12.588,6.934 13.781,15.504 -8.08,-1.684 -10.386,-9.139 -13.781,-15.504 m 96.464,8.613 c 0.316,6.705 -9.896,11.823 -15.503,6.891 2.621,-5.594 8.636,-10.443 15.503,-6.891 m 22.395,-1.722 c -1.301,6.164 -3.986,10.945 -10.336,12.058 0.178,-7.285 4.638,-10.293 10.336,-12.058 m -58.568,1.722 c 9.712,-0.867 12.606,-1.3 18.949,3.446 -3.475,8.269 -19.499,9.199 -18.949,-3.446 m -68.905,-5.168 c 7.008,0.518 13.554,10.487 10.336,15.504 -3.149,-5.465 -9.022,-8.203 -10.336,-15.504 m -8.612,1.723 c 5.618,1.904 13.188,10.85 10.335,15.504 -3.545,-5.067 -7.789,-9.436 -10.335,-15.504 m -5.167,1.723 c -3.106,-4.016 10.379,11.888 6.89,13.781 -2.539,-4.352 -6.085,-7.695 -6.89,-13.781 m 53.4,1.722 c 5.982,3.205 15.436,2.94 13.78,13.782 -7.949,-0.143 -17.787,-7.407 -13.78,-13.782 m 18.949,8.614 c 1.458,5.048 5.546,-1.03 8.612,0 3.25,3.453 -2.114,8.007 -6.891,8.613 0.034,-2.578 -6.399,-7.045 -1.721,-8.613 m 53.399,0 c -0.584,5.806 -8.91,12.808 -13.78,8.613 2.553,-4.912 5.017,-9.912 13.78,-8.613 m -84.406,-1.723 c 8.644,-1.123 16.667,7.371 12.058,13.779 -4.502,-4.111 -11.906,-5.318 -12.058,-13.779 m 51.677,13.779 c 0.334,-9.054 7.962,-9.205 15.504,-6.888 -1.227,8.162 -8.705,8.466 -15.504,6.888 m -60.29,-10.334 c 4.664,2.858 16.063,7.973 10.335,15.504 -3.689,-3.834 -14.43,-9.609 -10.335,-15.504 m 99.909,5.168 c -1.284,6.754 -6.811,9.266 -12.058,12.059 0.601,-7.438 4.622,-11.457 12.058,-12.059 m -72.349,1.723 c 7.458,-1.285 16.679,4.476 6.891,10.336 -1.502,-4.24 -7.627,-3.858 -6.891,-10.336 m -36.174,-3.445 c 4.381,3.658 8.957,7.121 10.336,13.781 -5.828,-1.129 -13.735,-9.147 -10.336,-13.781 m -10.336,3.445 c 6.018,0.937 13.041,9.838 10.336,13.781 -3.294,-4.746 -7.041,-9.037 -10.336,-13.781 m 124.027,5.166 c -0.606,5.711 -5.159,7.473 -8.613,10.338 -0.193,-6.512 3.372,-9.264 8.613,-10.338 m -20.67,1.723 c -3.657,4.556 -9.132,9.949 -15.503,6.892 -1.138,-9.947 13.68,-9.385 15.503,-6.892 m -29.284,0 c 5.268,-1.249 5.067,2.972 10.335,1.724 -0.062,5.68 -4.9,6.584 -10.335,6.891 -3.234,-3.287 1.022,-3.117 0,-8.615 m -37.898,0 c 9.106,-2.149 17.068,5.812 12.058,12.058 -3.67,-4.367 -11.684,-4.392 -12.058,-12.058 m 74.071,8.615 c -1.996,3.269 -9.023,10.365 -13.78,5.166 1.996,-3.27 9.023,-10.365 13.78,-5.166 m -84.406,-3.446 c 8.967,0.221 13.637,4.737 15.504,12.057 -7.963,-1.225 -11.395,-6.978 -15.504,-12.057 m 51.677,12.057 c 0.39,-8.478 10.868,-7.176 15.504,-3.445 -1.93,4.263 -10.594,7.494 -15.504,3.445 m -60.29,-8.611 c 7.041,1.57 11.945,5.279 13.78,12.056 -6.938,-1.673 -9.698,-7.525 -13.78,-12.056 m 99.91,5.166 c -4.027,2.863 -4.161,9.619 -12.059,8.613 -0.247,-6.074 9.424,-11.133 12.059,-8.613 m -106.801,-1.723 c 5.08,1.313 13.689,8.031 10.336,12.059 -2.381,-5.084 -7.956,-6.975 -10.336,-12.059 m 111.968,5.168 c -1.106,5.211 -2.691,9.943 -8.612,10.336 0.606,-5.709 5.159,-7.473 8.612,-10.336 m -20.67,5.168 c -2.587,2.678 -10.595,8.797 -15.503,3.445 3.086,-5.779 9.6,-8.443 15.503,-3.445 m -25.84,-1.723 c 0.32,2.551 4.164,1.58 6.891,1.723 0.247,5.414 -4.417,5.918 -8.612,6.891 -2.731,-2.578 -1.269,-7.045 1.721,-8.614 m 32.73,8.614 c -3.7,2.615 -5.149,7.486 -12.058,6.89 -1.956,-7.224 8.401,-10.99 12.058,-6.89 m -79.239,-3.446 c 6.165,1.301 10.944,3.985 12.059,10.336 -5.345,-2.121 -11.139,-3.791 -12.059,-10.336 m 63.736,8.614 c -2.776,3.539 -8.637,3.996 -15.504,3.445 -1.227,-10.096 11.567,-6.479 15.504,-3.445 m 22.393,-1.723 c -0.393,5.922 -5.126,7.506 -10.336,8.613 1.074,-5.242 3.826,-8.806 10.336,-8.613 m -94.742,-3.445 c 5.271,1.683 14.912,7.968 12.058,12.058 -4.172,-3.865 -9.171,-6.906 -12.058,-12.058 m 101.632,8.613 c -2.449,1.158 -5.318,10.537 -8.612,5.168 3.826,0.217 4.666,-11.191 8.612,-5.168 m -34.45,5.168 c 0.823,-3.33 11.455,-5.588 13.78,-1.723 -1.952,2.043 -12.175,10.373 -13.78,1.723 m 51.677,-49.955 c 6.958,17.803 41.433,27.299 49.955,41.342 0.378,0.623 5.704,17.855 1.722,10.336 -7.549,-25.758 -53.004,-22.786 -51.677,-51.678 m -29.285,53.4 c -5.001,1.315 -4.468,8.162 -12.057,6.891 -2.459,-7.727 11.193,-8.197 12.057,-6.891 m 5.168,3.446 c 0.124,5.865 -5.066,6.416 -8.613,8.611 0.761,-4.981 3.632,-7.852 8.613,-8.611 m -12.057,8.611 c -4.139,1.606 -4.561,6.924 -12.06,5.168 -0.662,-9.115 9.614,-6.692 12.06,-5.168 m 6.889,3.446 c -0.228,5.513 -3.905,7.578 -10.335,6.891 -0.483,-6.223 7.545,-3.94 10.335,-6.891 M 72.349,260.11 c 8.616,6.68 7.78,18.301 13.78,13.782 1.892,9.05 13.089,17.875 8.613,27.561 C 89.548,286.539 74.949,271.88 72.349,260.11 m 34.452,43.065 C 98.744,297.196 93.674,279.899 93.02,272.169 88.063,268.802 67.935,257.28 70.626,246.329 c 5.159,7.475 12.581,12.684 20.671,17.227 1.646,3.209 -5.159,5.756 0,6.89 0.195,-2.101 0.515,-4.078 3.445,-3.445 0.089,7.377 17.228,19.712 12.059,36.174 m -55.124,-6.889 c -2.476,2.69 -4.339,5.995 -8.613,6.889 -0.005,-4.162 6.032,-11.011 8.613,-6.889 m 62.013,-31.008 c 2.679,6.123 -5.85,1.039 -5.167,5.168 6.665,1.151 6.128,0.004 10.335,1.723 3.257,11.437 7.476,30.651 -6.89,32.729 4.089,-42.385 -32.022,-44.54 -41.342,-68.903 9.694,14.42 29.258,18.973 43.064,29.283 m -86.128,39.62 c 1.196,-1.35 9.612,-3.834 10.334,0 -2.25,2.421 -9.117,6.192 -10.334,0 m 18.948,1.723 c -0.323,4.844 -2.996,7.337 -8.614,6.89 -0.247,-5.416 4.418,-5.918 8.614,-6.89 m 8.612,5.168 c -3.318,0.699 -1.36,6.677 -6.89,5.167 -0.831,-3.9 4.319,-10.341 6.89,-5.167 m 6.892,12.058 c -3.438,1.731 -2.72,7.617 -8.615,6.889 -0.685,-4.841 7.332,-9.711 8.615,-6.889 m 6.889,12.057 c -0.116,5.051 -3.937,6.398 -6.889,8.613 -0.451,-5.615 2.044,-8.291 6.889,-8.613 m 15.503,0 c 0.358,4.951 -0.437,8.752 -3.444,10.336 1.042,-3.551 -2.78,-11.967 3.444,-10.336 M 3.445,260.11 c 7.127,15.746 -1.799,29.612 0,43.065 2.042,15.272 25.465,34.451 3.446,46.51 9.993,-33.278 -22.493,-63.044 -3.446,-89.575 M 1.723,246.329 c -24.22,31.76 13.565,73.863 -3.446,106.801 -6.232,-34.693 -22.753,-81.297 3.446,-106.801 m 58.568,103.356 c 2.263,-1.756 6.35,-1.688 8.612,-3.445 -0.012,5.155 -3.097,7.239 -6.889,8.613 0.073,-2.371 -0.812,-3.782 -1.723,-5.168 M 25.839,310.066 c 11.155,6.265 12.515,39.26 0,44.787 7.283,-12.699 -2.742,-32.674 0,-44.787 m 51.678,37.896 c 0.549,3.995 -0.278,6.614 -1.723,8.614 l -5.168,0 c 0.014,-5.156 3.097,-7.24 6.891,-8.614 M 20.672,334.181 c -0.117,-18.91 -25.303,-35.642 -6.892,-51.676 8.292,3.341 4.104,12.281 5.169,24.116 2.014,22.408 12.568,46.793 -5.169,53.399 -0.226,-12.302 6.955,-15.579 6.892,-25.839 m -36.176,-89.575 c 5.043,-10.431 14.096,-21.775 20.672,-20.669 -26.426,31.953 -25.088,88.592 -10.336,132.639 -0.386,1.336 -0.047,3.397 -1.723,3.444 -25.152,-23.39 -22.687,-86.294 -8.613,-115.414 m 86.13,118.86 c 2.549,-0.896 4.342,-2.549 6.891,-3.446 2.114,6.788 -6.042,9.271 -6.891,3.446 M 39.619,323.847 c 6.962,11.592 2.421,35.224 -3.444,44.787 -6.499,-15.291 6.933,-28.348 3.444,-44.787 m 10.336,17.226 c 4.617,9.759 -4.32,19.395 -5.168,29.283 -2.891,-8.031 0.994,-22.722 5.168,-29.283 m 13.781,39.619 c -2.458,0.411 -2.906,2.837 -5.169,3.445 2.418,-11.704 6.132,-27.368 5.169,-3.445 M 56.845,353.13 c 4.634,12.469 -0.885,28.702 -6.89,36.174 0.266,-14.088 -1.799,-30.509 6.89,-36.174 m 12.058,27.562 c 2.895,10.184 -6.538,21.88 -13.781,27.561 1.871,-11.91 6.782,-20.78 13.781,-27.561 m 6.891,29.284 c 0.005,8.096 -7.088,18.107 -12.058,15.503 4.452,-4.733 7.336,-11.038 12.058,-15.503 M 74.071,392.75 c 4.321,15.374 -11.687,23.39 -17.226,34.452 -0.544,-11.597 9.311,-25.769 17.226,-34.452 m -31.007,10.335 c -7.463,9.189 -4.912,28.391 -15.502,34.452 -0.196,-16.846 8.471,-24.832 15.502,-34.452 M 29.284,373.801 C 37.621,399.789 5.725,411.134 3.445,437.537 3.08,407.314 24.675,399.05 29.284,373.801 m 51.678,31.007 c 5.86,21.263 -13.579,30.861 -22.395,43.065 2.581,-19.239 23.626,-20.014 22.395,-43.065 M 36.175,387.582 c 8.751,12.906 -8.302,24.056 -12.06,37.897 -2.366,8.724 1.618,15.245 -3.443,22.394 -27.432,-17.198 10.973,-42.344 15.503,-60.291 m 49.954,39.62 c -8.777,11.893 -17.221,24.122 -27.562,34.452 4.324,-15.211 18.529,-29.69 27.562,-34.452 m -20.67,39.619 c -1.316,-10.253 12.877,-19.038 18.947,-27.562 -3.946,10.647 -9.542,28.032 -18.947,27.562 m -118.858,8.612 c 14.362,-0.558 33.116,3.604 32.727,12.059 -6.658,-8.27 -20.805,-9.053 -32.727,-12.059 m 37.895,6.891 c -42.718,-38.247 -115.756,27.449 -148.142,-1.722 34.589,12.704 66.506,-14.022 99.91,-17.226 23.826,-2.286 42.021,6.409 65.459,12.057 -7.927,0.112 -11.182,4.897 -17.227,6.891 m -136.084,12.058 c 18.235,3.152 31.414,-5.924 49.955,-10.336 -20.178,18.245 -87.691,42.955 -91.297,-12.057 19.278,-7.688 23.343,19.282 41.342,22.393 m 122.304,3.446 c -28.089,-25.252 -60.021,12.568 -82.685,13.781 16.021,-18.332 66.718,-40.373 82.685,-13.781 m -132.639,15.503 c 30.41,2.674 58.126,-32.262 89.574,-31.007 -21.038,0.869 -35.244,30.454 -62.012,39.62 -29.313,10.036 -75.489,-4.851 -75.795,-31.007 -0.089,-7.608 0.155,-14.854 10.336,-15.504 10.481,17.052 17.416,36.096 37.897,37.898 m -49.956,-3.445 c 12.236,2.596 27.129,16.86 48.233,18.947 21.486,2.127 34.039,-3.377 44.788,-12.056 34.054,2.59 53.038,-39.206 86.129,-15.504 -59.167,5.801 -129.933,67.396 -179.15,8.613 m 29.285,27.561 c -18.089,-9.653 13.555,0.601 13.78,1.722 -6.387,1.221 -7.392,-2.942 -13.78,-1.722 m 20.671,1.722 c 60.933,5.237 77.058,-34.336 132.639,-34.451 -19.677,25.965 -86.589,41.584 -132.639,34.451 m 1.722,6.891 c -1.05,-0.098 -2.038,-0.258 -1.722,-1.723 57.866,5.032 106.435,-11.02 141.251,-34.451 -16.971,32.535 -87.068,44.839 -139.529,36.174 m 53.4,5.168 c 25.116,-0.418 43.658,-6.127 60.291,-13.781 15.117,-6.957 24.664,-18.66 37.898,-22.394 -16.598,25.929 -61.603,41.707 -98.189,36.175 m 24.117,8.613 c 35.396,-9.392 66.194,-23.38 86.129,-48.232 -14.437,29.234 -49.433,46.984 -86.129,48.232 m 3.445,10.335 c 26.276,-13.196 56.466,-17.75 75.794,-37.897 6.6,-6.879 6.625,-17.194 17.225,-20.67 -8.58,36.814 -49.596,56.029 -91.297,65.457 0.386,-3.256 -1.94,-3.8 -1.722,-6.89 m 44.787,0 c -17.07,7.054 -37.221,20.189 -55.122,20.671 10.883,-13.242 41.703,-15.705 55.122,-20.671 m -17.226,24.116 c 30.162,-15.148 56.787,-31.605 74.071,-56.845 5.322,-7.772 7.247,-23.143 20.671,-24.116 -16.595,41.972 -52.9,64.235 -94.742,80.961 m -79.239,13.782 c 55.745,-13.664 106.36,-27.857 136.085,-67.182 7.56,-10 9.164,-23.578 24.116,-27.561 -23.728,60.02 -98.409,90.43 -165.368,94.743 l 5.167,0 z m -86.129,-91.297 c 14.351,10.339 21.852,27.527 46.51,27.56 9.915,18.955 42.057,5.053 62.013,13.781 0.12,12.889 0.834,5.555 3.445,0 2.123,3.608 -1.283,2.462 6.89,1.723 -7.504,2.752 4.155,4.401 -3.445,5.167 0.171,7.216 5.527,-5.981 8.613,-6.89 10.266,-1.079 6.336,12.039 10.336,17.225 -16.677,24.666 -60.983,21.702 -84.408,39.621 -0.484,2.782 1.629,2.965 1.724,5.167 l 29.284,0 c 65.965,-10.055 122.39,-25.532 161.923,-67.18 5.833,-6.147 9.125,-15.219 15.503,-20.672 10.448,-8.932 19.485,-12.475 27.561,-20.67 26.267,-26.655 54.578,-70.695 48.233,-132.641 -3.554,-34.681 -21.4,-51.313 -34.452,-82.682 8.124,-2.382 3.744,7.739 8.613,8.612 8.557,1.778 14.974,5.697 25.839,5.168 10.648,-6.162 14.838,-28.756 13.78,-37.897 -3.19,-27.629 -47.744,-34.242 -56.845,-55.123 -0.272,-22.666 4.938,-39.85 8.613,-58.568 10.068,-3.395 11.412,10.841 20.671,15.503 9.119,4.59 23.857,4.805 34.452,3.446 1.443,-3.725 4.46,-5.877 3.444,-12.059 13.273,9.082 26.485,-5.08 36.175,-10.336 l 0,-13.781 C 160.694,115.494 129.621,104.078 99.909,91.297 98.47,78.383 89.599,72.9 86.129,62.014 c 3.244,-0.7 17.638,0.82 20.672,-5.168 C 106.563,47.533 100.077,55.178 93.02,53.4 82.749,49.889 80.893,37.967 75.794,29.285 75.607,19.91 84.595,19.713 82.684,8.613 104.548,6.9 145.497,-35.58 110.246,-58.568 101.217,-64.455 67.22,-70.346 65.459,-48.23 c 20.308,-18.389 58.266,3.988 41.342,27.56 -2.931,0.633 -3.251,-1.344 -3.446,-3.445 -3.671,12.98 -21.662,11.64 -31.006,18.949 C 58.31,-10.861 56.763,-14.924 44.787,-15.502 32.245,-16.107 16.752,-3.521 0,-5.166 c -11.178,-1.098 -31.032,-18.303 -32.729,-29.285 -1.719,-11.121 2.336,-25.074 12.057,-25.838 11.156,-0.879 8.883,12.582 20.672,13.781 0.885,-12.945 -7.753,-16.363 -13.781,-22.394 l -15.503,0 c -11.655,4.035 -18.794,21.316 -17.226,36.173 1.903,18.024 28.018,31.915 25.838,43.065 -1.496,7.668 -10.961,5.625 -18.947,10.336 -21.813,12.863 -39.501,45.75 -51.678,72.348 -56.135,-10.561 -104.715,14.15 -120.582,55.124 9.519,7.996 3.311,23.925 17.227,29.283 6.683,-0.209 8.705,-5.076 12.058,-8.614 12.55,1.194 22.588,11.422 34.451,12.057 17.633,0.945 28.97,-13.098 43.065,-18.947 3.807,54.908 23.281,95.131 49.955,129.194 6.863,8.765 19.234,15.908 24.116,25.839 7.644,15.551 2.491,36.263 20.672,46.51 -0.286,6.028 0.458,11.028 3.444,13.78 10.331,-1.153 3.49,-19.479 13.782,-20.67 0.782,12.077 9.507,8.695 15.502,8.613 8.748,20.582 -32.352,46.269 -24.116,74.07 1.723,5.813 10.508,14.642 20.672,13.782 11.506,-0.975 14.301,-14.366 24.115,-20.672 -1.836,12.454 -12.176,32.713 -29.284,36.174 -22.874,4.629 -52.964,-13.444 -80.962,-10.335 -32.443,3.602 -56.531,22.042 -80.961,20.671 -16.785,-0.942 -25.841,-12.389 -37.896,-15.503 -10.77,5.108 -16.973,4.809 -25.84,10.335 -8.076,7.08 1.723,28.137 -5.167,32.73 l 0,10.336 z" /></g></g></g></g></svg>